1 2 säännöllisesti 0
1 3 niillä 0
1 4 säännöllinen 0
1 58 riskiä 0
1 60 vaaraa 0
1 61 mahdollisuutta 0
1 150 riski 0
1 152 vaara 0
1 153 mahdollisuus 0
1 390 liikuntaa 0
1 391 liikkumista 0
1 403 liikunnan 0
1 404 liikkumisen 0
1 405 ihmisellä 0
1 406 henkilöllä 0
1 410 ihmisillä 0
1 411 henkilöillä 0
1 423 syövän 0
1 424 syöpäsairauksien 0
1 425 syöpäsairauden 0
1 428 syöpään 0
1 429 syöpäsairauteen 0
1 430 syöpäsairauksiin 0
10
100 437 voi 0
100 439 voidaan 0
101 437 voi 0
101 439 voidaan 0
102 437 voi 0
102 439 voidaan 0
103 437 voi 0
103 439 voidaan 0
104 437 voi 0
104 439 voidaan 0
105 437 voi 0
105 439 voidaan 0
106 437 voi 0
106 439 voidaan 0
107 437 voi 0
107 439 voidaan 0
108 437 voi 0
108 439 voidaan 0
109 437 voi 0
109 439 voidaan 0
11
110 437 voi 0
110 439 voidaan 0
111 437 voi 0
111 439 voidaan 0
112 437 voi 0
112 439 voidaan 0
113 74 ja 0
114 74 ja 0
115 74 ja 0
116 75 ja 0
117 75 ja 0
118 75 ja 0
119 76 ja 0
12
120 76 ja 0
121 76 ja 0
122 77 ja 0
123 77 ja 0
124 77 ja 0
125 85 masentumiselle 0
125 86 masennukselle 0
126 101 masentumiselle 0
126 102 masennukselle 0
127 125 ja 0
128 125 ja 0
129 125 ja 0
13
130 126 ja 0
131 126 ja 0
132 126 ja 0
133 83 masentumisesta 0
133 84 masennuksesta 0
134 99 masentumisesta 0
134 100 masennuksesta 0
135 133 ja 0
136 133 ja 0
137 133 ja 0
138 134 ja 0
139 134 ja 0
14
140 134 ja 0
141 145 masennuksen 0
142 146 masennuksen 0
143 147 masennuksen 0
144 148 masennuksen 0
145 184 syntyyn 0
145 189 kehittymiseen 0
146 199 syntyyn 0
146 204 kehittymiseen 0
147 199 syntyyn 0
147 200 synnystä 0
147 201 synnylle 0
147 202 kehittymisestä 0
147 203 kehittymiselle 0
147 204 kehittymiseen 0
148 184 syntyyn 0
148 185 synnystä 0
148 186 synnylle 0
148 187 kehittymisestä 0
148 188 kehittymiselle 0
148 189 kehittymiseen 0
149 157 syövän 0
149 158 syöpäsairauksien 0
149 159 syöpäsairauden 0
149 208 syöpään 0
149 209 syöpäsairauteen 0
149 210 syöpäsairauksiin 0
15
150 149 sairastua 0
150 160 syövän 0
150 161 syöpäsairauksien 0
150 162 syöpäsairauden 0
150 211 syöpään 0
150 212 syöpäsairauteen 0
150 213 syöpäsairauksiin 0
150 219 syövälle 0
150 220 syöpäsairauksille 0
150 221 syöpäsairaudelle 0
150 227 syövästä 0
150 228 syöpäsairauksista 0
150 229 syöpäsairaudesta 0
151 154 syövän 0
151 155 syöpäsairauksien 0
151 156 syöpäsairauden 0
151 205 syöpään 0
151 206 syöpäsairauteen 0
151 207 syöpäsairauksiin 0
152 151 sairastua 0
152 163 syövän 0
152 164 syöpäsairauksien 0
152 165 syöpäsairauden 0
152 214 syöpään 0
152 215 syöpäsairauteen 0
152 216 syöpäsairauksiin 0
152 222 syövälle 0
152 223 syöpäsairauksille 0
152 224 syöpäsairaudelle 0
152 230 syövästä 0
152 231 syöpäsairauksista 0
152 232 syöpäsairaudesta 0
153 151 sairastua 0
153 163 syövän 0
153 164 syöpäsairauksien 0
153 165 syöpäsairauden 0
153 214 syöpään 0
153 215 syöpäsairauteen 0
153 216 syöpäsairauksiin 0
153 222 syövälle 0
153 223 syöpäsairauksille 0
153 224 syöpäsairaudelle 0
153 230 syövästä 0
153 231 syöpäsairauksista 0
153 232 syöpäsairaudesta 0
154 141 ja 0
155 141 ja 0
156 141 ja 0
157 142 ja 0
158 142 ja 0
159 142 ja 0
16
160 143 ja 0
161 143 ja 0
162 143 ja 0
163 144 ja 0
164 144 ja 0
165 144 ja 0
166 170 masennukseen 0
167 171 masennukseen 0
168 172 masennukseen 0
168 198 masentumiseen 0
169 173 masennukseen 0
169 183 masentumiseen 0
17
170 182 sairastumiseen 0
170 435 on 0
171 197 sairastumiseen 0
171 436 on 0
172 195 sairastumisesta 0
172 196 sairastumiselle 0
172 197 sairastumiseen 0
172 436 on 0
173 180 sairastumisesta 0
173 181 sairastumiselle 0
173 182 sairastumiseen 0
173 435 on 0
174 435 on 0
175 435 on 0
176 435 on 0
177 435 on 0
178 435 on 0
179 435 on 0
18
180 435 on 0
181 435 on 0
182 435 on 0
183 435 on 0
184 435 on 0
185 435 on 0
186 435 on 0
187 435 on 0
188 435 on 0
189 435 on 0
19
190 436 on 0
191 436 on 0
192 436 on 0
193 436 on 0
194 436 on 0
195 436 on 0
196 436 on 0
197 436 on 0
198 436 on 0
199 436 on 0
2 390 liikuntaa 0
2 391 liikkumista 0
2 392 liikkuvalla 0
2 393 liikkuvilla 0
2 417 liikkuminen 0
20
200 436 on 0
201 436 on 0
202 436 on 0
203 436 on 0
204 436 on 0
205 166 ja 0
206 166 ja 0
207 166 ja 0
208 167 ja 0
209 167 ja 0
21
210 167 ja 0
211 168 ja 0
212 168 ja 0
213 168 ja 0
214 169 ja 0
215 169 ja 0
216 169 ja 0
217 193 masentumiselle 0
217 194 masennukselle 0
218 178 masentumiselle 0
218 179 masennukselle 0
219 217 ja 0
22
220 217 ja 0
221 217 ja 0
222 218 ja 0
223 218 ja 0
224 218 ja 0
225 191 masentumisesta 0
225 192 masennuksesta 0
226 176 masentumisesta 0
226 177 masennuksesta 0
227 225 ja 0
228 225 ja 0
229 225 ja 0
23
230 226 ja 0
231 226 ja 0
232 226 ja 0
233 235 masennuksen 0
233 265 masentumisen 0
234 236 masennuksen 0
234 261 masentumisen 0
235 33 vaara 0
235 34 riski 0
235 35 mahdollisuus 0
235 263 synnyn 0
235 264 kehittymisen 0
236 34 riski 0
236 259 synnyn 0
236 260 kehittymisen 0
237 242 syövän 0
237 243 syöpäsairauksien 0
237 244 syöpäsairauden 0
237 252 syöpään 0
237 253 syöpäsairauteen 0
237 254 syöpäsairauksiin 0
237 355 riski 0
237 356 vaara 0
237 357 mahdollisuus 0
238 242 syövän 0
238 243 syöpäsairauksien 0
238 244 syöpäsairauden 0
238 252 syöpään 0
238 253 syöpäsairauteen 0
238 254 syöpäsairauksiin 0
238 355 riski 0
238 356 vaara 0
238 357 mahdollisuus 0
239 245 syövän 0
239 246 syöpäsairauksien 0
239 247 syöpäsairauden 0
239 255 syöpään 0
239 256 syöpäsairauteen 0
239 257 syöpäsairauksiin 0
239 355 riski 0
24
240 245 syövän 0
240 246 syöpäsairauksien 0
240 247 syöpäsairauden 0
240 255 syöpään 0
240 256 syöpäsairauteen 0
240 257 syöpäsairauksiin 0
240 355 riski 0
241 245 syövän 0
241 246 syöpäsairauksien 0
241 247 syöpäsairauden 0
241 255 syöpään 0
241 256 syöpäsairauteen 0
241 257 syöpäsairauksiin 0
241 355 riski 0
242 233 ja 0
243 233 ja 0
244 233 ja 0
245 234 ja 0
246 234 ja 0
247 234 ja 0
248 251 masennukseen 0
249 250 masennukseen 0
25
250 258 sairastumisen 0
251 262 sairastumisen 0
252 248 ja 0
253 248 ja 0
254 248 ja 0
255 249 ja 0
256 249 ja 0
257 249 ja 0
258 34 riski 0
259 34 riski 0
26
260 34 riski 0
261 34 riski 0
262 33 vaara 0
262 34 riski 0
262 35 mahdollisuus 0
263 33 vaara 0
263 34 riski 0
263 35 mahdollisuus 0
264 33 vaara 0
264 34 riski 0
264 35 mahdollisuus 0
265 33 vaara 0
265 34 riski 0
265 35 mahdollisuus 0
266 267 masennuksen 0
267 31 syntyä 0
267 32 kehittymistä 0
268 270 syövän 0
268 271 syöpäsairauksien 0
268 272 syöpäsairauden 0
268 275 syöpään 0
268 276 syöpäsairauteen 0
268 277 syöpäsairauksiin 0
268 279 syöpää 0
268 280 syöpäsairautta 0
268 281 syöpäsairauksia 0
269 270 syövän 0
269 271 syöpäsairauksien 0
269 272 syöpäsairauden 0
269 275 syöpään 0
269 276 syöpäsairauteen 0
269 277 syöpäsairauksiin 0
269 279 syöpää 0
269 280 syöpäsairautta 0
269 281 syöpäsairauksia 0
27
270 266 ja 0
271 266 ja 0
272 266 ja 0
273 274 masennukseen 0
274 30 sairastumista 0
275 273 ja 0
276 273 ja 0
277 273 ja 0
278 28 masentumista 0
278 29 masennusta 0
279 278 ja 0
28
280 278 ja 0
281 278 ja 0
282 285 masennukseen 0
283 284 masennukseen 0
284 301 sairastumisen 0
285 305 sairastumisen 0
286 289 syöpään 0
286 290 syöpäsairauteen 0
286 291 syöpäsairauksiin 0
286 308 syövän 0
286 309 syöpäsairauksien 0
286 310 syöpäsairauden 0
286 352 riskiä 0
286 353 vaaraa 0
286 354 mahdollisuutta 0
286 383 syöpäsairaus 0
286 384 syöpä 0
286 386 syöpäsairausBIND- 0
286 386 syöpäBIND- 0
287 289 syöpään 0
287 290 syöpäsairauteen 0
287 291 syöpäsairauksiin 0
287 308 syövän 0
287 309 syöpäsairauksien 0
287 310 syöpäsairauden 0
287 352 riskiä 0
287 353 vaaraa 0
287 354 mahdollisuutta 0
287 383 syöpäsairaus 0
287 384 syöpä 0
287 386 syöpäsairausBIND- 0
287 386 syöpäBIND- 0
288 292 syöpään 0
288 293 syöpäsairauteen 0
288 294 syöpäsairauksiin 0
288 311 syövän 0
288 312 syöpäsairauksien 0
288 313 syöpäsairauden 0
288 352 riskiä 0
288 383 syöpäsairaus 0
288 384 syöpä 0
288 386 syöpäsairausBIND- 0
288 386 syöpäBIND- 0
289 282 ja 0
29
290 282 ja 0
291 282 ja 0
292 283 ja 0
293 283 ja 0
294 283 ja 0
295 304 masentumisen 0
295 306 masennuksen 0
296 300 masentumisen 0
296 307 masennuksen 0
297 25 riskiä 0
298 25 riskiä 0
299 25 riskiä 0
3 410 ihmisillä 0
3 411 henkilöillä 0
3 412 , 0
30
300 25 riskiä 0
301 25 riskiä 0
302 25 riskiä 0
302 26 vaaraa 0
302 27 mahdollisuutta 0
303 25 riskiä 0
303 26 vaaraa 0
303 27 mahdollisuutta 0
304 25 riskiä 0
304 26 vaaraa 0
304 27 mahdollisuutta 0
305 25 riskiä 0
305 26 vaaraa 0
305 27 mahdollisuutta 0
306 25 riskiä 0
306 26 vaaraa 0
306 27 mahdollisuutta 0
306 302 synnyn 0
306 303 kehittymisen 0
307 25 riskiä 0
307 298 synnyn 0
307 299 kehittymisen 0
308 295 ja 0
309 295 ja 0
31
310 295 ja 0
311 296 ja 0
312 296 ja 0
313 296 ja 0
314 43 liikuntaa 0
314 44 liikkumista 0
315 24 säännöllisesti 0
316 22 liikunnalla 0
316 23 liikkumisella 0
316 321 liikunnan 0
316 322 liikkumisen 0
317 314 harrastamalla 0
317 315 liikkumalla 0
317 316 säännöllisellä 0
317 323 liikunnan 0
317 324 liikkumisen 0
318 314 harrastamalla 0
318 315 liikkumalla 0
318 316 säännöllisellä 0
318 323 liikunnan 0
318 324 liikkumisen 0
319 314 harrastamalla 0
319 315 liikkumalla 0
319 316 säännöllisellä 0
319 323 liikunnan 0
319 324 liikkumisen 0
32
320 21 harrastamisella 0
321 21 harrastamisella 0
322 21 harrastamisella 0
323 21 harrastamisella 0
323 320 säännöllisellä 0
324 21 harrastamisella 0
324 320 säännöllisellä 0
325 341 säännöllisesti 0
326 341 säännöllisesti 0
327 326 liikkuu 0
328 45 liikkuvalla 0
328 46 liikkuvilla 0
328 334 liikuntaa 0
328 335 liikkumista 0
329 328 säännöllisesti 0
329 334 liikuntaa 0
329 335 liikkumista 0
329 336 liikunnan 0
329 337 liikkumisen 0
329 338 ihmisellä 0
329 339 henkilöllä 0
329 343 niillä 0
329 344 ihmisillä 0
329 345 henkilöillä 0
33
330 328 säännöllisesti 0
330 334 liikuntaa 0
330 335 liikkumista 0
330 336 liikunnan 0
330 337 liikkumisen 0
330 338 ihmisellä 0
330 339 henkilöllä 0
330 343 niillä 0
330 344 ihmisillä 0
330 345 henkilöillä 0
331 328 säännöllisesti 0
331 334 liikuntaa 0
331 335 liikkumista 0
331 336 liikunnan 0
331 337 liikkumisen 0
331 338 ihmisellä 0
331 339 henkilöllä 0
331 343 niillä 0
331 344 ihmisillä 0
331 345 henkilöillä 0
332 328 säännöllisesti 0
332 334 liikuntaa 0
332 335 liikkumista 0
332 336 liikunnan 0
332 337 liikkumisen 0
332 338 ihmisellä 0
332 339 henkilöllä 0
332 343 niillä 0
332 344 ihmisillä 0
332 345 henkilöillä 0
333 328 säännöllisesti 0
333 334 liikuntaa 0
333 335 liikkumista 0
333 336 liikunnan 0
333 337 liikkumisen 0
333 338 ihmisellä 0
333 339 henkilöllä 0
333 343 niillä 0
333 344 ihmisillä 0
333 345 henkilöillä 0
334 19 harrastavilla 0
334 20 harrastavalla 0
335 19 harrastavilla 0
335 20 harrastavalla 0
336 17 harrastajilla 0
336 18 harrastajalla 0
337 17 harrastajilla 0
337 18 harrastajalla 0
338 340 , 0
339 340 , 0
34
340 327 joka 0
341 16 , 0
342 325 liikkuvat 0
343 344 ihmisillä 0
343 345 henkilöillä 0
343 346 , 0
344 346 , 0
345 346 , 0
346 342 jotka 0
347 349 masennuksen 0
348 350 masennuksen 0
349 10 syntyyn 0
349 15 kehittymiseen 0
35
350 10 syntyyn 0
350 11 synnystä 0
350 12 synnylle 0
350 13 kehittymisestä 0
350 14 kehittymiselle 0
350 15 kehittymiseen 0
351 358 syövän 0
351 359 syöpäsairauksien 0
351 360 syöpäsairauden 0
351 366 syöpään 0
351 367 syöpäsairauteen 0
351 368 syöpäsairauksiin 0
352 351 sairastua 0
352 361 syövän 0
352 362 syöpäsairauksien 0
352 363 syöpäsairauden 0
352 369 syöpään 0
352 370 syöpäsairauteen 0
352 371 syöpäsairauksiin 0
352 373 syövälle 0
352 374 syöpäsairauksille 0
352 375 syöpäsairaudelle 0
352 377 syövästä 0
352 378 syöpäsairauksista 0
352 379 syöpäsairaudesta 0
353 351 sairastua 0
353 361 syövän 0
353 362 syöpäsairauksien 0
353 363 syöpäsairauden 0
353 369 syöpään 0
353 370 syöpäsairauteen 0
353 371 syöpäsairauksiin 0
353 373 syövälle 0
353 374 syöpäsairauksille 0
353 375 syöpäsairaudelle 0
353 377 syövästä 0
353 378 syöpäsairauksista 0
353 379 syöpäsairaudesta 0
354 351 sairastua 0
354 361 syövän 0
354 362 syöpäsairauksien 0
354 363 syöpäsairauden 0
354 369 syöpään 0
354 370 syöpäsairauteen 0
354 371 syöpäsairauksiin 0
354 373 syövälle 0
354 374 syöpäsairauksille 0
354 375 syöpäsairaudelle 0
354 377 syövästä 0
354 378 syöpäsairauksista 0
354 379 syöpäsairaudesta 0
355 351 sairastua 0
355 361 syövän 0
355 362 syöpäsairauksien 0
355 363 syöpäsairauden 0
355 369 syöpään 0
355 370 syöpäsairauteen 0
355 371 syöpäsairauksiin 0
355 373 syövälle 0
355 374 syöpäsairauksille 0
355 375 syöpäsairaudelle 0
355 377 syövästä 0
355 378 syöpäsairauksista 0
355 379 syöpäsairaudesta 0
356 351 sairastua 0
356 361 syövän 0
356 362 syöpäsairauksien 0
356 363 syöpäsairauden 0
356 369 syöpään 0
356 370 syöpäsairauteen 0
356 371 syöpäsairauksiin 0
356 373 syövälle 0
356 374 syöpäsairauksille 0
356 375 syöpäsairaudelle 0
356 377 syövästä 0
356 378 syöpäsairauksista 0
356 379 syöpäsairaudesta 0
357 351 sairastua 0
357 361 syövän 0
357 362 syöpäsairauksien 0
357 363 syöpäsairauden 0
357 369 syöpään 0
357 370 syöpäsairauteen 0
357 371 syöpäsairauksiin 0
357 373 syövälle 0
357 374 syöpäsairauksille 0
357 375 syöpäsairaudelle 0
357 377 syövästä 0
357 378 syöpäsairauksista 0
357 379 syöpäsairaudesta 0
358 347 ja 0
359 347 ja 0
36
360 347 ja 0
361 348 ja 0
362 348 ja 0
363 348 ja 0
364 47 masennukseen 0
365 9 masentumiseen 0
365 48 masennukseen 0
366 364 ja 0
367 364 ja 0
368 364 ja 0
369 365 ja 0
37
370 365 ja 0
371 365 ja 0
372 7 masentumiselle 0
372 8 masennukselle 0
373 372 ja 0
374 372 ja 0
375 372 ja 0
376 5 masentumisesta 0
376 6 masennuksesta 0
377 376 ja 0
378 376 ja 0
379 376 ja 0
38
380 381 masentumis 0
380 382 masennus 0
380 25 masentumisBINDriskiä 0
380 25 masennusBINDriskiä 0
381 297 &+ 0
382 297 &+ 0
383 385 &+ 0
384 385 &+ 0
385 386 - 0
386 380 ja 0
387 408 säännöllisesti 0
388 408 säännöllisesti 0
389 388 liikkuu 0
39
390 401 harrastavilla 0
390 402 harrastavalla 0
391 401 harrastavilla 0
391 402 harrastavalla 0
392 399 ihmisellä 0
392 400 henkilöllä 0
392 441 on 0
393 397 ihmisillä 0
393 398 henkilöillä 0
393 441 on 0
394 441 on 0
395 441 on 0
396 441 on 0
397 441 on 0
398 441 on 0
399 441 on 0
4 416 liikunta 0
4 417 liikkuminen 0
4 419 liikunnan 0
4 420 liikkumisen 0
40
400 441 on 0
401 441 on 0
402 441 on 0
403 395 harrastajilla 0
403 396 harrastajalla 0
403 413 harrastaminen 0
403 418 säännöllinen 0
404 395 harrastajilla 0
404 396 harrastajalla 0
404 413 harrastaminen 0
404 418 säännöllinen 0
405 407 , 0
406 407 , 0
407 389 joka 0
408 394 , 0
409 387 liikkuvat 0
41
410 412 , 0
411 412 , 0
412 409 jotka 0
413 268 ennaltaehkäisee 0
413 269 ehkäisee 0
413 286 vähentää 0
413 287 pienentää 0
413 288 alentaa 0
413 415 säännöllisesti 0
414 268 ennaltaehkäisee 0
414 269 ehkäisee 0
414 286 vähentää 0
414 287 pienentää 0
414 288 alentaa 0
415 268 ennaltaehkäisee 0
415 269 ehkäisee 0
415 286 vähentää 0
415 287 pienentää 0
415 288 alentaa 0
416 268 ennaltaehkäisee 0
416 269 ehkäisee 0
416 286 vähentää 0
416 287 pienentää 0
416 288 alentaa 0
417 268 ennaltaehkäisee 0
417 269 ehkäisee 0
417 286 vähentää 0
417 287 pienentää 0
417 288 alentaa 0
418 414 harrastaminen 0
419 414 harrastaminen 0
42
420 414 harrastaminen 0
421 422 masennuksen 0
421 434 masentumisen 0
422 82 riskiä 0
422 97 vaaraa 0
422 98 mahdollisuutta 0
422 174 vaara 0
422 175 mahdollisuus 0
422 190 riski 0
422 432 synnyn 0
422 433 kehittymisen 0
423 421 ja 0
424 421 ja 0
425 421 ja 0
426 427 masennukseen 0
427 431 sairastumisen 0
428 426 ja 0
429 426 ja 0
43
43 24 säännöllisesti 0
430 426 ja 0
431 82 riskiä 0
431 97 vaaraa 0
431 98 mahdollisuutta 0
431 174 vaara 0
431 175 mahdollisuus 0
431 190 riski 0
432 82 riskiä 0
432 97 vaaraa 0
432 98 mahdollisuutta 0
432 174 vaara 0
432 175 mahdollisuus 0
432 190 riski 0
433 82 riskiä 0
433 97 vaaraa 0
433 98 mahdollisuutta 0
433 174 vaara 0
433 175 mahdollisuus 0
433 190 riski 0
434 82 riskiä 0
434 97 vaaraa 0
434 98 mahdollisuutta 0
434 174 vaara 0
434 175 mahdollisuus 0
434 190 riski 0
435 329 vähäisempi 0
435 330 pienempi 0
436 329 vähäisempi 0
436 330 pienempi 0
436 331 matalampi 0
436 332 alhaisempi 0
436 333 alempi 0
437 317 vähentää 0
437 318 pienentää 0
438 317 vähentää 0
438 318 pienentää 0
439 317 vähentää 0
439 318 pienentää 0
439 319 alentaa 0
44
44 24 säännöllisesti 0
440 317 vähentää 0
440 318 pienentää 0
440 319 alentaa 0
441 237 vähäisempi 0
441 238 pienempi 0
441 239 matalampi 0
441 240 alhaisempi 0
441 241 alempi 0
45
45 41 ihmisellä 0
45 42 henkilöllä 0
46
46 39 ihmisillä 0
46 40 henkilöillä 0
47
47 38 sairastumiseen 0
48
48 36 sairastumisesta 0
48 37 sairastumiselle 0
48 38 sairastumiseen 0
49 53 masennuksen 0
5
50 54 masennuksen 0
51 55 masennuksen 0
52 56 masennuksen 0
53 91 syntyyn 0
53 96 kehittymiseen 0
54 91 syntyyn 0
54 92 synnystä 0
54 93 synnylle 0
54 94 kehittymisestä 0
54 95 kehittymiselle 0
54 96 kehittymiseen 0
55 107 syntyyn 0
55 112 kehittymiseen 0
56 107 syntyyn 0
56 108 synnystä 0
56 109 synnylle 0
56 110 kehittymisestä 0
56 111 kehittymiselle 0
56 112 kehittymiseen 0
57 62 syövän 0
57 63 syöpäsairauksien 0
57 64 syöpäsairauden 0
57 113 syöpään 0
57 114 syöpäsairauteen 0
57 115 syöpäsairauksiin 0
58 57 sairastua 0
58 65 syövän 0
58 66 syöpäsairauksien 0
58 67 syöpäsairauden 0
58 116 syöpään 0
58 117 syöpäsairauteen 0
58 118 syöpäsairauksiin 0
58 127 syövälle 0
58 128 syöpäsairauksille 0
58 129 syöpäsairaudelle 0
58 135 syövästä 0
58 136 syöpäsairauksista 0
58 137 syöpäsairaudesta 0
59 68 syövän 0
59 69 syöpäsairauksien 0
59 70 syöpäsairauden 0
59 119 syöpään 0
59 120 syöpäsairauteen 0
59 121 syöpäsairauksiin 0
6
60 59 sairastua 0
60 71 syövän 0
60 72 syöpäsairauksien 0
60 73 syöpäsairauden 0
60 122 syöpään 0
60 123 syöpäsairauteen 0
60 124 syöpäsairauksiin 0
60 130 syövälle 0
60 131 syöpäsairauksille 0
60 132 syöpäsairaudelle 0
60 138 syövästä 0
60 139 syöpäsairauksista 0
60 140 syöpäsairaudesta 0
61 59 sairastua 0
61 71 syövän 0
61 72 syöpäsairauksien 0
61 73 syöpäsairauden 0
61 122 syöpään 0
61 123 syöpäsairauteen 0
61 124 syöpäsairauksiin 0
61 130 syövälle 0
61 131 syöpäsairauksille 0
61 132 syöpäsairaudelle 0
61 138 syövästä 0
61 139 syöpäsairauksista 0
61 140 syöpäsairaudesta 0
62 49 ja 0
63 49 ja 0
64 49 ja 0
65 50 ja 0
66 50 ja 0
67 50 ja 0
68 51 ja 0
69 51 ja 0
7
70 51 ja 0
71 52 ja 0
72 52 ja 0
73 52 ja 0
74 78 masennukseen 0
75 79 masennukseen 0
75 90 masentumiseen 0
76 80 masennukseen 0
77 81 masennukseen 0
77 106 masentumiseen 0
78 89 sairastumiseen 0
78 438 voidaan 0
78 440 voi 0
79 87 sairastumisesta 0
79 88 sairastumiselle 0
79 89 sairastumiseen 0
79 438 voidaan 0
79 440 voi 0
8
80 105 sairastumiseen 0
80 437 voi 0
80 439 voidaan 0
81 103 sairastumisesta 0
81 104 sairastumiselle 0
81 105 sairastumiseen 0
81 437 voi 0
81 439 voidaan 0
82 438 voidaan 0
82 440 voi 0
83 438 voidaan 0
83 440 voi 0
84 438 voidaan 0
84 440 voi 0
85 438 voidaan 0
85 440 voi 0
86 438 voidaan 0
86 440 voi 0
87 438 voidaan 0
87 440 voi 0
88 438 voidaan 0
88 440 voi 0
89 438 voidaan 0
89 440 voi 0
9
90 438 voidaan 0
90 440 voi 0
91 438 voidaan 0
91 440 voi 0
92 438 voidaan 0
92 440 voi 0
93 438 voidaan 0
93 440 voi 0
94 438 voidaan 0
94 440 voi 0
95 438 voidaan 0
95 440 voi 0
96 438 voidaan 0
96 440 voi 0
97 437 voi 0
97 439 voidaan 0
98 437 voi 0
98 439 voidaan 0
99 437 voi 0
99 439 voidaan 0
