system,1,2,3,4,5,6,7,8,9,10,15,20,25,30,35,40,45,50,55,60,70,80,90,100,110,120,130,140,150,160,210,260,310,360,410,460,510,560,610,660,760,860,960,1060,1160,1260,1360,1460,1560,1660
twosteptrans500,3.42,6.51,8.21,10.54,11.89,13.24,14.18,15.07,16.22,16.89,20.65,22.71,24.94,26.03,27.59,28.46,29.35,29.98,30.63,31.16,32.12,33.01,33.66,34.19,34.51,34.80,35.20,35.61,35.90,36.16,37.14,38.07,38.71,39.15,39.37,39.73,39.89,40.02,40.19,40.40,40.61,40.89,41.21,41.30,41.39,41.56,41.66,41.70,41.78,41.80
googletrans500,3.30,6.34,8.58,10.60,12.34,13.84,15.12,16.40,17.59,18.49,21.33,23.51,25.51,26.99,28.18,28.74,29.53,30.12,30.69,31.18,32.10,33.05,33.92,34.28,34.69,35.15,35.50,35.67,36.00,36.18,37.22,38.25,38.76,39.13,39.33,39.60,39.73,39.96,40.08,40.25,40.40,40.51,40.64,40.76,40.88,40.96,41.02,41.07,41.13,41.13
smttrans500,1.58,3.49,4.50,5.55,6.06,7.08,7.64,8.21,8.47,8.65,10.23,10.93,11.89,12.53,13.21,13.70,14.17,14.53,14.68,14.81,15.29,15.76,16.07,16.35,16.47,16.63,16.70,16.93,17.04,17.20,17.57,18.05,18.35,18.54,18.64,18.70,18.82,18.93,18.98,19.00,19.03,19.10,19.18,19.33,19.44,19.49,19.56,19.69,19.69,19.69
googlesmttrans500,2.57,5.02,6.60,7.77,8.55,9.47,10.51,11.47,12.16,12.55,15.42,16.86,18.67,19.54,20.39,20.90,21.38,21.81,22.36,22.76,23.47,24.16,24.58,24.83,25.18,25.48,25.76,25.99,26.19,26.27,26.83,27.64,28.11,28.46,28.61,28.86,28.98,29.24,29.34,29.58,29.71,29.81,30.05,30.13,30.20,30.29,30.40,30.50,30.57,30.72
sundatrans500,2.98,5.26,6.96,8.91,10.37,11.74,12.54,13.57,14.87,15.47,18.17,20.26,22.64,23.50,24.67,25.55,26.33,26.78,27.34,27.68,28.74,29.37,29.85,30.24,30.42,30.59,30.71,30.88,31.08,31.32,31.87,32.37,32.65,33.00,33.19,33.37,33.43,33.63,33.73,33.81,33.83,33.93,34.05,34.12,34.19,34.31,34.34,34.40,34.42,34.43
bingtrans500,3.25,5.71,7.42,9.05,10.45,11.65,12.70,13.79,15.06,15.58,18.46,20.81,23.08,24.07,25.47,26.27,27.08,27.63,27.96,28.41,29.43,30.26,30.94,31.44,31.66,32.13,32.47,32.75,33.00,33.22,34.05,34.80,35.27,35.57,35.77,36.06,36.21,36.31,36.43,36.61,36.74,36.97,37.21,37.33,37.43,37.50,37.54,37.60,37.65,37.66
yandextrans500,2.23,4.57,5.86,6.95,7.74,8.96,10.08,11.24,11.93,12.19,15.27,16.85,18.28,19.11,19.88,20.54,20.91,21.30,21.74,22.14,22.99,23.63,24.10,24.51,24.69,25.08,25.25,25.61,25.80,25.92,26.51,27.49,27.94,28.24,28.48,28.63,28.80,29.00,29.19,29.29,29.40,29.60,29.89,29.95,30.09,30.16,30.28,30.36,30.44,30.50
salamatrans500,3.32,5.92,7.65,9.61,10.81,12.04,12.82,13.80,14.73,15.35,18.68,20.96,23.13,24.03,25.33,26.21,27.05,27.65,28.25,28.61,29.52,30.00,30.59,30.87,31.07,31.35,31.63,31.97,32.14,32.39,33.41,34.05,34.41,34.91,35.10,35.30,35.46,35.57,35.62,35.84,35.87,36.03,36.19,36.26,36.37,36.45,36.51,36.55,36.64,36.69
