0 1 it 0
0 35 rebuilding 0
1 2 is 0
1 51 will 0
2 8 difficult 0
2 3 hard 0
3 4 to 0
4 5 rebuild 0
4 21 restore 0
5 17 true 0
5 6 genuine 0
5 13 real 0
6 7 trust 0
7
8 9 to 0
9 10 rebuild 0
9 24 restore 0
10 19 true 0
10 11 genuine 0
10 15 real 0
11 12 trust 0
12
13 14 trust 0
14
15 16 trust 0
16
17 18 trust 0
18
19 20 trust 0
20
21 31 true 0
21 22 genuine 0
21 27 real 0
22 23 trust 0
23
24 33 true 0
24 25 genuine 0
24 29 real 0
25 26 trust 0
26
27 28 trust 0
28
29 30 trust 0
30
31 32 trust 0
32
33 34 trust 0
34
35 46 true 0
35 36 genuine 0
35 41 real 0
36 37 trust 0
37 38 is 0
37 85 will 0
38 40 difficult 0
38 39 hard 0
39
40
41 42 trust 0
42 43 is 0
42 89 will 0
43 45 difficult 0
43 44 hard 0
44
45
46 47 trust 0
47 48 is 0
47 93 will 0
48 50 difficult 0
48 49 hard 0
49
50
51 52 be 0
52 58 difficult 0
52 53 hard 0
53 54 to 0
54 55 rebuild 0
54 71 restore 0
55 67 true 0
55 56 genuine 0
55 63 real 0
56 57 trust 0
57
58 59 to 0
59 60 rebuild 0
59 74 restore 0
60 69 true 0
60 61 genuine 0
60 65 real 0
61 62 trust 0
62
63 64 trust 0
64
65 66 trust 0
66
67 68 trust 0
68
69 70 trust 0
70
71 81 true 0
71 72 genuine 0
71 77 real 0
72 73 trust 0
73
74 83 true 0
74 75 genuine 0
74 79 real 0
75 76 trust 0
76
77 78 trust 0
78
79 80 trust 0
80
81 82 trust 0
82
83 84 trust 0
84
85 86 be 0
86 88 difficult 0
86 87 hard 0
87
88
89 90 be 0
90 92 difficult 0
90 91 hard 0
91
92
93 94 be 0
94 96 difficult 0
94 95 hard 0
95
96
