0 1224 it 0
0 1 this 0
1 2 was 0
2 3 an 0
2 182 a 0
2 951 at 0
2 1029 simultaneously 0
2 696 both 0
3 4 operation, 0
3 426 extremely 0
4 5 which 0
5 6 was 0
6 7 huge 0
6 139 simultaneously 0
6 31 gigantic 0
6 56 extremely 0
6 19 massive 0
6 43 very 0
7 8 and 0
8 9 at 0
8 104 simultaneously 0
8 69 also 0
9 10 the 0
10 11 same 0
11 12 time 0
12 13 very 0
12 16 extremely 0
13 14 delicate 0
13 15 precise 0
14
15
16 17 delicate 0
16 18 precise 0
17
18
19 20 and 0
20 21 at 0
20 111 simultaneously 0
20 76 also 0
21 22 the 0
22 23 same 0
23 24 time 0
24 25 very 0
24 28 extremely 0
25 26 delicate 0
25 27 precise 0
26
27
28 29 delicate 0
28 30 precise 0
29
30
31 32 and 0
32 33 at 0
32 118 simultaneously 0
32 83 also 0
33 34 the 0
34 35 same 0
35 36 time 0
36 37 very 0
36 40 extremely 0
37 38 delicate 0
37 39 precise 0
38
39
40 41 delicate 0
40 42 precise 0
41
42
43 44 demanding 0
44 45 and 0
45 46 at 0
45 125 simultaneously 0
45 90 also 0
46 47 the 0
47 48 same 0
48 49 time 0
49 50 very 0
49 53 extremely 0
50 51 delicate 0
50 52 precise 0
51
52
53 54 delicate 0
53 55 precise 0
54
55
56 57 demanding 0
57 58 and 0
58 59 at 0
58 132 simultaneously 0
58 97 also 0
59 60 the 0
60 61 same 0
61 62 time 0
62 63 very 0
62 66 extremely 0
63 64 delicate 0
63 65 precise 0
64
65
66 67 delicate 0
66 68 precise 0
67
68
69 70 very 0
69 73 extremely 0
70 71 delicate 0
70 72 precise 0
71
72
73 74 delicate 0
73 75 precise 0
74
75
76 77 very 0
76 80 extremely 0
77 78 delicate 0
77 79 precise 0
78
79
80 81 delicate 0
80 82 precise 0
81
82
83 84 very 0
83 87 extremely 0
84 85 delicate 0
84 86 precise 0
85
86
87 88 delicate 0
87 89 precise 0
88
89
90 91 very 0
90 94 extremely 0
91 92 delicate 0
91 93 precise 0
92
93
94 95 delicate 0
94 96 precise 0
95
96
97 98 very 0
97 101 extremely 0
98 99 delicate 0
98 100 precise 0
99
100
101 102 delicate 0
101 103 precise 0
102
103
104 105 very 0
104 108 extremely 0
105 106 delicate 0
105 107 precise 0
106
107
108 109 delicate 0
108 110 precise 0
109
110
111 112 very 0
111 115 extremely 0
112 113 delicate 0
112 114 precise 0
113
114
115 116 delicate 0
115 117 precise 0
116
117
118 119 very 0
118 122 extremely 0
119 120 delicate 0
119 121 precise 0
120
121
122 123 delicate 0
122 124 precise 0
123
124
125 126 very 0
125 129 extremely 0
126 127 delicate 0
126 128 precise 0
127
128
129 130 delicate 0
129 131 precise 0
130
131
132 133 very 0
132 136 extremely 0
133 134 delicate 0
133 135 precise 0
134
135
136 137 delicate 0
136 138 precise 0
137
138
139 173 extremely 0
139 148 massive 0
139 164 very 0
139 156 gigantic 0
139 140 huge 0
140 141 and 0
141 142 very 0
141 145 extremely 0
142 143 delicate 0
142 144 precise 0
143
144
145 146 delicate 0
145 147 precise 0
146
147
148 149 and 0
149 150 very 0
149 153 extremely 0
150 151 delicate 0
150 152 precise 0
151
152
153 154 delicate 0
153 155 precise 0
154
155
156 157 and 0
157 158 very 0
157 161 extremely 0
158 159 delicate 0
158 160 precise 0
159
160
161 162 delicate 0
161 163 precise 0
162
163
164 165 demanding 0
165 166 and 0
166 167 very 0
166 170 extremely 0
167 168 delicate 0
167 169 precise 0
168
169
170 171 delicate 0
170 172 precise 0
171
172
173 174 demanding 0
174 175 and 0
175 176 very 0
175 179 extremely 0
176 177 delicate 0
176 178 precise 0
177
178
179 180 delicate 0
179 181 precise 0
180
181
182 183 task, 0
182 553 simultaneously 0
182 393 gigantic 0
182 361 huge 0
182 377 massive 0
182 409 very 0
183 184 which 0
184 185 was 0
185 186 huge 0
185 318 simultaneously 0
185 210 gigantic 0
185 235 extremely 0
185 198 massive 0
185 222 very 0
186 187 and 0
187 188 at 0
187 283 simultaneously 0
187 248 also 0
188 189 the 0
189 190 same 0
190 191 time 0
191 192 very 0
191 195 extremely 0
192 193 delicate 0
192 194 precise 0
193
194
195 196 delicate 0
195 197 precise 0
196
197
198 199 and 0
199 200 at 0
199 290 simultaneously 0
199 255 also 0
200 201 the 0
201 202 same 0
202 203 time 0
203 204 very 0
203 207 extremely 0
204 205 delicate 0
204 206 precise 0
205
206
207 208 delicate 0
207 209 precise 0
208
209
210 211 and 0
211 212 at 0
211 297 simultaneously 0
211 262 also 0
212 213 the 0
213 214 same 0
214 215 time 0
215 216 very 0
215 219 extremely 0
216 217 delicate 0
216 218 precise 0
217
218
219 220 delicate 0
219 221 precise 0
220
221
222 223 demanding 0
223 224 and 0
224 225 at 0
224 304 simultaneously 0
224 269 also 0
225 226 the 0
226 227 same 0
227 228 time 0
228 229 very 0
228 232 extremely 0
229 230 delicate 0
229 231 precise 0
230
231
232 233 delicate 0
232 234 precise 0
233
234
235 236 demanding 0
236 237 and 0
237 238 at 0
237 311 simultaneously 0
237 276 also 0
238 239 the 0
239 240 same 0
240 241 time 0
241 242 very 0
241 245 extremely 0
242 243 delicate 0
242 244 precise 0
243
244
245 246 delicate 0
245 247 precise 0
246
247
248 249 very 0
248 252 extremely 0
249 250 delicate 0
249 251 precise 0
250
251
252 253 delicate 0
252 254 precise 0
253
254
255 256 very 0
255 259 extremely 0
256 257 delicate 0
256 258 precise 0
257
258
259 260 delicate 0
259 261 precise 0
260
261
262 263 very 0
262 266 extremely 0
263 264 delicate 0
263 265 precise 0
264
265
266 267 delicate 0
266 268 precise 0
267
268
269 270 very 0
269 273 extremely 0
270 271 delicate 0
270 272 precise 0
271
272
273 274 delicate 0
273 275 precise 0
274
275
276 277 very 0
276 280 extremely 0
277 278 delicate 0
277 279 precise 0
278
279
280 281 delicate 0
280 282 precise 0
281
282
283 284 very 0
283 287 extremely 0
284 285 delicate 0
284 286 precise 0
285
286
287 288 delicate 0
287 289 precise 0
288
289
290 291 very 0
290 294 extremely 0
291 292 delicate 0
291 293 precise 0
292
293
294 295 delicate 0
294 296 precise 0
295
296
297 298 very 0
297 301 extremely 0
298 299 delicate 0
298 300 precise 0
299
300
301 302 delicate 0
301 303 precise 0
302
303
304 305 very 0
304 308 extremely 0
305 306 delicate 0
305 307 precise 0
306
307
308 309 delicate 0
308 310 precise 0
309
310
311 312 very 0
311 315 extremely 0
312 313 delicate 0
312 314 precise 0
313
314
315 316 delicate 0
315 317 precise 0
316
317
318 352 extremely 0
318 327 massive 0
318 343 very 0
318 335 gigantic 0
318 319 huge 0
319 320 and 0
320 321 very 0
320 324 extremely 0
321 322 delicate 0
321 323 precise 0
322
323
324 325 delicate 0
324 326 precise 0
325
326
327 328 and 0
328 329 very 0
328 332 extremely 0
329 330 delicate 0
329 331 precise 0
330
331
332 333 delicate 0
332 334 precise 0
333
334
335 336 and 0
336 337 very 0
336 340 extremely 0
337 338 delicate 0
337 339 precise 0
338
339
340 341 delicate 0
340 342 precise 0
341
342
343 344 demanding 0
344 345 and 0
345 346 very 0
345 349 extremely 0
346 347 delicate 0
346 348 precise 0
347
348
349 350 delicate 0
349 351 precise 0
350
351
352 353 demanding 0
353 354 and 0
354 355 very 0
354 358 extremely 0
355 356 delicate 0
355 357 precise 0
356
357
358 359 delicate 0
358 360 precise 0
359
360
361 362 and 0
362 363 at 0
362 498 simultaneously 0
362 443 also 0
363 364 the 0
364 365 same 0
365 366 time 0
366 771 a 0
366 777 an 0
366 367 very 0
366 372 extremely 0
367 368 delicate 0
367 370 precise 0
368 369 operation 0
368 616 task 0
369
370 371 operation 0
370 617 task 0
371
372 373 delicate 0
372 375 precise 0
373 374 operation 0
373 618 task 0
374
375 376 operation 0
375 619 task 0
376
377 378 and 0
378 379 at 0
378 509 simultaneously 0
378 454 also 0
379 380 the 0
380 381 same 0
381 382 time 0
382 783 a 0
382 789 an 0
382 383 very 0
382 388 extremely 0
383 384 delicate 0
383 386 precise 0
384 385 operation 0
384 620 task 0
385
386 387 operation 0
386 621 task 0
387
388 389 delicate 0
388 391 precise 0
389 390 operation 0
389 622 task 0
390
391 392 operation 0
391 623 task 0
392
393 394 and 0
394 395 at 0
394 520 simultaneously 0
394 465 also 0
395 396 the 0
396 397 same 0
397 398 time 0
398 795 a 0
398 801 an 0
398 399 very 0
398 404 extremely 0
399 400 delicate 0
399 402 precise 0
400 401 operation 0
400 624 task 0
401
402 403 operation 0
402 625 task 0
403
404 405 delicate 0
404 407 precise 0
405 406 operation 0
405 626 task 0
406
407 408 operation 0
407 627 task 0
408
409 410 demanding 0
410 411 and 0
411 412 at 0
411 531 simultaneously 0
411 476 also 0
412 413 the 0
413 414 same 0
414 415 time 0
415 807 a 0
415 813 an 0
415 416 very 0
415 421 extremely 0
416 417 delicate 0
416 419 precise 0
417 418 operation 0
417 628 task 0
418
419 420 operation 0
419 629 task 0
420
421 422 delicate 0
421 424 precise 0
422 423 operation 0
422 630 task 0
423
424 425 operation 0
424 631 task 0
425
426 427 demanding 0
427 428 and 0
428 429 at 0
428 542 simultaneously 0
428 487 also 0
429 430 the 0
430 431 same 0
431 432 time 0
432 819 a 0
432 825 an 0
432 433 very 0
432 438 extremely 0
433 434 delicate 0
433 436 precise 0
434 435 operation 0
434 632 task 0
435
436 437 operation 0
436 633 task 0
437
438 439 delicate 0
438 441 precise 0
439 440 operation 0
439 634 task 0
440
441 442 operation 0
441 635 task 0
442
443 831 a 0
443 837 an 0
443 444 very 0
443 449 extremely 0
444 445 delicate 0
444 447 precise 0
445 446 operation 0
445 636 task 0
446
447 448 operation 0
447 637 task 0
448
449 450 delicate 0
449 452 precise 0
450 451 operation 0
450 638 task 0
451
452 453 operation 0
452 639 task 0
453
454 843 a 0
454 849 an 0
454 455 very 0
454 460 extremely 0
455 456 delicate 0
455 458 precise 0
456 457 operation 0
456 640 task 0
457
458 459 operation 0
458 641 task 0
459
460 461 delicate 0
460 463 precise 0
461 462 operation 0
461 642 task 0
462
463 464 operation 0
463 643 task 0
464
465 855 a 0
465 861 an 0
465 466 very 0
465 471 extremely 0
466 467 delicate 0
466 469 precise 0
467 468 operation 0
467 644 task 0
468
469 470 operation 0
469 645 task 0
470
471 472 delicate 0
471 474 precise 0
472 473 operation 0
472 646 task 0
473
474 475 operation 0
474 647 task 0
475
476 867 a 0
476 873 an 0
476 477 very 0
476 482 extremely 0
477 478 delicate 0
477 480 precise 0
478 479 operation 0
478 648 task 0
479
480 481 operation 0
480 649 task 0
481
482 483 delicate 0
482 485 precise 0
483 484 operation 0
483 650 task 0
484
485 486 operation 0
485 651 task 0
486
487 879 a 0
487 885 an 0
487 488 very 0
487 493 extremely 0
488 489 delicate 0
488 491 precise 0
489 490 operation 0
489 652 task 0
490
491 492 operation 0
491 653 task 0
492
493 494 delicate 0
493 496 precise 0
494 495 operation 0
494 654 task 0
495
496 497 operation 0
496 655 task 0
497
498 891 a 0
498 897 an 0
498 499 very 0
498 504 extremely 0
499 500 delicate 0
499 502 precise 0
500 501 operation 0
500 656 task 0
501
502 503 operation 0
502 657 task 0
503
504 505 delicate 0
504 507 precise 0
505 506 operation 0
505 658 task 0
506
507 508 operation 0
507 659 task 0
508
509 903 a 0
509 909 an 0
509 510 very 0
509 515 extremely 0
510 511 delicate 0
510 513 precise 0
511 512 operation 0
511 660 task 0
512
513 514 operation 0
513 661 task 0
514
515 516 delicate 0
515 518 precise 0
516 517 operation 0
516 662 task 0
517
518 519 operation 0
518 663 task 0
519
520 915 a 0
520 921 an 0
520 521 very 0
520 526 extremely 0
521 522 delicate 0
521 524 precise 0
522 523 operation 0
522 664 task 0
523
524 525 operation 0
524 665 task 0
525
526 527 delicate 0
526 529 precise 0
527 528 operation 0
527 666 task 0
528
529 530 operation 0
529 667 task 0
530
531 927 a 0
531 933 an 0
531 532 very 0
531 537 extremely 0
532 533 delicate 0
532 535 precise 0
533 534 operation 0
533 668 task 0
534
535 536 operation 0
535 669 task 0
536
537 538 delicate 0
537 540 precise 0
538 539 operation 0
538 670 task 0
539
540 541 operation 0
540 671 task 0
541
542 939 a 0
542 945 an 0
542 543 very 0
542 548 extremely 0
543 544 delicate 0
543 546 precise 0
544 545 operation 0
544 672 task 0
545
546 547 operation 0
546 673 task 0
547
548 549 delicate 0
548 551 precise 0
549 550 operation 0
549 674 task 0
550
551 552 operation 0
551 675 task 0
552
553 603 extremely 0
553 566 massive 0
553 590 very 0
553 578 gigantic 0
553 554 huge 0
554 555 and 0
555 556 very 0
555 561 extremely 0
556 557 delicate 0
556 559 precise 0
557 558 operation 0
557 676 task 0
558
559 560 operation 0
559 677 task 0
560
561 562 delicate 0
561 564 precise 0
562 563 operation 0
562 678 task 0
563
564 565 operation 0
564 679 task 0
565
566 567 and 0
567 568 very 0
567 573 extremely 0
568 569 delicate 0
568 571 precise 0
569 570 operation 0
569 680 task 0
570
571 572 operation 0
571 681 task 0
572
573 574 delicate 0
573 576 precise 0
574 575 operation 0
574 682 task 0
575
576 577 operation 0
576 683 task 0
577
578 579 and 0
579 580 very 0
579 585 extremely 0
580 581 delicate 0
580 583 precise 0
581 582 operation 0
581 684 task 0
582
583 584 operation 0
583 685 task 0
584
585 586 delicate 0
585 588 precise 0
586 587 operation 0
586 686 task 0
587
588 589 operation 0
588 687 task 0
589
590 591 demanding 0
591 592 and 0
592 593 very 0
592 598 extremely 0
593 594 delicate 0
593 596 precise 0
594 595 operation 0
594 688 task 0
595
596 597 operation 0
596 689 task 0
597
598 599 delicate 0
598 601 precise 0
599 600 operation 0
599 690 task 0
600
601 602 operation 0
601 691 task 0
602
603 604 demanding 0
604 605 and 0
605 606 very 0
605 611 extremely 0
606 607 delicate 0
606 609 precise 0
607 608 operation 0
607 692 task 0
608
609 610 operation 0
609 693 task 0
610
611 612 delicate 0
611 614 precise 0
612 613 operation 0
612 694 task 0
613
614 615 operation 0
614 695 task 0
615
616
617
618
619
620
621
622
623
624
625
626
627
628
629
630
631
632
633
634
635
636
637
638
639
640
641
642
643
644
645
646
647
648
649
650
651
652
653
654
655
656
657
658
659
660
661
662
663
664
665
666
667
668
669
670
671
672
673
674
675
676
677
678
679
680
681
682
683
684
685
686
687
688
689
690
691
692
693
694
695
696 697 a 0
696 755 an 0
697 712 massive 0
697 740 very 0
697 726 gigantic 0
697 698 huge 0
698 699 and 0
699 700 a 0
699 706 an 0
700 701 very 0
701 702 delicate 0
701 704 precise 0
702 703 operation 0
702 1104 task 0
703
704 705 operation 0
704 1105 task 0
705
706 707 extremely 0
707 708 delicate 0
707 710 precise 0
708 709 operation 0
708 1106 task 0
709
710 711 operation 0
710 1107 task 0
711
712 713 and 0
713 714 a 0
713 720 an 0
714 715 very 0
715 716 delicate 0
715 718 precise 0
716 717 operation 0
716 1108 task 0
717
718 719 operation 0
718 1109 task 0
719
720 721 extremely 0
721 722 delicate 0
721 724 precise 0
722 723 operation 0
722 1110 task 0
723
724 725 operation 0
724 1111 task 0
725
726 727 and 0
727 728 a 0
727 734 an 0
728 729 very 0
729 730 delicate 0
729 732 precise 0
730 731 operation 0
730 1112 task 0
731
732 733 operation 0
732 1113 task 0
733
734 735 extremely 0
735 736 delicate 0
735 738 precise 0
736 737 operation 0
736 1114 task 0
737
738 739 operation 0
738 1115 task 0
739
740 741 demanding 0
741 742 and 0
742 743 a 0
742 749 an 0
743 744 very 0
744 745 delicate 0
744 747 precise 0
745 746 operation 0
745 1116 task 0
746
747 748 operation 0
747 1117 task 0
748
749 750 extremely 0
750 751 delicate 0
750 753 precise 0
751 752 operation 0
751 1118 task 0
752
753 754 operation 0
753 1119 task 0
754
755 756 extremely 0
756 757 demanding 0
757 758 and 0
758 759 a 0
758 765 an 0
759 760 very 0
760 761 delicate 0
760 763 precise 0
761 762 operation 0
761 1120 task 0
762
763 764 operation 0
763 1121 task 0
764
765 766 extremely 0
766 767 delicate 0
766 769 precise 0
767 768 operation 0
767 1122 task 0
768
769 770 operation 0
769 1123 task 0
770
771 772 very 0
772 773 delicate 0
772 775 precise 0
773 774 operation 0
773 1124 task 0
774
775 776 operation 0
775 1125 task 0
776
777 778 extremely 0
778 779 delicate 0
778 781 precise 0
779 780 operation 0
779 1126 task 0
780
781 782 operation 0
781 1127 task 0
782
783 784 very 0
784 785 delicate 0
784 787 precise 0
785 786 operation 0
785 1128 task 0
786
787 788 operation 0
787 1129 task 0
788
789 790 extremely 0
790 791 delicate 0
790 793 precise 0
791 792 operation 0
791 1130 task 0
792
793 794 operation 0
793 1131 task 0
794
795 796 very 0
796 797 delicate 0
796 799 precise 0
797 798 operation 0
797 1132 task 0
798
799 800 operation 0
799 1133 task 0
800
801 802 extremely 0
802 803 delicate 0
802 805 precise 0
803 804 operation 0
803 1134 task 0
804
805 806 operation 0
805 1135 task 0
806
807 808 very 0
808 809 delicate 0
808 811 precise 0
809 810 operation 0
809 1136 task 0
810
811 812 operation 0
811 1137 task 0
812
813 814 extremely 0
814 815 delicate 0
814 817 precise 0
815 816 operation 0
815 1138 task 0
816
817 818 operation 0
817 1139 task 0
818
819 820 very 0
820 821 delicate 0
820 823 precise 0
821 822 operation 0
821 1140 task 0
822
823 824 operation 0
823 1141 task 0
824
825 826 extremely 0
826 827 delicate 0
826 829 precise 0
827 828 operation 0
827 1142 task 0
828
829 830 operation 0
829 1143 task 0
830
831 832 very 0
832 833 delicate 0
832 835 precise 0
833 834 operation 0
833 1144 task 0
834
835 836 operation 0
835 1145 task 0
836
837 838 extremely 0
838 839 delicate 0
838 841 precise 0
839 840 operation 0
839 1146 task 0
840
841 842 operation 0
841 1147 task 0
842
843 844 very 0
844 845 delicate 0
844 847 precise 0
845 846 operation 0
845 1148 task 0
846
847 848 operation 0
847 1149 task 0
848
849 850 extremely 0
850 851 delicate 0
850 853 precise 0
851 852 operation 0
851 1150 task 0
852
853 854 operation 0
853 1151 task 0
854
855 856 very 0
856 857 delicate 0
856 859 precise 0
857 858 operation 0
857 1152 task 0
858
859 860 operation 0
859 1153 task 0
860
861 862 extremely 0
862 863 delicate 0
862 865 precise 0
863 864 operation 0
863 1154 task 0
864
865 866 operation 0
865 1155 task 0
866
867 868 very 0
868 869 delicate 0
868 871 precise 0
869 870 operation 0
869 1156 task 0
870
871 872 operation 0
871 1157 task 0
872
873 874 extremely 0
874 875 delicate 0
874 877 precise 0
875 876 operation 0
875 1158 task 0
876
877 878 operation 0
877 1159 task 0
878
879 880 very 0
880 881 delicate 0
880 883 precise 0
881 882 operation 0
881 1160 task 0
882
883 884 operation 0
883 1161 task 0
884
885 886 extremely 0
886 887 delicate 0
886 889 precise 0
887 888 operation 0
887 1162 task 0
888
889 890 operation 0
889 1163 task 0
890
891 892 very 0
892 893 delicate 0
892 895 precise 0
893 894 operation 0
893 1164 task 0
894
895 896 operation 0
895 1165 task 0
896
897 898 extremely 0
898 899 delicate 0
898 901 precise 0
899 900 operation 0
899 1166 task 0
900
901 902 operation 0
901 1167 task 0
902
903 904 very 0
904 905 delicate 0
904 907 precise 0
905 906 operation 0
905 1168 task 0
906
907 908 operation 0
907 1169 task 0
908
909 910 extremely 0
910 911 delicate 0
910 913 precise 0
911 912 operation 0
911 1170 task 0
912
913 914 operation 0
913 1171 task 0
914
915 916 very 0
916 917 delicate 0
916 919 precise 0
917 918 operation 0
917 1172 task 0
918
919 920 operation 0
919 1173 task 0
920
921 922 extremely 0
922 923 delicate 0
922 925 precise 0
923 924 operation 0
923 1174 task 0
924
925 926 operation 0
925 1175 task 0
926
927 928 very 0
928 929 delicate 0
928 931 precise 0
929 930 operation 0
929 1176 task 0
930
931 932 operation 0
931 1177 task 0
932
933 934 extremely 0
934 935 delicate 0
934 937 precise 0
935 936 operation 0
935 1178 task 0
936
937 938 operation 0
937 1179 task 0
938
939 940 very 0
940 941 delicate 0
940 943 precise 0
941 942 operation 0
941 1180 task 0
942
943 944 operation 0
943 1181 task 0
944
945 946 extremely 0
946 947 delicate 0
946 949 precise 0
947 948 operation 0
947 1182 task 0
948
949 950 operation 0
949 1183 task 0
950
951 952 the 0
952 953 same 0
953 954 time 0
954 955 a 0
954 1013 an 0
955 970 massive 0
955 998 very 0
955 984 gigantic 0
955 956 huge 0
956 957 and 0
957 958 a 0
957 964 an 0
958 959 very 0
959 960 delicate 0
959 962 precise 0
960 961 operation 0
960 1184 task 0
961
962 963 operation 0
962 1185 task 0
963
964 965 extremely 0
965 966 delicate 0
965 968 precise 0
966 967 operation 0
966 1186 task 0
967
968 969 operation 0
968 1187 task 0
969
970 971 and 0
971 972 a 0
971 978 an 0
972 973 very 0
973 974 delicate 0
973 976 precise 0
974 975 operation 0
974 1188 task 0
975
976 977 operation 0
976 1189 task 0
977
978 979 extremely 0
979 980 delicate 0
979 982 precise 0
980 981 operation 0
980 1190 task 0
981
982 983 operation 0
982 1191 task 0
983
984 985 and 0
985 986 a 0
985 992 an 0
986 987 very 0
987 988 delicate 0
987 990 precise 0
988 989 operation 0
988 1192 task 0
989
990 991 operation 0
990 1193 task 0
991
992 993 extremely 0
993 994 delicate 0
993 996 precise 0
994 995 operation 0
994 1194 task 0
995
996 997 operation 0
996 1195 task 0
997
998 999 demanding 0
999 1000 and 0
1000 1001 a 0
1000 1007 an 0
1001 1002 very 0
1002 1003 delicate 0
1002 1005 precise 0
1003 1004 operation 0
1003 1196 task 0
1004
1005 1006 operation 0
1005 1197 task 0
1006
1007 1008 extremely 0
1008 1009 delicate 0
1008 1011 precise 0
1009 1010 operation 0
1009 1198 task 0
1010
1011 1012 operation 0
1011 1199 task 0
1012
1013 1014 extremely 0
1014 1015 demanding 0
1015 1016 and 0
1016 1017 a 0
1016 1023 an 0
1017 1018 very 0
1018 1019 delicate 0
1018 1021 precise 0
1019 1020 operation 0
1019 1200 task 0
1020
1021 1022 operation 0
1021 1201 task 0
1022
1023 1024 extremely 0
1024 1025 delicate 0
1024 1027 precise 0
1025 1026 operation 0
1025 1202 task 0
1026
1027 1028 operation 0
1027 1203 task 0
1028
1029 1030 a 0
1029 1088 an 0
1030 1045 massive 0
1030 1073 very 0
1030 1059 gigantic 0
1030 1031 huge 0
1031 1032 and 0
1032 1033 a 0
1032 1039 an 0
1033 1034 very 0
1034 1035 delicate 0
1034 1037 precise 0
1035 1036 operation 0
1035 1204 task 0
1036
1037 1038 operation 0
1037 1205 task 0
1038
1039 1040 extremely 0
1040 1041 delicate 0
1040 1043 precise 0
1041 1042 operation 0
1041 1206 task 0
1042
1043 1044 operation 0
1043 1207 task 0
1044
1045 1046 and 0
1046 1047 a 0
1046 1053 an 0
1047 1048 very 0
1048 1049 delicate 0
1048 1051 precise 0
1049 1050 operation 0
1049 1208 task 0
1050
1051 1052 operation 0
1051 1209 task 0
1052
1053 1054 extremely 0
1054 1055 delicate 0
1054 1057 precise 0
1055 1056 operation 0
1055 1210 task 0
1056
1057 1058 operation 0
1057 1211 task 0
1058
1059 1060 and 0
1060 1061 a 0
1060 1067 an 0
1061 1062 very 0
1062 1063 delicate 0
1062 1065 precise 0
1063 1064 operation 0
1063 1212 task 0
1064
1065 1066 operation 0
1065 1213 task 0
1066
1067 1068 extremely 0
1068 1069 delicate 0
1068 1071 precise 0
1069 1070 operation 0
1069 1214 task 0
1070
1071 1072 operation 0
1071 1215 task 0
1072
1073 1074 demanding 0
1074 1075 and 0
1075 1076 a 0
1075 1082 an 0
1076 1077 very 0
1077 1078 delicate 0
1077 1080 precise 0
1078 1079 operation 0
1078 1216 task 0
1079
1080 1081 operation 0
1080 1217 task 0
1081
1082 1083 extremely 0
1083 1084 delicate 0
1083 1086 precise 0
1084 1085 operation 0
1084 1218 task 0
1085
1086 1087 operation 0
1086 1219 task 0
1087
1088 1089 extremely 0
1089 1090 demanding 0
1090 1091 and 0
1091 1092 a 0
1091 1098 an 0
1092 1093 very 0
1093 1094 delicate 0
1093 1096 precise 0
1094 1095 operation 0
1094 1220 task 0
1095
1096 1097 operation 0
1096 1221 task 0
1097
1098 1099 extremely 0
1099 1100 delicate 0
1099 1102 precise 0
1100 1101 operation 0
1100 1222 task 0
1101
1102 1103 operation 0
1102 1223 task 0
1103
1104
1105
1106
1107
1108
1109
1110
1111
1112
1113
1114
1115
1116
1117
1118
1119
1120
1121
1122
1123
1124
1125
1126
1127
1128
1129
1130
1131
1132
1133
1134
1135
1136
1137
1138
1139
1140
1141
1142
1143
1144
1145
1146
1147
1148
1149
1150
1151
1152
1153
1154
1155
1156
1157
1158
1159
1160
1161
1162
1163
1164
1165
1166
1167
1168
1169
1170
1171
1172
1173
1174
1175
1176
1177
1178
1179
1180
1181
1182
1183
1184
1185
1186
1187
1188
1189
1190
1191
1192
1193
1194
1195
1196
1197
1198
1199
1200
1201
1202
1203
1204
1205
1206
1207
1208
1209
1210
1211
1212
1213
1214
1215
1216
1217
1218
1219
1220
1221
1222
1223
1224 1225 was 0
1225 1226 an 0
1225 1405 a 0
1225 2174 at 0
1225 2252 simultaneously 0
1225 1919 both 0
1226 1227 operation, 0
1226 1649 extremely 0
1227 1228 which 0
1228 1229 was 0
1229 1230 huge 0
1229 1362 simultaneously 0
1229 1254 gigantic 0
1229 1279 extremely 0
1229 1242 massive 0
1229 1266 very 0
1230 1231 and 0
1231 1232 at 0
1231 1327 simultaneously 0
1231 1292 also 0
1232 1233 the 0
1233 1234 same 0
1234 1235 time 0
1235 1236 very 0
1235 1239 extremely 0
1236 1237 delicate 0
1236 1238 precise 0
1237
1238
1239 1240 delicate 0
1239 1241 precise 0
1240
1241
1242 1243 and 0
1243 1244 at 0
1243 1334 simultaneously 0
1243 1299 also 0
1244 1245 the 0
1245 1246 same 0
1246 1247 time 0
1247 1248 very 0
1247 1251 extremely 0
1248 1249 delicate 0
1248 1250 precise 0
1249
1250
1251 1252 delicate 0
1251 1253 precise 0
1252
1253
1254 1255 and 0
1255 1256 at 0
1255 1341 simultaneously 0
1255 1306 also 0
1256 1257 the 0
1257 1258 same 0
1258 1259 time 0
1259 1260 very 0
1259 1263 extremely 0
1260 1261 delicate 0
1260 1262 precise 0
1261
1262
1263 1264 delicate 0
1263 1265 precise 0
1264
1265
1266 1267 demanding 0
1267 1268 and 0
1268 1269 at 0
1268 1348 simultaneously 0
1268 1313 also 0
1269 1270 the 0
1270 1271 same 0
1271 1272 time 0
1272 1273 very 0
1272 1276 extremely 0
1273 1274 delicate 0
1273 1275 precise 0
1274
1275
1276 1277 delicate 0
1276 1278 precise 0
1277
1278
1279 1280 demanding 0
1280 1281 and 0
1281 1282 at 0
1281 1355 simultaneously 0
1281 1320 also 0
1282 1283 the 0
1283 1284 same 0
1284 1285 time 0
1285 1286 very 0
1285 1289 extremely 0
1286 1287 delicate 0
1286 1288 precise 0
1287
1288
1289 1290 delicate 0
1289 1291 precise 0
1290
1291
1292 1293 very 0
1292 1296 extremely 0
1293 1294 delicate 0
1293 1295 precise 0
1294
1295
1296 1297 delicate 0
1296 1298 precise 0
1297
1298
1299 1300 very 0
1299 1303 extremely 0
1300 1301 delicate 0
1300 1302 precise 0
1301
1302
1303 1304 delicate 0
1303 1305 precise 0
1304
1305
1306 1307 very 0
1306 1310 extremely 0
1307 1308 delicate 0
1307 1309 precise 0
1308
1309
1310 1311 delicate 0
1310 1312 precise 0
1311
1312
1313 1314 very 0
1313 1317 extremely 0
1314 1315 delicate 0
1314 1316 precise 0
1315
1316
1317 1318 delicate 0
1317 1319 precise 0
1318
1319
1320 1321 very 0
1320 1324 extremely 0
1321 1322 delicate 0
1321 1323 precise 0
1322
1323
1324 1325 delicate 0
1324 1326 precise 0
1325
1326
1327 1328 very 0
1327 1331 extremely 0
1328 1329 delicate 0
1328 1330 precise 0
1329
1330
1331 1332 delicate 0
1331 1333 precise 0
1332
1333
1334 1335 very 0
1334 1338 extremely 0
1335 1336 delicate 0
1335 1337 precise 0
1336
1337
1338 1339 delicate 0
1338 1340 precise 0
1339
1340
1341 1342 very 0
1341 1345 extremely 0
1342 1343 delicate 0
1342 1344 precise 0
1343
1344
1345 1346 delicate 0
1345 1347 precise 0
1346
1347
1348 1349 very 0
1348 1352 extremely 0
1349 1350 delicate 0
1349 1351 precise 0
1350
1351
1352 1353 delicate 0
1352 1354 precise 0
1353
1354
1355 1356 very 0
1355 1359 extremely 0
1356 1357 delicate 0
1356 1358 precise 0
1357
1358
1359 1360 delicate 0
1359 1361 precise 0
1360
1361
1362 1396 extremely 0
1362 1371 massive 0
1362 1387 very 0
1362 1379 gigantic 0
1362 1363 huge 0
1363 1364 and 0
1364 1365 very 0
1364 1368 extremely 0
1365 1366 delicate 0
1365 1367 precise 0
1366
1367
1368 1369 delicate 0
1368 1370 precise 0
1369
1370
1371 1372 and 0
1372 1373 very 0
1372 1376 extremely 0
1373 1374 delicate 0
1373 1375 precise 0
1374
1375
1376 1377 delicate 0
1376 1378 precise 0
1377
1378
1379 1380 and 0
1380 1381 very 0
1380 1384 extremely 0
1381 1382 delicate 0
1381 1383 precise 0
1382
1383
1384 1385 delicate 0
1384 1386 precise 0
1385
1386
1387 1388 demanding 0
1388 1389 and 0
1389 1390 very 0
1389 1393 extremely 0
1390 1391 delicate 0
1390 1392 precise 0
1391
1392
1393 1394 delicate 0
1393 1395 precise 0
1394
1395
1396 1397 demanding 0
1397 1398 and 0
1398 1399 very 0
1398 1402 extremely 0
1399 1400 delicate 0
1399 1401 precise 0
1400
1401
1402 1403 delicate 0
1402 1404 precise 0
1403
1404
1405 1406 task, 0
1405 1776 simultaneously 0
1405 1616 gigantic 0
1405 1584 huge 0
1405 1600 massive 0
1405 1632 very 0
1406 1407 which 0
1407 1408 was 0
1408 1409 huge 0
1408 1541 simultaneously 0
1408 1433 gigantic 0
1408 1458 extremely 0
1408 1421 massive 0
1408 1445 very 0
1409 1410 and 0
1410 1411 at 0
1410 1506 simultaneously 0
1410 1471 also 0
1411 1412 the 0
1412 1413 same 0
1413 1414 time 0
1414 1415 very 0
1414 1418 extremely 0
1415 1416 delicate 0
1415 1417 precise 0
1416
1417
1418 1419 delicate 0
1418 1420 precise 0
1419
1420
1421 1422 and 0
1422 1423 at 0
1422 1513 simultaneously 0
1422 1478 also 0
1423 1424 the 0
1424 1425 same 0
1425 1426 time 0
1426 1427 very 0
1426 1430 extremely 0
1427 1428 delicate 0
1427 1429 precise 0
1428
1429
1430 1431 delicate 0
1430 1432 precise 0
1431
1432
1433 1434 and 0
1434 1435 at 0
1434 1520 simultaneously 0
1434 1485 also 0
1435 1436 the 0
1436 1437 same 0
1437 1438 time 0
1438 1439 very 0
1438 1442 extremely 0
1439 1440 delicate 0
1439 1441 precise 0
1440
1441
1442 1443 delicate 0
1442 1444 precise 0
1443
1444
1445 1446 demanding 0
1446 1447 and 0
1447 1448 at 0
1447 1527 simultaneously 0
1447 1492 also 0
1448 1449 the 0
1449 1450 same 0
1450 1451 time 0
1451 1452 very 0
1451 1455 extremely 0
1452 1453 delicate 0
1452 1454 precise 0
1453
1454
1455 1456 delicate 0
1455 1457 precise 0
1456
1457
1458 1459 demanding 0
1459 1460 and 0
1460 1461 at 0
1460 1534 simultaneously 0
1460 1499 also 0
1461 1462 the 0
1462 1463 same 0
1463 1464 time 0
1464 1465 very 0
1464 1468 extremely 0
1465 1466 delicate 0
1465 1467 precise 0
1466
1467
1468 1469 delicate 0
1468 1470 precise 0
1469
1470
1471 1472 very 0
1471 1475 extremely 0
1472 1473 delicate 0
1472 1474 precise 0
1473
1474
1475 1476 delicate 0
1475 1477 precise 0
1476
1477
1478 1479 very 0
1478 1482 extremely 0
1479 1480 delicate 0
1479 1481 precise 0
1480
1481
1482 1483 delicate 0
1482 1484 precise 0
1483
1484
1485 1486 very 0
1485 1489 extremely 0
1486 1487 delicate 0
1486 1488 precise 0
1487
1488
1489 1490 delicate 0
1489 1491 precise 0
1490
1491
1492 1493 very 0
1492 1496 extremely 0
1493 1494 delicate 0
1493 1495 precise 0
1494
1495
1496 1497 delicate 0
1496 1498 precise 0
1497
1498
1499 1500 very 0
1499 1503 extremely 0
1500 1501 delicate 0
1500 1502 precise 0
1501
1502
1503 1504 delicate 0
1503 1505 precise 0
1504
1505
1506 1507 very 0
1506 1510 extremely 0
1507 1508 delicate 0
1507 1509 precise 0
1508
1509
1510 1511 delicate 0
1510 1512 precise 0
1511
1512
1513 1514 very 0
1513 1517 extremely 0
1514 1515 delicate 0
1514 1516 precise 0
1515
1516
1517 1518 delicate 0
1517 1519 precise 0
1518
1519
1520 1521 very 0
1520 1524 extremely 0
1521 1522 delicate 0
1521 1523 precise 0
1522
1523
1524 1525 delicate 0
1524 1526 precise 0
1525
1526
1527 1528 very 0
1527 1531 extremely 0
1528 1529 delicate 0
1528 1530 precise 0
1529
1530
1531 1532 delicate 0
1531 1533 precise 0
1532
1533
1534 1535 very 0
1534 1538 extremely 0
1535 1536 delicate 0
1535 1537 precise 0
1536
1537
1538 1539 delicate 0
1538 1540 precise 0
1539
1540
1541 1575 extremely 0
1541 1550 massive 0
1541 1566 very 0
1541 1558 gigantic 0
1541 1542 huge 0
1542 1543 and 0
1543 1544 very 0
1543 1547 extremely 0
1544 1545 delicate 0
1544 1546 precise 0
1545
1546
1547 1548 delicate 0
1547 1549 precise 0
1548
1549
1550 1551 and 0
1551 1552 very 0
1551 1555 extremely 0
1552 1553 delicate 0
1552 1554 precise 0
1553
1554
1555 1556 delicate 0
1555 1557 precise 0
1556
1557
1558 1559 and 0
1559 1560 very 0
1559 1563 extremely 0
1560 1561 delicate 0
1560 1562 precise 0
1561
1562
1563 1564 delicate 0
1563 1565 precise 0
1564
1565
1566 1567 demanding 0
1567 1568 and 0
1568 1569 very 0
1568 1572 extremely 0
1569 1570 delicate 0
1569 1571 precise 0
1570
1571
1572 1573 delicate 0
1572 1574 precise 0
1573
1574
1575 1576 demanding 0
1576 1577 and 0
1577 1578 very 0
1577 1581 extremely 0
1578 1579 delicate 0
1578 1580 precise 0
1579
1580
1581 1582 delicate 0
1581 1583 precise 0
1582
1583
1584 1585 and 0
1585 1586 at 0
1585 1721 simultaneously 0
1585 1666 also 0
1586 1587 the 0
1587 1588 same 0
1588 1589 time 0
1589 1994 a 0
1589 2000 an 0
1589 1590 very 0
1589 1595 extremely 0
1590 1591 delicate 0
1590 1593 precise 0
1591 1592 operation 0
1591 1839 task 0
1592
1593 1594 operation 0
1593 1840 task 0
1594
1595 1596 delicate 0
1595 1598 precise 0
1596 1597 operation 0
1596 1841 task 0
1597
1598 1599 operation 0
1598 1842 task 0
1599
1600 1601 and 0
1601 1602 at 0
1601 1732 simultaneously 0
1601 1677 also 0
1602 1603 the 0
1603 1604 same 0
1604 1605 time 0
1605 2006 a 0
1605 2012 an 0
1605 1606 very 0
1605 1611 extremely 0
1606 1607 delicate 0
1606 1609 precise 0
1607 1608 operation 0
1607 1843 task 0
1608
1609 1610 operation 0
1609 1844 task 0
1610
1611 1612 delicate 0
1611 1614 precise 0
1612 1613 operation 0
1612 1845 task 0
1613
1614 1615 operation 0
1614 1846 task 0
1615
1616 1617 and 0
1617 1618 at 0
1617 1743 simultaneously 0
1617 1688 also 0
1618 1619 the 0
1619 1620 same 0
1620 1621 time 0
1621 2018 a 0
1621 2024 an 0
1621 1622 very 0
1621 1627 extremely 0
1622 1623 delicate 0
1622 1625 precise 0
1623 1624 operation 0
1623 1847 task 0
1624
1625 1626 operation 0
1625 1848 task 0
1626
1627 1628 delicate 0
1627 1630 precise 0
1628 1629 operation 0
1628 1849 task 0
1629
1630 1631 operation 0
1630 1850 task 0
1631
1632 1633 demanding 0
1633 1634 and 0
1634 1635 at 0
1634 1754 simultaneously 0
1634 1699 also 0
1635 1636 the 0
1636 1637 same 0
1637 1638 time 0
1638 2030 a 0
1638 2036 an 0
1638 1639 very 0
1638 1644 extremely 0
1639 1640 delicate 0
1639 1642 precise 0
1640 1641 operation 0
1640 1851 task 0
1641
1642 1643 operation 0
1642 1852 task 0
1643
1644 1645 delicate 0
1644 1647 precise 0
1645 1646 operation 0
1645 1853 task 0
1646
1647 1648 operation 0
1647 1854 task 0
1648
1649 1650 demanding 0
1650 1651 and 0
1651 1652 at 0
1651 1765 simultaneously 0
1651 1710 also 0
1652 1653 the 0
1653 1654 same 0
1654 1655 time 0
1655 2042 a 0
1655 2048 an 0
1655 1656 very 0
1655 1661 extremely 0
1656 1657 delicate 0
1656 1659 precise 0
1657 1658 operation 0
1657 1855 task 0
1658
1659 1660 operation 0
1659 1856 task 0
1660
1661 1662 delicate 0
1661 1664 precise 0
1662 1663 operation 0
1662 1857 task 0
1663
1664 1665 operation 0
1664 1858 task 0
1665
1666 2054 a 0
1666 2060 an 0
1666 1667 very 0
1666 1672 extremely 0
1667 1668 delicate 0
1667 1670 precise 0
1668 1669 operation 0
1668 1859 task 0
1669
1670 1671 operation 0
1670 1860 task 0
1671
1672 1673 delicate 0
1672 1675 precise 0
1673 1674 operation 0
1673 1861 task 0
1674
1675 1676 operation 0
1675 1862 task 0
1676
1677 2066 a 0
1677 2072 an 0
1677 1678 very 0
1677 1683 extremely 0
1678 1679 delicate 0
1678 1681 precise 0
1679 1680 operation 0
1679 1863 task 0
1680
1681 1682 operation 0
1681 1864 task 0
1682
1683 1684 delicate 0
1683 1686 precise 0
1684 1685 operation 0
1684 1865 task 0
1685
1686 1687 operation 0
1686 1866 task 0
1687
1688 2078 a 0
1688 2084 an 0
1688 1689 very 0
1688 1694 extremely 0
1689 1690 delicate 0
1689 1692 precise 0
1690 1691 operation 0
1690 1867 task 0
1691
1692 1693 operation 0
1692 1868 task 0
1693
1694 1695 delicate 0
1694 1697 precise 0
1695 1696 operation 0
1695 1869 task 0
1696
1697 1698 operation 0
1697 1870 task 0
1698
1699 2090 a 0
1699 2096 an 0
1699 1700 very 0
1699 1705 extremely 0
1700 1701 delicate 0
1700 1703 precise 0
1701 1702 operation 0
1701 1871 task 0
1702
1703 1704 operation 0
1703 1872 task 0
1704
1705 1706 delicate 0
1705 1708 precise 0
1706 1707 operation 0
1706 1873 task 0
1707
1708 1709 operation 0
1708 1874 task 0
1709
1710 2102 a 0
1710 2108 an 0
1710 1711 very 0
1710 1716 extremely 0
1711 1712 delicate 0
1711 1714 precise 0
1712 1713 operation 0
1712 1875 task 0
1713
1714 1715 operation 0
1714 1876 task 0
1715
1716 1717 delicate 0
1716 1719 precise 0
1717 1718 operation 0
1717 1877 task 0
1718
1719 1720 operation 0
1719 1878 task 0
1720
1721 2114 a 0
1721 2120 an 0
1721 1722 very 0
1721 1727 extremely 0
1722 1723 delicate 0
1722 1725 precise 0
1723 1724 operation 0
1723 1879 task 0
1724
1725 1726 operation 0
1725 1880 task 0
1726
1727 1728 delicate 0
1727 1730 precise 0
1728 1729 operation 0
1728 1881 task 0
1729
1730 1731 operation 0
1730 1882 task 0
1731
1732 2126 a 0
1732 2132 an 0
1732 1733 very 0
1732 1738 extremely 0
1733 1734 delicate 0
1733 1736 precise 0
1734 1735 operation 0
1734 1883 task 0
1735
1736 1737 operation 0
1736 1884 task 0
1737
1738 1739 delicate 0
1738 1741 precise 0
1739 1740 operation 0
1739 1885 task 0
1740
1741 1742 operation 0
1741 1886 task 0
1742
1743 2138 a 0
1743 2144 an 0
1743 1744 very 0
1743 1749 extremely 0
1744 1745 delicate 0
1744 1747 precise 0
1745 1746 operation 0
1745 1887 task 0
1746
1747 1748 operation 0
1747 1888 task 0
1748
1749 1750 delicate 0
1749 1752 precise 0
1750 1751 operation 0
1750 1889 task 0
1751
1752 1753 operation 0
1752 1890 task 0
1753
1754 2150 a 0
1754 2156 an 0
1754 1755 very 0
1754 1760 extremely 0
1755 1756 delicate 0
1755 1758 precise 0
1756 1757 operation 0
1756 1891 task 0
1757
1758 1759 operation 0
1758 1892 task 0
1759
1760 1761 delicate 0
1760 1763 precise 0
1761 1762 operation 0
1761 1893 task 0
1762
1763 1764 operation 0
1763 1894 task 0
1764
1765 2162 a 0
1765 2168 an 0
1765 1766 very 0
1765 1771 extremely 0
1766 1767 delicate 0
1766 1769 precise 0
1767 1768 operation 0
1767 1895 task 0
1768
1769 1770 operation 0
1769 1896 task 0
1770
1771 1772 delicate 0
1771 1774 precise 0
1772 1773 operation 0
1772 1897 task 0
1773
1774 1775 operation 0
1774 1898 task 0
1775
1776 1826 extremely 0
1776 1789 massive 0
1776 1813 very 0
1776 1801 gigantic 0
1776 1777 huge 0
1777 1778 and 0
1778 1779 very 0
1778 1784 extremely 0
1779 1780 delicate 0
1779 1782 precise 0
1780 1781 operation 0
1780 1899 task 0
1781
1782 1783 operation 0
1782 1900 task 0
1783
1784 1785 delicate 0
1784 1787 precise 0
1785 1786 operation 0
1785 1901 task 0
1786
1787 1788 operation 0
1787 1902 task 0
1788
1789 1790 and 0
1790 1791 very 0
1790 1796 extremely 0
1791 1792 delicate 0
1791 1794 precise 0
1792 1793 operation 0
1792 1903 task 0
1793
1794 1795 operation 0
1794 1904 task 0
1795
1796 1797 delicate 0
1796 1799 precise 0
1797 1798 operation 0
1797 1905 task 0
1798
1799 1800 operation 0
1799 1906 task 0
1800
1801 1802 and 0
1802 1803 very 0
1802 1808 extremely 0
1803 1804 delicate 0
1803 1806 precise 0
1804 1805 operation 0
1804 1907 task 0
1805
1806 1807 operation 0
1806 1908 task 0
1807
1808 1809 delicate 0
1808 1811 precise 0
1809 1810 operation 0
1809 1909 task 0
1810
1811 1812 operation 0
1811 1910 task 0
1812
1813 1814 demanding 0
1814 1815 and 0
1815 1816 very 0
1815 1821 extremely 0
1816 1817 delicate 0
1816 1819 precise 0
1817 1818 operation 0
1817 1911 task 0
1818
1819 1820 operation 0
1819 1912 task 0
1820
1821 1822 delicate 0
1821 1824 precise 0
1822 1823 operation 0
1822 1913 task 0
1823
1824 1825 operation 0
1824 1914 task 0
1825
1826 1827 demanding 0
1827 1828 and 0
1828 1829 very 0
1828 1834 extremely 0
1829 1830 delicate 0
1829 1832 precise 0
1830 1831 operation 0
1830 1915 task 0
1831
1832 1833 operation 0
1832 1916 task 0
1833
1834 1835 delicate 0
1834 1837 precise 0
1835 1836 operation 0
1835 1917 task 0
1836
1837 1838 operation 0
1837 1918 task 0
1838
1839
1840
1841
1842
1843
1844
1845
1846
1847
1848
1849
1850
1851
1852
1853
1854
1855
1856
1857
1858
1859
1860
1861
1862
1863
1864
1865
1866
1867
1868
1869
1870
1871
1872
1873
1874
1875
1876
1877
1878
1879
1880
1881
1882
1883
1884
1885
1886
1887
1888
1889
1890
1891
1892
1893
1894
1895
1896
1897
1898
1899
1900
1901
1902
1903
1904
1905
1906
1907
1908
1909
1910
1911
1912
1913
1914
1915
1916
1917
1918
1919 1920 a 0
1919 1978 an 0
1920 1935 massive 0
1920 1963 very 0
1920 1949 gigantic 0
1920 1921 huge 0
1921 1922 and 0
1922 1923 a 0
1922 1929 an 0
1923 1924 very 0
1924 1925 delicate 0
1924 1927 precise 0
1925 1926 operation 0
1925 2327 task 0
1926
1927 1928 operation 0
1927 2328 task 0
1928
1929 1930 extremely 0
1930 1931 delicate 0
1930 1933 precise 0
1931 1932 operation 0
1931 2329 task 0
1932
1933 1934 operation 0
1933 2330 task 0
1934
1935 1936 and 0
1936 1937 a 0
1936 1943 an 0
1937 1938 very 0
1938 1939 delicate 0
1938 1941 precise 0
1939 1940 operation 0
1939 2331 task 0
1940
1941 1942 operation 0
1941 2332 task 0
1942
1943 1944 extremely 0
1944 1945 delicate 0
1944 1947 precise 0
1945 1946 operation 0
1945 2333 task 0
1946
1947 1948 operation 0
1947 2334 task 0
1948
1949 1950 and 0
1950 1951 a 0
1950 1957 an 0
1951 1952 very 0
1952 1953 delicate 0
1952 1955 precise 0
1953 1954 operation 0
1953 2335 task 0
1954
1955 1956 operation 0
1955 2336 task 0
1956
1957 1958 extremely 0
1958 1959 delicate 0
1958 1961 precise 0
1959 1960 operation 0
1959 2337 task 0
1960
1961 1962 operation 0
1961 2338 task 0
1962
1963 1964 demanding 0
1964 1965 and 0
1965 1966 a 0
1965 1972 an 0
1966 1967 very 0
1967 1968 delicate 0
1967 1970 precise 0
1968 1969 operation 0
1968 2339 task 0
1969
1970 1971 operation 0
1970 2340 task 0
1971
1972 1973 extremely 0
1973 1974 delicate 0
1973 1976 precise 0
1974 1975 operation 0
1974 2341 task 0
1975
1976 1977 operation 0
1976 2342 task 0
1977
1978 1979 extremely 0
1979 1980 demanding 0
1980 1981 and 0
1981 1982 a 0
1981 1988 an 0
1982 1983 very 0
1983 1984 delicate 0
1983 1986 precise 0
1984 1985 operation 0
1984 2343 task 0
1985
1986 1987 operation 0
1986 2344 task 0
1987
1988 1989 extremely 0
1989 1990 delicate 0
1989 1992 precise 0
1990 1991 operation 0
1990 2345 task 0
1991
1992 1993 operation 0
1992 2346 task 0
1993
1994 1995 very 0
1995 1996 delicate 0
1995 1998 precise 0
1996 1997 operation 0
1996 2347 task 0
1997
1998 1999 operation 0
1998 2348 task 0
1999
2000 2001 extremely 0
2001 2002 delicate 0
2001 2004 precise 0
2002 2003 operation 0
2002 2349 task 0
2003
2004 2005 operation 0
2004 2350 task 0
2005
2006 2007 very 0
2007 2008 delicate 0
2007 2010 precise 0
2008 2009 operation 0
2008 2351 task 0
2009
2010 2011 operation 0
2010 2352 task 0
2011
2012 2013 extremely 0
2013 2014 delicate 0
2013 2016 precise 0
2014 2015 operation 0
2014 2353 task 0
2015
2016 2017 operation 0
2016 2354 task 0
2017
2018 2019 very 0
2019 2020 delicate 0
2019 2022 precise 0
2020 2021 operation 0
2020 2355 task 0
2021
2022 2023 operation 0
2022 2356 task 0
2023
2024 2025 extremely 0
2025 2026 delicate 0
2025 2028 precise 0
2026 2027 operation 0
2026 2357 task 0
2027
2028 2029 operation 0
2028 2358 task 0
2029
2030 2031 very 0
2031 2032 delicate 0
2031 2034 precise 0
2032 2033 operation 0
2032 2359 task 0
2033
2034 2035 operation 0
2034 2360 task 0
2035
2036 2037 extremely 0
2037 2038 delicate 0
2037 2040 precise 0
2038 2039 operation 0
2038 2361 task 0
2039
2040 2041 operation 0
2040 2362 task 0
2041
2042 2043 very 0
2043 2044 delicate 0
2043 2046 precise 0
2044 2045 operation 0
2044 2363 task 0
2045
2046 2047 operation 0
2046 2364 task 0
2047
2048 2049 extremely 0
2049 2050 delicate 0
2049 2052 precise 0
2050 2051 operation 0
2050 2365 task 0
2051
2052 2053 operation 0
2052 2366 task 0
2053
2054 2055 very 0
2055 2056 delicate 0
2055 2058 precise 0
2056 2057 operation 0
2056 2367 task 0
2057
2058 2059 operation 0
2058 2368 task 0
2059
2060 2061 extremely 0
2061 2062 delicate 0
2061 2064 precise 0
2062 2063 operation 0
2062 2369 task 0
2063
2064 2065 operation 0
2064 2370 task 0
2065
2066 2067 very 0
2067 2068 delicate 0
2067 2070 precise 0
2068 2069 operation 0
2068 2371 task 0
2069
2070 2071 operation 0
2070 2372 task 0
2071
2072 2073 extremely 0
2073 2074 delicate 0
2073 2076 precise 0
2074 2075 operation 0
2074 2373 task 0
2075
2076 2077 operation 0
2076 2374 task 0
2077
2078 2079 very 0
2079 2080 delicate 0
2079 2082 precise 0
2080 2081 operation 0
2080 2375 task 0
2081
2082 2083 operation 0
2082 2376 task 0
2083
2084 2085 extremely 0
2085 2086 delicate 0
2085 2088 precise 0
2086 2087 operation 0
2086 2377 task 0
2087
2088 2089 operation 0
2088 2378 task 0
2089
2090 2091 very 0
2091 2092 delicate 0
2091 2094 precise 0
2092 2093 operation 0
2092 2379 task 0
2093
2094 2095 operation 0
2094 2380 task 0
2095
2096 2097 extremely 0
2097 2098 delicate 0
2097 2100 precise 0
2098 2099 operation 0
2098 2381 task 0
2099
2100 2101 operation 0
2100 2382 task 0
2101
2102 2103 very 0
2103 2104 delicate 0
2103 2106 precise 0
2104 2105 operation 0
2104 2383 task 0
2105
2106 2107 operation 0
2106 2384 task 0
2107
2108 2109 extremely 0
2109 2110 delicate 0
2109 2112 precise 0
2110 2111 operation 0
2110 2385 task 0
2111
2112 2113 operation 0
2112 2386 task 0
2113
2114 2115 very 0
2115 2116 delicate 0
2115 2118 precise 0
2116 2117 operation 0
2116 2387 task 0
2117
2118 2119 operation 0
2118 2388 task 0
2119
2120 2121 extremely 0
2121 2122 delicate 0
2121 2124 precise 0
2122 2123 operation 0
2122 2389 task 0
2123
2124 2125 operation 0
2124 2390 task 0
2125
2126 2127 very 0
2127 2128 delicate 0
2127 2130 precise 0
2128 2129 operation 0
2128 2391 task 0
2129
2130 2131 operation 0
2130 2392 task 0
2131
2132 2133 extremely 0
2133 2134 delicate 0
2133 2136 precise 0
2134 2135 operation 0
2134 2393 task 0
2135
2136 2137 operation 0
2136 2394 task 0
2137
2138 2139 very 0
2139 2140 delicate 0
2139 2142 precise 0
2140 2141 operation 0
2140 2395 task 0
2141
2142 2143 operation 0
2142 2396 task 0
2143
2144 2145 extremely 0
2145 2146 delicate 0
2145 2148 precise 0
2146 2147 operation 0
2146 2397 task 0
2147
2148 2149 operation 0
2148 2398 task 0
2149
2150 2151 very 0
2151 2152 delicate 0
2151 2154 precise 0
2152 2153 operation 0
2152 2399 task 0
2153
2154 2155 operation 0
2154 2400 task 0
2155
2156 2157 extremely 0
2157 2158 delicate 0
2157 2160 precise 0
2158 2159 operation 0
2158 2401 task 0
2159
2160 2161 operation 0
2160 2402 task 0
2161
2162 2163 very 0
2163 2164 delicate 0
2163 2166 precise 0
2164 2165 operation 0
2164 2403 task 0
2165
2166 2167 operation 0
2166 2404 task 0
2167
2168 2169 extremely 0
2169 2170 delicate 0
2169 2172 precise 0
2170 2171 operation 0
2170 2405 task 0
2171
2172 2173 operation 0
2172 2406 task 0
2173
2174 2175 the 0
2175 2176 same 0
2176 2177 time 0
2177 2178 a 0
2177 2236 an 0
2178 2193 massive 0
2178 2221 very 0
2178 2207 gigantic 0
2178 2179 huge 0
2179 2180 and 0
2180 2181 a 0
2180 2187 an 0
2181 2182 very 0
2182 2183 delicate 0
2182 2185 precise 0
2183 2184 operation 0
2183 2407 task 0
2184
2185 2186 operation 0
2185 2408 task 0
2186
2187 2188 extremely 0
2188 2189 delicate 0
2188 2191 precise 0
2189 2190 operation 0
2189 2409 task 0
2190
2191 2192 operation 0
2191 2410 task 0
2192
2193 2194 and 0
2194 2195 a 0
2194 2201 an 0
2195 2196 very 0
2196 2197 delicate 0
2196 2199 precise 0
2197 2198 operation 0
2197 2411 task 0
2198
2199 2200 operation 0
2199 2412 task 0
2200
2201 2202 extremely 0
2202 2203 delicate 0
2202 2205 precise 0
2203 2204 operation 0
2203 2413 task 0
2204
2205 2206 operation 0
2205 2414 task 0
2206
2207 2208 and 0
2208 2209 a 0
2208 2215 an 0
2209 2210 very 0
2210 2211 delicate 0
2210 2213 precise 0
2211 2212 operation 0
2211 2415 task 0
2212
2213 2214 operation 0
2213 2416 task 0
2214
2215 2216 extremely 0
2216 2217 delicate 0
2216 2219 precise 0
2217 2218 operation 0
2217 2417 task 0
2218
2219 2220 operation 0
2219 2418 task 0
2220
2221 2222 demanding 0
2222 2223 and 0
2223 2224 a 0
2223 2230 an 0
2224 2225 very 0
2225 2226 delicate 0
2225 2228 precise 0
2226 2227 operation 0
2226 2419 task 0
2227
2228 2229 operation 0
2228 2420 task 0
2229
2230 2231 extremely 0
2231 2232 delicate 0
2231 2234 precise 0
2232 2233 operation 0
2232 2421 task 0
2233
2234 2235 operation 0
2234 2422 task 0
2235
2236 2237 extremely 0
2237 2238 demanding 0
2238 2239 and 0
2239 2240 a 0
2239 2246 an 0
2240 2241 very 0
2241 2242 delicate 0
2241 2244 precise 0
2242 2243 operation 0
2242 2423 task 0
2243
2244 2245 operation 0
2244 2424 task 0
2245
2246 2247 extremely 0
2247 2248 delicate 0
2247 2250 precise 0
2248 2249 operation 0
2248 2425 task 0
2249
2250 2251 operation 0
2250 2426 task 0
2251
2252 2253 a 0
2252 2311 an 0
2253 2268 massive 0
2253 2296 very 0
2253 2282 gigantic 0
2253 2254 huge 0
2254 2255 and 0
2255 2256 a 0
2255 2262 an 0
2256 2257 very 0
2257 2258 delicate 0
2257 2260 precise 0
2258 2259 operation 0
2258 2427 task 0
2259
2260 2261 operation 0
2260 2428 task 0
2261
2262 2263 extremely 0
2263 2264 delicate 0
2263 2266 precise 0
2264 2265 operation 0
2264 2429 task 0
2265
2266 2267 operation 0
2266 2430 task 0
2267
2268 2269 and 0
2269 2270 a 0
2269 2276 an 0
2270 2271 very 0
2271 2272 delicate 0
2271 2274 precise 0
2272 2273 operation 0
2272 2431 task 0
2273
2274 2275 operation 0
2274 2432 task 0
2275
2276 2277 extremely 0
2277 2278 delicate 0
2277 2280 precise 0
2278 2279 operation 0
2278 2433 task 0
2279
2280 2281 operation 0
2280 2434 task 0
2281
2282 2283 and 0
2283 2284 a 0
2283 2290 an 0
2284 2285 very 0
2285 2286 delicate 0
2285 2288 precise 0
2286 2287 operation 0
2286 2435 task 0
2287
2288 2289 operation 0
2288 2436 task 0
2289
2290 2291 extremely 0
2291 2292 delicate 0
2291 2294 precise 0
2292 2293 operation 0
2292 2437 task 0
2293
2294 2295 operation 0
2294 2438 task 0
2295
2296 2297 demanding 0
2297 2298 and 0
2298 2299 a 0
2298 2305 an 0
2299 2300 very 0
2300 2301 delicate 0
2300 2303 precise 0
2301 2302 operation 0
2301 2439 task 0
2302
2303 2304 operation 0
2303 2440 task 0
2304
2305 2306 extremely 0
2306 2307 delicate 0
2306 2309 precise 0
2307 2308 operation 0
2307 2441 task 0
2308
2309 2310 operation 0
2309 2442 task 0
2310
2311 2312 extremely 0
2312 2313 demanding 0
2313 2314 and 0
2314 2315 a 0
2314 2321 an 0
2315 2316 very 0
2316 2317 delicate 0
2316 2319 precise 0
2317 2318 operation 0
2317 2443 task 0
2318
2319 2320 operation 0
2319 2444 task 0
2320
2321 2322 extremely 0
2322 2323 delicate 0
2322 2325 precise 0
2323 2324 operation 0
2323 2445 task 0
2324
2325 2326 operation 0
2325 2446 task 0
2326
2327
2328
2329
2330
2331
2332
2333
2334
2335
2336
2337
2338
2339
2340
2341
2342
2343
2344
2345
2346
2347
2348
2349
2350
2351
2352
2353
2354
2355
2356
2357
2358
2359
2360
2361
2362
2363
2364
2365
2366
2367
2368
2369
2370
2371
2372
2373
2374
2375
2376
2377
2378
2379
2380
2381
2382
2383
2384
2385
2386
2387
2388
2389
2390
2391
2392
2393
2394
2395
2396
2397
2398
2399
2400
2401
2402
2403
2404
2405
2406
2407
2408
2409
2410
2411
2412
2413
2414
2415
2416
2417
2418
2419
2420
2421
2422
2423
2424
2425
2426
2427
2428
2429
2430
2431
2432
2433
2434
2435
2436
2437
2438
2439
2440
2441
2442
2443
2444
2445
2446
