0 1 it 0
0 109 rebuilding 0
1 2 is 0
1 167 will 0
2 11 difficult 0
2 3 hard 0
3 4 , 0
4 19 maybe 0
4 5 perhaps 0
4 31 even 0
5 6 impossible 0
6 7 to 0
7 8 rebuild 0
7 67 restore 0
8 55 true 0
8 9 genuine 0
8 43 real 0
9 10 trust 0
10
11 12 , 0
12 25 maybe 0
12 13 perhaps 0
12 37 even 0
13 14 impossible 0
14 15 to 0
15 16 rebuild 0
15 70 restore 0
16 57 true 0
16 17 genuine 0
16 45 real 0
17 18 trust 0
18
19 20 impossible 0
20 21 to 0
21 22 rebuild 0
21 73 restore 0
22 59 true 0
22 23 genuine 0
22 47 real 0
23 24 trust 0
24
25 26 impossible 0
26 27 to 0
27 28 rebuild 0
27 76 restore 0
28 61 true 0
28 29 genuine 0
28 49 real 0
29 30 trust 0
30
31 32 impossible 0
32 33 to 0
33 34 rebuild 0
33 79 restore 0
34 63 true 0
34 35 genuine 0
34 51 real 0
35 36 trust 0
36
37 38 impossible 0
38 39 to 0
39 40 rebuild 0
39 82 restore 0
40 65 true 0
40 41 genuine 0
40 53 real 0
41 42 trust 0
42
43 44 trust 0
44
45 46 trust 0
46
47 48 trust 0
48
49 50 trust 0
50
51 52 trust 0
52
53 54 trust 0
54
55 56 trust 0
56
57 58 trust 0
58
59 60 trust 0
60
61 62 trust 0
62
63 64 trust 0
64
65 66 trust 0
66
67 97 true 0
67 68 genuine 0
67 85 real 0
68 69 trust 0
69
70 99 true 0
70 71 genuine 0
70 87 real 0
71 72 trust 0
72
73 101 true 0
73 74 genuine 0
73 89 real 0
74 75 trust 0
75
76 103 true 0
76 77 genuine 0
76 91 real 0
77 78 trust 0
78
79 105 true 0
79 80 genuine 0
79 93 real 0
80 81 trust 0
81
82 107 true 0
82 83 genuine 0
82 95 real 0
83 84 trust 0
84
85 86 trust 0
86
87 88 trust 0
88
89 90 trust 0
90
91 92 trust 0
92
93 94 trust 0
94
95 96 trust 0
96
97 98 trust 0
98
99 100 trust 0
100
101 102 trust 0
102
103 104 trust 0
104
105 106 trust 0
106
107 108 trust 0
108
109 148 true 0
109 110 genuine 0
109 129 real 0
110 111 trust 0
111 112 is 0
111 275 will 0
112 117 difficult 0
112 113 hard 0
113 114 , 0
114 121 maybe 0
114 115 perhaps 0
114 125 even 0
115 116 impossible 0
116
117 118 , 0
118 123 maybe 0
118 119 perhaps 0
118 127 even 0
119 120 impossible 0
120
121 122 impossible 0
122
123 124 impossible 0
124
125 126 impossible 0
126
127 128 impossible 0
128
129 130 trust 0
130 131 is 0
130 293 will 0
131 136 difficult 0
131 132 hard 0
132 133 , 0
133 140 maybe 0
133 134 perhaps 0
133 144 even 0
134 135 impossible 0
135
136 137 , 0
137 142 maybe 0
137 138 perhaps 0
137 146 even 0
138 139 impossible 0
139
140 141 impossible 0
141
142 143 impossible 0
143
144 145 impossible 0
145
146 147 impossible 0
147
148 149 trust 0
149 150 is 0
149 311 will 0
150 155 difficult 0
150 151 hard 0
151 152 , 0
152 159 maybe 0
152 153 perhaps 0
152 163 even 0
153 154 impossible 0
154
155 156 , 0
156 161 maybe 0
156 157 perhaps 0
156 165 even 0
157 158 impossible 0
158
159 160 impossible 0
160
161 162 impossible 0
162
163 164 impossible 0
164
165 166 impossible 0
166
167 168 be 0
168 177 difficult 0
168 169 hard 0
169 170 , 0
170 185 maybe 0
170 171 perhaps 0
170 197 even 0
171 172 impossible 0
172 173 to 0
173 174 rebuild 0
173 233 restore 0
174 221 true 0
174 175 genuine 0
174 209 real 0
175 176 trust 0
176
177 178 , 0
178 191 maybe 0
178 179 perhaps 0
178 203 even 0
179 180 impossible 0
180 181 to 0
181 182 rebuild 0
181 236 restore 0
182 223 true 0
182 183 genuine 0
182 211 real 0
183 184 trust 0
184
185 186 impossible 0
186 187 to 0
187 188 rebuild 0
187 239 restore 0
188 225 true 0
188 189 genuine 0
188 213 real 0
189 190 trust 0
190
191 192 impossible 0
192 193 to 0
193 194 rebuild 0
193 242 restore 0
194 227 true 0
194 195 genuine 0
194 215 real 0
195 196 trust 0
196
197 198 impossible 0
198 199 to 0
199 200 rebuild 0
199 245 restore 0
200 229 true 0
200 201 genuine 0
200 217 real 0
201 202 trust 0
202
203 204 impossible 0
204 205 to 0
205 206 rebuild 0
205 248 restore 0
206 231 true 0
206 207 genuine 0
206 219 real 0
207 208 trust 0
208
209 210 trust 0
210
211 212 trust 0
212
213 214 trust 0
214
215 216 trust 0
216
217 218 trust 0
218
219 220 trust 0
220
221 222 trust 0
222
223 224 trust 0
224
225 226 trust 0
226
227 228 trust 0
228
229 230 trust 0
230
231 232 trust 0
232
233 263 true 0
233 234 genuine 0
233 251 real 0
234 235 trust 0
235
236 265 true 0
236 237 genuine 0
236 253 real 0
237 238 trust 0
238
239 267 true 0
239 240 genuine 0
239 255 real 0
240 241 trust 0
241
242 269 true 0
242 243 genuine 0
242 257 real 0
243 244 trust 0
244
245 271 true 0
245 246 genuine 0
245 259 real 0
246 247 trust 0
247
248 273 true 0
248 249 genuine 0
248 261 real 0
249 250 trust 0
250
251 252 trust 0
252
253 254 trust 0
254
255 256 trust 0
256
257 258 trust 0
258
259 260 trust 0
260
261 262 trust 0
262
263 264 trust 0
264
265 266 trust 0
266
267 268 trust 0
268
269 270 trust 0
270
271 272 trust 0
272
273 274 trust 0
274
275 276 be 0
276 281 difficult 0
276 277 hard 0
277 278 , 0
278 285 maybe 0
278 279 perhaps 0
278 289 even 0
279 280 impossible 0
280
281 282 , 0
282 287 maybe 0
282 283 perhaps 0
282 291 even 0
283 284 impossible 0
284
285 286 impossible 0
286
287 288 impossible 0
288
289 290 impossible 0
290
291 292 impossible 0
292
293 294 be 0
294 299 difficult 0
294 295 hard 0
295 296 , 0
296 303 maybe 0
296 297 perhaps 0
296 307 even 0
297 298 impossible 0
298
299 300 , 0
300 305 maybe 0
300 301 perhaps 0
300 309 even 0
301 302 impossible 0
302
303 304 impossible 0
304
305 306 impossible 0
306
307 308 impossible 0
308
309 310 impossible 0
310
311 312 be 0
312 317 difficult 0
312 313 hard 0
313 314 , 0
314 321 maybe 0
314 315 perhaps 0
314 325 even 0
315 316 impossible 0
316
317 318 , 0
318 323 maybe 0
318 319 perhaps 0
318 327 even 0
319 320 impossible 0
320
321 322 impossible 0
322
323 324 impossible 0
324
325 326 impossible 0
326
327 328 impossible 0
328
