0 125 tulee 0
0 1 aito 0
0 1551 aidon 0
0 1572 todellisen 0
0 27 todellinen 0
0 451 todellista 0
0 425 aitoa 0
0 1867 on 0
1 2 luottamus 0
2 3 tulee 0
2 1749 on 0
3 4 olemaan 0
4 789 hankalaa 0
4 794 vaikeaa 0
4 10 vaikea 0
4 5 hankala 0
5 6 , 0
6 21 jopa 0
6 15 kenties 0
6 7 ehkä 0
7 8 mahdoton 0
8 101 luoda 0
8 9 uudelleenrakentaa 0
8 65 rakentaa 0
8 53 jälleenrakentaa 0
8 89 palauttaa 0
9
10 11 , 0
11 24 jopa 0
11 18 kenties 0
11 12 ehkä 0
12 13 mahdoton 0
13 103 luoda 0
13 14 uudelleenrakentaa 0
13 67 rakentaa 0
13 54 jälleenrakentaa 0
13 90 palauttaa 0
14
15 16 mahdoton 0
16 105 luoda 0
16 17 uudelleenrakentaa 0
16 69 rakentaa 0
16 55 jälleenrakentaa 0
16 91 palauttaa 0
17
18 19 mahdoton 0
19 107 luoda 0
19 20 uudelleenrakentaa 0
19 71 rakentaa 0
19 56 jälleenrakentaa 0
19 92 palauttaa 0
20
21 22 mahdoton 0
22 109 luoda 0
22 23 uudelleenrakentaa 0
22 73 rakentaa 0
22 57 jälleenrakentaa 0
22 93 palauttaa 0
23
24 25 mahdoton 0
25 111 luoda 0
25 26 uudelleenrakentaa 0
25 75 rakentaa 0
25 58 jälleenrakentaa 0
25 94 palauttaa 0
26
27 28 luottamus 0
28 29 tulee 0
28 1772 on 0
29 30 olemaan 0
30 811 hankalaa 0
30 816 vaikeaa 0
30 36 vaikea 0
30 31 hankala 0
31 32 , 0
32 47 jopa 0
32 41 kenties 0
32 33 ehkä 0
33 34 mahdoton 0
34 113 luoda 0
34 35 uudelleenrakentaa 0
34 77 rakentaa 0
34 59 jälleenrakentaa 0
34 95 palauttaa 0
35
36 37 , 0
37 50 jopa 0
37 44 kenties 0
37 38 ehkä 0
38 39 mahdoton 0
39 115 luoda 0
39 40 uudelleenrakentaa 0
39 79 rakentaa 0
39 60 jälleenrakentaa 0
39 96 palauttaa 0
40
41 42 mahdoton 0
42 117 luoda 0
42 43 uudelleenrakentaa 0
42 81 rakentaa 0
42 61 jälleenrakentaa 0
42 97 palauttaa 0
43
44 45 mahdoton 0
45 119 luoda 0
45 46 uudelleenrakentaa 0
45 83 rakentaa 0
45 62 jälleenrakentaa 0
45 98 palauttaa 0
46
47 48 mahdoton 0
48 121 luoda 0
48 49 uudelleenrakentaa 0
48 85 rakentaa 0
48 63 jälleenrakentaa 0
48 99 palauttaa 0
49
50 51 mahdoton 0
51 123 luoda 0
51 52 uudelleenrakentaa 0
51 87 rakentaa 0
51 64 jälleenrakentaa 0
51 100 palauttaa 0
52
53
54
55
56
57
58
59
60
61
62
63
64
65 66 uudelleen 0
66
67 68 uudelleen 0
68
69 70 uudelleen 0
70
71 72 uudelleen 0
72
73 74 uudelleen 0
74
75 76 uudelleen 0
76
77 78 uudelleen 0
78
79 80 uudelleen 0
80
81 82 uudelleen 0
82
83 84 uudelleen 0
84
85 86 uudelleen 0
86
87 88 uudelleen 0
88
89
90
91
92
93
94
95
96
97
98
99
100
101 102 uudelleen 0
102
103 104 uudelleen 0
104
105 106 uudelleen 0
106
107 108 uudelleen 0
108
109 110 uudelleen 0
110
111 112 uudelleen 0
112
113 114 uudelleen 0
114
115 116 uudelleen 0
116
117 118 uudelleen 0
118
119 120 uudelleen 0
120
121 122 uudelleen 0
122
123 124 uudelleen 0
124
125 126 olemaan 0
126 905 hankalaa 0
126 305 aito 0
126 912 vaikeaa 0
126 127 hankala 0
126 329 todellinen 0
126 693 todellista 0
126 669 aitoa 0
126 134 vaikea 0
127 128 , 0
128 151 jopa 0
128 141 kenties 0
128 129 ehkä 0
129 130 mahdoton 0
130 269 luoda 0
130 131 uudelleenrakentaa 0
130 203 rakentaa 0
130 173 jälleenrakentaa 0
130 239 palauttaa 0
131 132 aito 0
131 161 todellinen 0
131 561 todellista 0
131 549 aitoa 0
132 133 luottamus 0
133
134 135 , 0
135 156 jopa 0
135 146 kenties 0
135 136 ehkä 0
136 137 mahdoton 0
137 273 luoda 0
137 138 uudelleenrakentaa 0
137 207 rakentaa 0
137 176 jälleenrakentaa 0
137 242 palauttaa 0
138 139 aito 0
138 163 todellinen 0
138 563 todellista 0
138 551 aitoa 0
139 140 luottamus 0
140
141 142 mahdoton 0
142 277 luoda 0
142 143 uudelleenrakentaa 0
142 211 rakentaa 0
142 179 jälleenrakentaa 0
142 245 palauttaa 0
143 144 aito 0
143 165 todellinen 0
143 565 todellista 0
143 553 aitoa 0
144 145 luottamus 0
145
146 147 mahdoton 0
147 281 luoda 0
147 148 uudelleenrakentaa 0
147 215 rakentaa 0
147 182 jälleenrakentaa 0
147 248 palauttaa 0
148 149 aito 0
148 167 todellinen 0
148 567 todellista 0
148 555 aitoa 0
149 150 luottamus 0
150
151 152 mahdoton 0
152 285 luoda 0
152 153 uudelleenrakentaa 0
152 219 rakentaa 0
152 185 jälleenrakentaa 0
152 251 palauttaa 0
153 154 aito 0
153 169 todellinen 0
153 569 todellista 0
153 557 aitoa 0
154 155 luottamus 0
155
156 157 mahdoton 0
157 289 luoda 0
157 158 uudelleenrakentaa 0
157 223 rakentaa 0
157 188 jälleenrakentaa 0
157 254 palauttaa 0
158 159 aito 0
158 171 todellinen 0
158 571 todellista 0
158 559 aitoa 0
159 160 luottamus 0
160
161 162 luottamus 0
162
163 164 luottamus 0
164
165 166 luottamus 0
166
167 168 luottamus 0
168
169 170 luottamus 0
170
171 172 luottamus 0
172
173 174 aito 0
173 191 todellinen 0
173 585 todellista 0
173 573 aitoa 0
174 175 luottamus 0
175
176 177 aito 0
176 193 todellinen 0
176 587 todellista 0
176 575 aitoa 0
177 178 luottamus 0
178
179 180 aito 0
179 195 todellinen 0
179 589 todellista 0
179 577 aitoa 0
180 181 luottamus 0
181
182 183 aito 0
182 197 todellinen 0
182 591 todellista 0
182 579 aitoa 0
183 184 luottamus 0
184
185 186 aito 0
185 199 todellinen 0
185 593 todellista 0
185 581 aitoa 0
186 187 luottamus 0
187
188 189 aito 0
188 201 todellinen 0
188 595 todellista 0
188 583 aitoa 0
189 190 luottamus 0
190
191 192 luottamus 0
192
193 194 luottamus 0
194
195 196 luottamus 0
196
197 198 luottamus 0
198
199 200 luottamus 0
200
201 202 luottamus 0
202
203 204 uudelleen 0
204 205 aito 0
204 227 todellinen 0
204 609 todellista 0
204 597 aitoa 0
205 206 luottamus 0
206
207 208 uudelleen 0
208 209 aito 0
208 229 todellinen 0
208 611 todellista 0
208 599 aitoa 0
209 210 luottamus 0
210
211 212 uudelleen 0
212 213 aito 0
212 231 todellinen 0
212 613 todellista 0
212 601 aitoa 0
213 214 luottamus 0
214
215 216 uudelleen 0
216 217 aito 0
216 233 todellinen 0
216 615 todellista 0
216 603 aitoa 0
217 218 luottamus 0
218
219 220 uudelleen 0
220 221 aito 0
220 235 todellinen 0
220 617 todellista 0
220 605 aitoa 0
221 222 luottamus 0
222
223 224 uudelleen 0
224 225 aito 0
224 237 todellinen 0
224 619 todellista 0
224 607 aitoa 0
225 226 luottamus 0
226
227 228 luottamus 0
228
229 230 luottamus 0
230
231 232 luottamus 0
232
233 234 luottamus 0
234
235 236 luottamus 0
236
237 238 luottamus 0
238
239 240 aito 0
239 257 todellinen 0
239 633 todellista 0
239 621 aitoa 0
240 241 luottamus 0
241
242 243 aito 0
242 259 todellinen 0
242 635 todellista 0
242 623 aitoa 0
243 244 luottamus 0
244
245 246 aito 0
245 261 todellinen 0
245 637 todellista 0
245 625 aitoa 0
246 247 luottamus 0
247
248 249 aito 0
248 263 todellinen 0
248 639 todellista 0
248 627 aitoa 0
249 250 luottamus 0
250
251 252 aito 0
251 265 todellinen 0
251 641 todellista 0
251 629 aitoa 0
252 253 luottamus 0
253
254 255 aito 0
254 267 todellinen 0
254 643 todellista 0
254 631 aitoa 0
255 256 luottamus 0
256
257 258 luottamus 0
258
259 260 luottamus 0
260
261 262 luottamus 0
262
263 264 luottamus 0
264
265 266 luottamus 0
266
267 268 luottamus 0
268
269 270 uudelleen 0
270 271 aito 0
270 293 todellinen 0
270 657 todellista 0
270 645 aitoa 0
271 272 luottamus 0
272
273 274 uudelleen 0
274 275 aito 0
274 295 todellinen 0
274 659 todellista 0
274 647 aitoa 0
275 276 luottamus 0
276
277 278 uudelleen 0
278 279 aito 0
278 297 todellinen 0
278 661 todellista 0
278 649 aitoa 0
279 280 luottamus 0
280
281 282 uudelleen 0
282 283 aito 0
282 299 todellinen 0
282 663 todellista 0
282 651 aitoa 0
283 284 luottamus 0
284
285 286 uudelleen 0
286 287 aito 0
286 301 todellinen 0
286 665 todellista 0
286 653 aitoa 0
287 288 luottamus 0
288
289 290 uudelleen 0
290 291 aito 0
290 303 todellinen 0
290 667 todellista 0
290 655 aitoa 0
291 292 luottamus 0
292
293 294 luottamus 0
294
295 296 luottamus 0
296
297 298 luottamus 0
298
299 300 luottamus 0
300
301 302 luottamus 0
302
303 304 luottamus 0
304
305 306 luottamus 0
306 1083 hankalaa 0
306 1088 vaikeaa 0
306 312 vaikea 0
306 307 hankala 0
307 308 , 0
308 323 jopa 0
308 317 kenties 0
308 309 ehkä 0
309 310 mahdoton 0
310 401 luoda 0
310 311 uudelleenrakentaa 0
310 365 rakentaa 0
310 353 jälleenrakentaa 0
310 389 palauttaa 0
311
312 313 , 0
313 326 jopa 0
313 320 kenties 0
313 314 ehkä 0
314 315 mahdoton 0
315 403 luoda 0
315 316 uudelleenrakentaa 0
315 367 rakentaa 0
315 354 jälleenrakentaa 0
315 390 palauttaa 0
316
317 318 mahdoton 0
318 405 luoda 0
318 319 uudelleenrakentaa 0
318 369 rakentaa 0
318 355 jälleenrakentaa 0
318 391 palauttaa 0
319
320 321 mahdoton 0
321 407 luoda 0
321 322 uudelleenrakentaa 0
321 371 rakentaa 0
321 356 jälleenrakentaa 0
321 392 palauttaa 0
322
323 324 mahdoton 0
324 409 luoda 0
324 325 uudelleenrakentaa 0
324 373 rakentaa 0
324 357 jälleenrakentaa 0
324 393 palauttaa 0
325
326 327 mahdoton 0
327 411 luoda 0
327 328 uudelleenrakentaa 0
327 375 rakentaa 0
327 358 jälleenrakentaa 0
327 394 palauttaa 0
328
329 330 luottamus 0
330 1105 hankalaa 0
330 1110 vaikeaa 0
330 336 vaikea 0
330 331 hankala 0
331 332 , 0
332 347 jopa 0
332 341 kenties 0
332 333 ehkä 0
333 334 mahdoton 0
334 413 luoda 0
334 335 uudelleenrakentaa 0
334 377 rakentaa 0
334 359 jälleenrakentaa 0
334 395 palauttaa 0
335
336 337 , 0
337 350 jopa 0
337 344 kenties 0
337 338 ehkä 0
338 339 mahdoton 0
339 415 luoda 0
339 340 uudelleenrakentaa 0
339 379 rakentaa 0
339 360 jälleenrakentaa 0
339 396 palauttaa 0
340
341 342 mahdoton 0
342 417 luoda 0
342 343 uudelleenrakentaa 0
342 381 rakentaa 0
342 361 jälleenrakentaa 0
342 397 palauttaa 0
343
344 345 mahdoton 0
345 419 luoda 0
345 346 uudelleenrakentaa 0
345 383 rakentaa 0
345 362 jälleenrakentaa 0
345 398 palauttaa 0
346
347 348 mahdoton 0
348 421 luoda 0
348 349 uudelleenrakentaa 0
348 385 rakentaa 0
348 363 jälleenrakentaa 0
348 399 palauttaa 0
349
350 351 mahdoton 0
351 423 luoda 0
351 352 uudelleenrakentaa 0
351 387 rakentaa 0
351 364 jälleenrakentaa 0
351 400 palauttaa 0
352
353
354
355
356
357
358
359
360
361
362
363
364
365 366 uudelleen 0
366
367 368 uudelleen 0
368
369 370 uudelleen 0
370
371 372 uudelleen 0
372
373 374 uudelleen 0
374
375 376 uudelleen 0
376
377 378 uudelleen 0
378
379 380 uudelleen 0
380
381 382 uudelleen 0
382
383 384 uudelleen 0
384
385 386 uudelleen 0
386
387 388 uudelleen 0
388
389
390
391
392
393
394
395
396
397
398
399
400
401 402 uudelleen 0
402
403 404 uudelleen 0
404
405 406 uudelleen 0
406
407 408 uudelleen 0
408
409 410 uudelleen 0
410
411 412 uudelleen 0
412
413 414 uudelleen 0
414
415 416 uudelleen 0
416
417 418 uudelleen 0
418
419 420 uudelleen 0
420
421 422 uudelleen 0
422
423 424 uudelleen 0
424
425 426 luottamusta 0
426 427 tulee 0
426 2166 on 0
427 428 olemaan 0
428 1199 hankalaa 0
428 1204 vaikeaa 0
428 434 vaikea 0
428 429 hankala 0
429 430 , 0
430 445 jopa 0
430 439 kenties 0
430 431 ehkä 0
431 432 mahdoton 0
432 525 luoda 0
432 433 uudelleenrakentaa 0
432 489 rakentaa 0
432 477 jälleenrakentaa 0
432 513 palauttaa 0
433
434 435 , 0
435 448 jopa 0
435 442 kenties 0
435 436 ehkä 0
436 437 mahdoton 0
437 527 luoda 0
437 438 uudelleenrakentaa 0
437 491 rakentaa 0
437 478 jälleenrakentaa 0
437 514 palauttaa 0
438
439 440 mahdoton 0
440 529 luoda 0
440 441 uudelleenrakentaa 0
440 493 rakentaa 0
440 479 jälleenrakentaa 0
440 515 palauttaa 0
441
442 443 mahdoton 0
443 531 luoda 0
443 444 uudelleenrakentaa 0
443 495 rakentaa 0
443 480 jälleenrakentaa 0
443 516 palauttaa 0
444
445 446 mahdoton 0
446 533 luoda 0
446 447 uudelleenrakentaa 0
446 497 rakentaa 0
446 481 jälleenrakentaa 0
446 517 palauttaa 0
447
448 449 mahdoton 0
449 535 luoda 0
449 450 uudelleenrakentaa 0
449 499 rakentaa 0
449 482 jälleenrakentaa 0
449 518 palauttaa 0
450
451 452 luottamusta 0
452 453 tulee 0
452 2189 on 0
453 454 olemaan 0
454 1221 hankalaa 0
454 1226 vaikeaa 0
454 460 vaikea 0
454 455 hankala 0
455 456 , 0
456 471 jopa 0
456 465 kenties 0
456 457 ehkä 0
457 458 mahdoton 0
458 537 luoda 0
458 459 uudelleenrakentaa 0
458 501 rakentaa 0
458 483 jälleenrakentaa 0
458 519 palauttaa 0
459
460 461 , 0
461 474 jopa 0
461 468 kenties 0
461 462 ehkä 0
462 463 mahdoton 0
463 539 luoda 0
463 464 uudelleenrakentaa 0
463 503 rakentaa 0
463 484 jälleenrakentaa 0
463 520 palauttaa 0
464
465 466 mahdoton 0
466 541 luoda 0
466 467 uudelleenrakentaa 0
466 505 rakentaa 0
466 485 jälleenrakentaa 0
466 521 palauttaa 0
467
468 469 mahdoton 0
469 543 luoda 0
469 470 uudelleenrakentaa 0
469 507 rakentaa 0
469 486 jälleenrakentaa 0
469 522 palauttaa 0
470
471 472 mahdoton 0
472 545 luoda 0
472 473 uudelleenrakentaa 0
472 509 rakentaa 0
472 487 jälleenrakentaa 0
472 523 palauttaa 0
473
474 475 mahdoton 0
475 547 luoda 0
475 476 uudelleenrakentaa 0
475 511 rakentaa 0
475 488 jälleenrakentaa 0
475 524 palauttaa 0
476
477
478
479
480
481
482
483
484
485
486
487
488
489 490 uudelleen 0
490
491 492 uudelleen 0
492
493 494 uudelleen 0
494
495 496 uudelleen 0
496
497 498 uudelleen 0
498
499 500 uudelleen 0
500
501 502 uudelleen 0
502
503 504 uudelleen 0
504
505 506 uudelleen 0
506
507 508 uudelleen 0
508
509 510 uudelleen 0
510
511 512 uudelleen 0
512
513
514
515
516
517
518
519
520
521
522
523
524
525 526 uudelleen 0
526
527 528 uudelleen 0
528
529 530 uudelleen 0
530
531 532 uudelleen 0
532
533 534 uudelleen 0
534
535 536 uudelleen 0
536
537 538 uudelleen 0
538
539 540 uudelleen 0
540
541 542 uudelleen 0
542
543 544 uudelleen 0
544
545 546 uudelleen 0
546
547 548 uudelleen 0
548
549 550 luottamusta 0
550
551 552 luottamusta 0
552
553 554 luottamusta 0
554
555 556 luottamusta 0
556
557 558 luottamusta 0
558
559 560 luottamusta 0
560
561 562 luottamusta 0
562
563 564 luottamusta 0
564
565 566 luottamusta 0
566
567 568 luottamusta 0
568
569 570 luottamusta 0
570
571 572 luottamusta 0
572
573 574 luottamusta 0
574
575 576 luottamusta 0
576
577 578 luottamusta 0
578
579 580 luottamusta 0
580
581 582 luottamusta 0
582
583 584 luottamusta 0
584
585 586 luottamusta 0
586
587 588 luottamusta 0
588
589 590 luottamusta 0
590
591 592 luottamusta 0
592
593 594 luottamusta 0
594
595 596 luottamusta 0
596
597 598 luottamusta 0
598
599 600 luottamusta 0
600
601 602 luottamusta 0
602
603 604 luottamusta 0
604
605 606 luottamusta 0
606
607 608 luottamusta 0
608
609 610 luottamusta 0
610
611 612 luottamusta 0
612
613 614 luottamusta 0
614
615 616 luottamusta 0
616
617 618 luottamusta 0
618
619 620 luottamusta 0
620
621 622 luottamusta 0
622
623 624 luottamusta 0
624
625 626 luottamusta 0
626
627 628 luottamusta 0
628
629 630 luottamusta 0
630
631 632 luottamusta 0
632
633 634 luottamusta 0
634
635 636 luottamusta 0
636
637 638 luottamusta 0
638
639 640 luottamusta 0
640
641 642 luottamusta 0
642
643 644 luottamusta 0
644
645 646 luottamusta 0
646
647 648 luottamusta 0
648
649 650 luottamusta 0
650
651 652 luottamusta 0
652
653 654 luottamusta 0
654
655 656 luottamusta 0
656
657 658 luottamusta 0
658
659 660 luottamusta 0
660
661 662 luottamusta 0
662
663 664 luottamusta 0
664
665 666 luottamusta 0
666
667 668 luottamusta 0
668
669 670 luottamusta 0
670 1435 hankalaa 0
670 1440 vaikeaa 0
670 676 vaikea 0
670 671 hankala 0
671 672 , 0
672 687 jopa 0
672 681 kenties 0
672 673 ehkä 0
673 674 mahdoton 0
674 765 luoda 0
674 675 uudelleenrakentaa 0
674 729 rakentaa 0
674 717 jälleenrakentaa 0
674 753 palauttaa 0
675
676 677 , 0
677 690 jopa 0
677 684 kenties 0
677 678 ehkä 0
678 679 mahdoton 0
679 767 luoda 0
679 680 uudelleenrakentaa 0
679 731 rakentaa 0
679 718 jälleenrakentaa 0
679 754 palauttaa 0
680
681 682 mahdoton 0
682 769 luoda 0
682 683 uudelleenrakentaa 0
682 733 rakentaa 0
682 719 jälleenrakentaa 0
682 755 palauttaa 0
683
684 685 mahdoton 0
685 771 luoda 0
685 686 uudelleenrakentaa 0
685 735 rakentaa 0
685 720 jälleenrakentaa 0
685 756 palauttaa 0
686
687 688 mahdoton 0
688 773 luoda 0
688 689 uudelleenrakentaa 0
688 737 rakentaa 0
688 721 jälleenrakentaa 0
688 757 palauttaa 0
689
690 691 mahdoton 0
691 775 luoda 0
691 692 uudelleenrakentaa 0
691 739 rakentaa 0
691 722 jälleenrakentaa 0
691 758 palauttaa 0
692
693 694 luottamusta 0
694 1457 hankalaa 0
694 1462 vaikeaa 0
694 700 vaikea 0
694 695 hankala 0
695 696 , 0
696 711 jopa 0
696 705 kenties 0
696 697 ehkä 0
697 698 mahdoton 0
698 777 luoda 0
698 699 uudelleenrakentaa 0
698 741 rakentaa 0
698 723 jälleenrakentaa 0
698 759 palauttaa 0
699
700 701 , 0
701 714 jopa 0
701 708 kenties 0
701 702 ehkä 0
702 703 mahdoton 0
703 779 luoda 0
703 704 uudelleenrakentaa 0
703 743 rakentaa 0
703 724 jälleenrakentaa 0
703 760 palauttaa 0
704
705 706 mahdoton 0
706 781 luoda 0
706 707 uudelleenrakentaa 0
706 745 rakentaa 0
706 725 jälleenrakentaa 0
706 761 palauttaa 0
707
708 709 mahdoton 0
709 783 luoda 0
709 710 uudelleenrakentaa 0
709 747 rakentaa 0
709 726 jälleenrakentaa 0
709 762 palauttaa 0
710
711 712 mahdoton 0
712 785 luoda 0
712 713 uudelleenrakentaa 0
712 749 rakentaa 0
712 727 jälleenrakentaa 0
712 763 palauttaa 0
713
714 715 mahdoton 0
715 787 luoda 0
715 716 uudelleenrakentaa 0
715 751 rakentaa 0
715 728 jälleenrakentaa 0
715 764 palauttaa 0
716
717
718
719
720
721
722
723
724
725
726
727
728
729 730 uudelleen 0
730
731 732 uudelleen 0
732
733 734 uudelleen 0
734
735 736 uudelleen 0
736
737 738 uudelleen 0
738
739 740 uudelleen 0
740
741 742 uudelleen 0
742
743 744 uudelleen 0
744
745 746 uudelleen 0
746
747 748 uudelleen 0
748
749 750 uudelleen 0
750
751 752 uudelleen 0
752
753
754
755
756
757
758
759
760
761
762
763
764
765 766 uudelleen 0
766
767 768 uudelleen 0
768
769 770 uudelleen 0
770
771 772 uudelleen 0
772
773 774 uudelleen 0
774
775 776 uudelleen 0
776
777 778 uudelleen 0
778
779 780 uudelleen 0
780
781 782 uudelleen 0
782
783 784 uudelleen 0
784
785 786 uudelleen 0
786
787 788 uudelleen 0
788
789 790 , 0
790 805 jopa 0
790 799 kenties 0
790 791 ehkä 0
791 792 mahdotonta 0
792 881 luoda 0
792 793 uudelleenrakentaa 0
792 845 rakentaa 0
792 833 jälleenrakentaa 0
792 869 palauttaa 0
793
794 795 , 0
795 808 jopa 0
795 802 kenties 0
795 796 ehkä 0
796 797 mahdotonta 0
797 883 luoda 0
797 798 uudelleenrakentaa 0
797 847 rakentaa 0
797 834 jälleenrakentaa 0
797 870 palauttaa 0
798
799 800 mahdotonta 0
800 885 luoda 0
800 801 uudelleenrakentaa 0
800 849 rakentaa 0
800 835 jälleenrakentaa 0
800 871 palauttaa 0
801
802 803 mahdotonta 0
803 887 luoda 0
803 804 uudelleenrakentaa 0
803 851 rakentaa 0
803 836 jälleenrakentaa 0
803 872 palauttaa 0
804
805 806 mahdotonta 0
806 889 luoda 0
806 807 uudelleenrakentaa 0
806 853 rakentaa 0
806 837 jälleenrakentaa 0
806 873 palauttaa 0
807
808 809 mahdotonta 0
809 891 luoda 0
809 810 uudelleenrakentaa 0
809 855 rakentaa 0
809 838 jälleenrakentaa 0
809 874 palauttaa 0
810
811 812 , 0
812 827 jopa 0
812 821 kenties 0
812 813 ehkä 0
813 814 mahdotonta 0
814 893 luoda 0
814 815 uudelleenrakentaa 0
814 857 rakentaa 0
814 839 jälleenrakentaa 0
814 875 palauttaa 0
815
816 817 , 0
817 830 jopa 0
817 824 kenties 0
817 818 ehkä 0
818 819 mahdotonta 0
819 895 luoda 0
819 820 uudelleenrakentaa 0
819 859 rakentaa 0
819 840 jälleenrakentaa 0
819 876 palauttaa 0
820
821 822 mahdotonta 0
822 897 luoda 0
822 823 uudelleenrakentaa 0
822 861 rakentaa 0
822 841 jälleenrakentaa 0
822 877 palauttaa 0
823
824 825 mahdotonta 0
825 899 luoda 0
825 826 uudelleenrakentaa 0
825 863 rakentaa 0
825 842 jälleenrakentaa 0
825 878 palauttaa 0
826
827 828 mahdotonta 0
828 901 luoda 0
828 829 uudelleenrakentaa 0
828 865 rakentaa 0
828 843 jälleenrakentaa 0
828 879 palauttaa 0
829
830 831 mahdotonta 0
831 903 luoda 0
831 832 uudelleenrakentaa 0
831 867 rakentaa 0
831 844 jälleenrakentaa 0
831 880 palauttaa 0
832
833
834
835
836
837
838
839
840
841
842
843
844
845 846 uudelleen 0
846
847 848 uudelleen 0
848
849 850 uudelleen 0
850
851 852 uudelleen 0
852
853 854 uudelleen 0
854
855 856 uudelleen 0
856
857 858 uudelleen 0
858
859 860 uudelleen 0
860
861 862 uudelleen 0
862
863 864 uudelleen 0
864
865 866 uudelleen 0
866
867 868 uudelleen 0
868
869
870
871
872
873
874
875
876
877
878
879
880
881 882 uudelleen 0
882
883 884 uudelleen 0
884
885 886 uudelleen 0
886
887 888 uudelleen 0
888
889 890 uudelleen 0
890
891 892 uudelleen 0
892
893 894 uudelleen 0
894
895 896 uudelleen 0
896
897 898 uudelleen 0
898
899 900 uudelleen 0
900
901 902 uudelleen 0
902
903 904 uudelleen 0
904
905 906 , 0
906 929 jopa 0
906 919 kenties 0
906 907 ehkä 0
907 908 mahdotonta 0
908 1047 luoda 0
908 909 uudelleenrakentaa 0
908 981 rakentaa 0
908 951 jälleenrakentaa 0
908 1017 palauttaa 0
909 910 aito 0
909 939 todellinen 0
909 1327 todellista 0
909 1315 aitoa 0
910 911 luottamus 0
911
912 913 , 0
913 934 jopa 0
913 924 kenties 0
913 914 ehkä 0
914 915 mahdotonta 0
915 1051 luoda 0
915 916 uudelleenrakentaa 0
915 985 rakentaa 0
915 954 jälleenrakentaa 0
915 1020 palauttaa 0
916 917 aito 0
916 941 todellinen 0
916 1329 todellista 0
916 1317 aitoa 0
917 918 luottamus 0
918
919 920 mahdotonta 0
920 1055 luoda 0
920 921 uudelleenrakentaa 0
920 989 rakentaa 0
920 957 jälleenrakentaa 0
920 1023 palauttaa 0
921 922 aito 0
921 943 todellinen 0
921 1331 todellista 0
921 1319 aitoa 0
922 923 luottamus 0
923
924 925 mahdotonta 0
925 1059 luoda 0
925 926 uudelleenrakentaa 0
925 993 rakentaa 0
925 960 jälleenrakentaa 0
925 1026 palauttaa 0
926 927 aito 0
926 945 todellinen 0
926 1333 todellista 0
926 1321 aitoa 0
927 928 luottamus 0
928
929 930 mahdotonta 0
930 1063 luoda 0
930 931 uudelleenrakentaa 0
930 997 rakentaa 0
930 963 jälleenrakentaa 0
930 1029 palauttaa 0
931 932 aito 0
931 947 todellinen 0
931 1335 todellista 0
931 1323 aitoa 0
932 933 luottamus 0
933
934 935 mahdotonta 0
935 1067 luoda 0
935 936 uudelleenrakentaa 0
935 1001 rakentaa 0
935 966 jälleenrakentaa 0
935 1032 palauttaa 0
936 937 aito 0
936 949 todellinen 0
936 1337 todellista 0
936 1325 aitoa 0
937 938 luottamus 0
938
939 940 luottamus 0
940
941 942 luottamus 0
942
943 944 luottamus 0
944
945 946 luottamus 0
946
947 948 luottamus 0
948
949 950 luottamus 0
950
951 952 aito 0
951 969 todellinen 0
951 1351 todellista 0
951 1339 aitoa 0
952 953 luottamus 0
953
954 955 aito 0
954 971 todellinen 0
954 1353 todellista 0
954 1341 aitoa 0
955 956 luottamus 0
956
957 958 aito 0
957 973 todellinen 0
957 1355 todellista 0
957 1343 aitoa 0
958 959 luottamus 0
959
960 961 aito 0
960 975 todellinen 0
960 1357 todellista 0
960 1345 aitoa 0
961 962 luottamus 0
962
963 964 aito 0
963 977 todellinen 0
963 1359 todellista 0
963 1347 aitoa 0
964 965 luottamus 0
965
966 967 aito 0
966 979 todellinen 0
966 1361 todellista 0
966 1349 aitoa 0
967 968 luottamus 0
968
969 970 luottamus 0
970
971 972 luottamus 0
972
973 974 luottamus 0
974
975 976 luottamus 0
976
977 978 luottamus 0
978
979 980 luottamus 0
980
981 982 uudelleen 0
982 983 aito 0
982 1005 todellinen 0
982 1375 todellista 0
982 1363 aitoa 0
983 984 luottamus 0
984
985 986 uudelleen 0
986 987 aito 0
986 1007 todellinen 0
986 1377 todellista 0
986 1365 aitoa 0
987 988 luottamus 0
988
989 990 uudelleen 0
990 991 aito 0
990 1009 todellinen 0
990 1379 todellista 0
990 1367 aitoa 0
991 992 luottamus 0
992
993 994 uudelleen 0
994 995 aito 0
994 1011 todellinen 0
994 1381 todellista 0
994 1369 aitoa 0
995 996 luottamus 0
996
997 998 uudelleen 0
998 999 aito 0
998 1013 todellinen 0
998 1383 todellista 0
998 1371 aitoa 0
999 1000 luottamus 0
1000
1001 1002 uudelleen 0
1002 1003 aito 0
1002 1015 todellinen 0
1002 1385 todellista 0
1002 1373 aitoa 0
1003 1004 luottamus 0
1004
1005 1006 luottamus 0
1006
1007 1008 luottamus 0
1008
1009 1010 luottamus 0
1010
1011 1012 luottamus 0
1012
1013 1014 luottamus 0
1014
1015 1016 luottamus 0
1016
1017 1018 aito 0
1017 1035 todellinen 0
1017 1399 todellista 0
1017 1387 aitoa 0
1018 1019 luottamus 0
1019
1020 1021 aito 0
1020 1037 todellinen 0
1020 1401 todellista 0
1020 1389 aitoa 0
1021 1022 luottamus 0
1022
1023 1024 aito 0
1023 1039 todellinen 0
1023 1403 todellista 0
1023 1391 aitoa 0
1024 1025 luottamus 0
1025
1026 1027 aito 0
1026 1041 todellinen 0
1026 1405 todellista 0
1026 1393 aitoa 0
1027 1028 luottamus 0
1028
1029 1030 aito 0
1029 1043 todellinen 0
1029 1407 todellista 0
1029 1395 aitoa 0
1030 1031 luottamus 0
1031
1032 1033 aito 0
1032 1045 todellinen 0
1032 1409 todellista 0
1032 1397 aitoa 0
1033 1034 luottamus 0
1034
1035 1036 luottamus 0
1036
1037 1038 luottamus 0
1038
1039 1040 luottamus 0
1040
1041 1042 luottamus 0
1042
1043 1044 luottamus 0
1044
1045 1046 luottamus 0
1046
1047 1048 uudelleen 0
1048 1049 aito 0
1048 1071 todellinen 0
1048 1423 todellista 0
1048 1411 aitoa 0
1049 1050 luottamus 0
1050
1051 1052 uudelleen 0
1052 1053 aito 0
1052 1073 todellinen 0
1052 1425 todellista 0
1052 1413 aitoa 0
1053 1054 luottamus 0
1054
1055 1056 uudelleen 0
1056 1057 aito 0
1056 1075 todellinen 0
1056 1427 todellista 0
1056 1415 aitoa 0
1057 1058 luottamus 0
1058
1059 1060 uudelleen 0
1060 1061 aito 0
1060 1077 todellinen 0
1060 1429 todellista 0
1060 1417 aitoa 0
1061 1062 luottamus 0
1062
1063 1064 uudelleen 0
1064 1065 aito 0
1064 1079 todellinen 0
1064 1431 todellista 0
1064 1419 aitoa 0
1065 1066 luottamus 0
1066
1067 1068 uudelleen 0
1068 1069 aito 0
1068 1081 todellinen 0
1068 1433 todellista 0
1068 1421 aitoa 0
1069 1070 luottamus 0
1070
1071 1072 luottamus 0
1072
1073 1074 luottamus 0
1074
1075 1076 luottamus 0
1076
1077 1078 luottamus 0
1078
1079 1080 luottamus 0
1080
1081 1082 luottamus 0
1082
1083 1084 , 0
1084 1099 jopa 0
1084 1093 kenties 0
1084 1085 ehkä 0
1085 1086 mahdotonta 0
1086 1175 luoda 0
1086 1087 uudelleenrakentaa 0
1086 1139 rakentaa 0
1086 1127 jälleenrakentaa 0
1086 1163 palauttaa 0
1087
1088 1089 , 0
1089 1102 jopa 0
1089 1096 kenties 0
1089 1090 ehkä 0
1090 1091 mahdotonta 0
1091 1177 luoda 0
1091 1092 uudelleenrakentaa 0
1091 1141 rakentaa 0
1091 1128 jälleenrakentaa 0
1091 1164 palauttaa 0
1092
1093 1094 mahdotonta 0
1094 1179 luoda 0
1094 1095 uudelleenrakentaa 0
1094 1143 rakentaa 0
1094 1129 jälleenrakentaa 0
1094 1165 palauttaa 0
1095
1096 1097 mahdotonta 0
1097 1181 luoda 0
1097 1098 uudelleenrakentaa 0
1097 1145 rakentaa 0
1097 1130 jälleenrakentaa 0
1097 1166 palauttaa 0
1098
1099 1100 mahdotonta 0
1100 1183 luoda 0
1100 1101 uudelleenrakentaa 0
1100 1147 rakentaa 0
1100 1131 jälleenrakentaa 0
1100 1167 palauttaa 0
1101
1102 1103 mahdotonta 0
1103 1185 luoda 0
1103 1104 uudelleenrakentaa 0
1103 1149 rakentaa 0
1103 1132 jälleenrakentaa 0
1103 1168 palauttaa 0
1104
1105 1106 , 0
1106 1121 jopa 0
1106 1115 kenties 0
1106 1107 ehkä 0
1107 1108 mahdotonta 0
1108 1187 luoda 0
1108 1109 uudelleenrakentaa 0
1108 1151 rakentaa 0
1108 1133 jälleenrakentaa 0
1108 1169 palauttaa 0
1109
1110 1111 , 0
1111 1124 jopa 0
1111 1118 kenties 0
1111 1112 ehkä 0
1112 1113 mahdotonta 0
1113 1189 luoda 0
1113 1114 uudelleenrakentaa 0
1113 1153 rakentaa 0
1113 1134 jälleenrakentaa 0
1113 1170 palauttaa 0
1114
1115 1116 mahdotonta 0
1116 1191 luoda 0
1116 1117 uudelleenrakentaa 0
1116 1155 rakentaa 0
1116 1135 jälleenrakentaa 0
1116 1171 palauttaa 0
1117
1118 1119 mahdotonta 0
1119 1193 luoda 0
1119 1120 uudelleenrakentaa 0
1119 1157 rakentaa 0
1119 1136 jälleenrakentaa 0
1119 1172 palauttaa 0
1120
1121 1122 mahdotonta 0
1122 1195 luoda 0
1122 1123 uudelleenrakentaa 0
1122 1159 rakentaa 0
1122 1137 jälleenrakentaa 0
1122 1173 palauttaa 0
1123
1124 1125 mahdotonta 0
1125 1197 luoda 0
1125 1126 uudelleenrakentaa 0
1125 1161 rakentaa 0
1125 1138 jälleenrakentaa 0
1125 1174 palauttaa 0
1126
1127
1128
1129
1130
1131
1132
1133
1134
1135
1136
1137
1138
1139 1140 uudelleen 0
1140
1141 1142 uudelleen 0
1142
1143 1144 uudelleen 0
1144
1145 1146 uudelleen 0
1146
1147 1148 uudelleen 0
1148
1149 1150 uudelleen 0
1150
1151 1152 uudelleen 0
1152
1153 1154 uudelleen 0
1154
1155 1156 uudelleen 0
1156
1157 1158 uudelleen 0
1158
1159 1160 uudelleen 0
1160
1161 1162 uudelleen 0
1162
1163
1164
1165
1166
1167
1168
1169
1170
1171
1172
1173
1174
1175 1176 uudelleen 0
1176
1177 1178 uudelleen 0
1178
1179 1180 uudelleen 0
1180
1181 1182 uudelleen 0
1182
1183 1184 uudelleen 0
1184
1185 1186 uudelleen 0
1186
1187 1188 uudelleen 0
1188
1189 1190 uudelleen 0
1190
1191 1192 uudelleen 0
1192
1193 1194 uudelleen 0
1194
1195 1196 uudelleen 0
1196
1197 1198 uudelleen 0
1198
1199 1200 , 0
1200 1215 jopa 0
1200 1209 kenties 0
1200 1201 ehkä 0
1201 1202 mahdotonta 0
1202 1291 luoda 0
1202 1203 uudelleenrakentaa 0
1202 1255 rakentaa 0
1202 1243 jälleenrakentaa 0
1202 1279 palauttaa 0
1203
1204 1205 , 0
1205 1218 jopa 0
1205 1212 kenties 0
1205 1206 ehkä 0
1206 1207 mahdotonta 0
1207 1293 luoda 0
1207 1208 uudelleenrakentaa 0
1207 1257 rakentaa 0
1207 1244 jälleenrakentaa 0
1207 1280 palauttaa 0
1208
1209 1210 mahdotonta 0
1210 1295 luoda 0
1210 1211 uudelleenrakentaa 0
1210 1259 rakentaa 0
1210 1245 jälleenrakentaa 0
1210 1281 palauttaa 0
1211
1212 1213 mahdotonta 0
1213 1297 luoda 0
1213 1214 uudelleenrakentaa 0
1213 1261 rakentaa 0
1213 1246 jälleenrakentaa 0
1213 1282 palauttaa 0
1214
1215 1216 mahdotonta 0
1216 1299 luoda 0
1216 1217 uudelleenrakentaa 0
1216 1263 rakentaa 0
1216 1247 jälleenrakentaa 0
1216 1283 palauttaa 0
1217
1218 1219 mahdotonta 0
1219 1301 luoda 0
1219 1220 uudelleenrakentaa 0
1219 1265 rakentaa 0
1219 1248 jälleenrakentaa 0
1219 1284 palauttaa 0
1220
1221 1222 , 0
1222 1237 jopa 0
1222 1231 kenties 0
1222 1223 ehkä 0
1223 1224 mahdotonta 0
1224 1303 luoda 0
1224 1225 uudelleenrakentaa 0
1224 1267 rakentaa 0
1224 1249 jälleenrakentaa 0
1224 1285 palauttaa 0
1225
1226 1227 , 0
1227 1240 jopa 0
1227 1234 kenties 0
1227 1228 ehkä 0
1228 1229 mahdotonta 0
1229 1305 luoda 0
1229 1230 uudelleenrakentaa 0
1229 1269 rakentaa 0
1229 1250 jälleenrakentaa 0
1229 1286 palauttaa 0
1230
1231 1232 mahdotonta 0
1232 1307 luoda 0
1232 1233 uudelleenrakentaa 0
1232 1271 rakentaa 0
1232 1251 jälleenrakentaa 0
1232 1287 palauttaa 0
1233
1234 1235 mahdotonta 0
1235 1309 luoda 0
1235 1236 uudelleenrakentaa 0
1235 1273 rakentaa 0
1235 1252 jälleenrakentaa 0
1235 1288 palauttaa 0
1236
1237 1238 mahdotonta 0
1238 1311 luoda 0
1238 1239 uudelleenrakentaa 0
1238 1275 rakentaa 0
1238 1253 jälleenrakentaa 0
1238 1289 palauttaa 0
1239
1240 1241 mahdotonta 0
1241 1313 luoda 0
1241 1242 uudelleenrakentaa 0
1241 1277 rakentaa 0
1241 1254 jälleenrakentaa 0
1241 1290 palauttaa 0
1242
1243
1244
1245
1246
1247
1248
1249
1250
1251
1252
1253
1254
1255 1256 uudelleen 0
1256
1257 1258 uudelleen 0
1258
1259 1260 uudelleen 0
1260
1261 1262 uudelleen 0
1262
1263 1264 uudelleen 0
1264
1265 1266 uudelleen 0
1266
1267 1268 uudelleen 0
1268
1269 1270 uudelleen 0
1270
1271 1272 uudelleen 0
1272
1273 1274 uudelleen 0
1274
1275 1276 uudelleen 0
1276
1277 1278 uudelleen 0
1278
1279
1280
1281
1282
1283
1284
1285
1286
1287
1288
1289
1290
1291 1292 uudelleen 0
1292
1293 1294 uudelleen 0
1294
1295 1296 uudelleen 0
1296
1297 1298 uudelleen 0
1298
1299 1300 uudelleen 0
1300
1301 1302 uudelleen 0
1302
1303 1304 uudelleen 0
1304
1305 1306 uudelleen 0
1306
1307 1308 uudelleen 0
1308
1309 1310 uudelleen 0
1310
1311 1312 uudelleen 0
1312
1313 1314 uudelleen 0
1314
1315 1316 luottamusta 0
1316
1317 1318 luottamusta 0
1318
1319 1320 luottamusta 0
1320
1321 1322 luottamusta 0
1322
1323 1324 luottamusta 0
1324
1325 1326 luottamusta 0
1326
1327 1328 luottamusta 0
1328
1329 1330 luottamusta 0
1330
1331 1332 luottamusta 0
1332
1333 1334 luottamusta 0
1334
1335 1336 luottamusta 0
1336
1337 1338 luottamusta 0
1338
1339 1340 luottamusta 0
1340
1341 1342 luottamusta 0
1342
1343 1344 luottamusta 0
1344
1345 1346 luottamusta 0
1346
1347 1348 luottamusta 0
1348
1349 1350 luottamusta 0
1350
1351 1352 luottamusta 0
1352
1353 1354 luottamusta 0
1354
1355 1356 luottamusta 0
1356
1357 1358 luottamusta 0
1358
1359 1360 luottamusta 0
1360
1361 1362 luottamusta 0
1362
1363 1364 luottamusta 0
1364
1365 1366 luottamusta 0
1366
1367 1368 luottamusta 0
1368
1369 1370 luottamusta 0
1370
1371 1372 luottamusta 0
1372
1373 1374 luottamusta 0
1374
1375 1376 luottamusta 0
1376
1377 1378 luottamusta 0
1378
1379 1380 luottamusta 0
1380
1381 1382 luottamusta 0
1382
1383 1384 luottamusta 0
1384
1385 1386 luottamusta 0
1386
1387 1388 luottamusta 0
1388
1389 1390 luottamusta 0
1390
1391 1392 luottamusta 0
1392
1393 1394 luottamusta 0
1394
1395 1396 luottamusta 0
1396
1397 1398 luottamusta 0
1398
1399 1400 luottamusta 0
1400
1401 1402 luottamusta 0
1402
1403 1404 luottamusta 0
1404
1405 1406 luottamusta 0
1406
1407 1408 luottamusta 0
1408
1409 1410 luottamusta 0
1410
1411 1412 luottamusta 0
1412
1413 1414 luottamusta 0
1414
1415 1416 luottamusta 0
1416
1417 1418 luottamusta 0
1418
1419 1420 luottamusta 0
1420
1421 1422 luottamusta 0
1422
1423 1424 luottamusta 0
1424
1425 1426 luottamusta 0
1426
1427 1428 luottamusta 0
1428
1429 1430 luottamusta 0
1430
1431 1432 luottamusta 0
1432
1433 1434 luottamusta 0
1434
1435 1436 , 0
1436 1451 jopa 0
1436 1445 kenties 0
1436 1437 ehkä 0
1437 1438 mahdotonta 0
1438 1527 luoda 0
1438 1439 uudelleenrakentaa 0
1438 1491 rakentaa 0
1438 1479 jälleenrakentaa 0
1438 1515 palauttaa 0
1439
1440 1441 , 0
1441 1454 jopa 0
1441 1448 kenties 0
1441 1442 ehkä 0
1442 1443 mahdotonta 0
1443 1529 luoda 0
1443 1444 uudelleenrakentaa 0
1443 1493 rakentaa 0
1443 1480 jälleenrakentaa 0
1443 1516 palauttaa 0
1444
1445 1446 mahdotonta 0
1446 1531 luoda 0
1446 1447 uudelleenrakentaa 0
1446 1495 rakentaa 0
1446 1481 jälleenrakentaa 0
1446 1517 palauttaa 0
1447
1448 1449 mahdotonta 0
1449 1533 luoda 0
1449 1450 uudelleenrakentaa 0
1449 1497 rakentaa 0
1449 1482 jälleenrakentaa 0
1449 1518 palauttaa 0
1450
1451 1452 mahdotonta 0
1452 1535 luoda 0
1452 1453 uudelleenrakentaa 0
1452 1499 rakentaa 0
1452 1483 jälleenrakentaa 0
1452 1519 palauttaa 0
1453
1454 1455 mahdotonta 0
1455 1537 luoda 0
1455 1456 uudelleenrakentaa 0
1455 1501 rakentaa 0
1455 1484 jälleenrakentaa 0
1455 1520 palauttaa 0
1456
1457 1458 , 0
1458 1473 jopa 0
1458 1467 kenties 0
1458 1459 ehkä 0
1459 1460 mahdotonta 0
1460 1539 luoda 0
1460 1461 uudelleenrakentaa 0
1460 1503 rakentaa 0
1460 1485 jälleenrakentaa 0
1460 1521 palauttaa 0
1461
1462 1463 , 0
1463 1476 jopa 0
1463 1470 kenties 0
1463 1464 ehkä 0
1464 1465 mahdotonta 0
1465 1541 luoda 0
1465 1466 uudelleenrakentaa 0
1465 1505 rakentaa 0
1465 1486 jälleenrakentaa 0
1465 1522 palauttaa 0
1466
1467 1468 mahdotonta 0
1468 1543 luoda 0
1468 1469 uudelleenrakentaa 0
1468 1507 rakentaa 0
1468 1487 jälleenrakentaa 0
1468 1523 palauttaa 0
1469
1470 1471 mahdotonta 0
1471 1545 luoda 0
1471 1472 uudelleenrakentaa 0
1471 1509 rakentaa 0
1471 1488 jälleenrakentaa 0
1471 1524 palauttaa 0
1472
1473 1474 mahdotonta 0
1474 1547 luoda 0
1474 1475 uudelleenrakentaa 0
1474 1511 rakentaa 0
1474 1489 jälleenrakentaa 0
1474 1525 palauttaa 0
1475
1476 1477 mahdotonta 0
1477 1549 luoda 0
1477 1478 uudelleenrakentaa 0
1477 1513 rakentaa 0
1477 1490 jälleenrakentaa 0
1477 1526 palauttaa 0
1478
1479
1480
1481
1482
1483
1484
1485
1486
1487
1488
1489
1490
1491 1492 uudelleen 0
1492
1493 1494 uudelleen 0
1494
1495 1496 uudelleen 0
1496
1497 1498 uudelleen 0
1498
1499 1500 uudelleen 0
1500
1501 1502 uudelleen 0
1502
1503 1504 uudelleen 0
1504
1505 1506 uudelleen 0
1506
1507 1508 uudelleen 0
1508
1509 1510 uudelleen 0
1510
1511 1512 uudelleen 0
1512
1513 1514 uudelleen 0
1514
1515
1516
1517
1518
1519
1520
1521
1522
1523
1524
1525
1526
1527 1528 uudelleen 0
1528
1529 1530 uudelleen 0
1530
1531 1532 uudelleen 0
1532
1533 1534 uudelleen 0
1534
1535 1536 uudelleen 0
1536
1537 1538 uudelleen 0
1538
1539 1540 uudelleen 0
1540
1541 1542 uudelleen 0
1542
1543 1544 uudelleen 0
1544
1545 1546 uudelleen 0
1546
1547 1548 uudelleen 0
1548
1549 1550 uudelleen 0
1550
1551 1552 luottamuksen 0
1552 1671 palauttaminen 0
1552 1553 uudelleenrakentaminen 0
1552 1709 luominen 0
1552 1631 rakentaminen 0
1552 1593 jälleenrakentaminen 0
1553 1554 tulee 0
1553 3286 on 0
1554 1555 olemaan 0
1555 1556 hankalaa 0
1555 1560 vaikeaa 0
1556 1557 , 0
1557 1568 jopa 0
1557 1564 kenties 0
1557 1558 ehkä 0
1558 1559 mahdotonta 0
1559
1560 1561 , 0
1561 1570 jopa 0
1561 1566 kenties 0
1561 1562 ehkä 0
1562 1563 mahdotonta 0
1563
1564 1565 mahdotonta 0
1565
1566 1567 mahdotonta 0
1567
1568 1569 mahdotonta 0
1569
1570 1571 mahdotonta 0
1571
1572 1573 luottamuksen 0
1573 1690 palauttaminen 0
1573 1574 uudelleenrakentaminen 0
1573 1729 luominen 0
1573 1651 rakentaminen 0
1573 1612 jälleenrakentaminen 0
1574 1575 tulee 0
1574 3303 on 0
1575 1576 olemaan 0
1576 1577 hankalaa 0
1576 1581 vaikeaa 0
1577 1578 , 0
1578 1589 jopa 0
1578 1585 kenties 0
1578 1579 ehkä 0
1579 1580 mahdotonta 0
1580
1581 1582 , 0
1582 1591 jopa 0
1582 1587 kenties 0
1582 1583 ehkä 0
1583 1584 mahdotonta 0
1584
1585 1586 mahdotonta 0
1586
1587 1588 mahdotonta 0
1588
1589 1590 mahdotonta 0
1590
1591 1592 mahdotonta 0
1592
1593 1594 tulee 0
1593 3320 on 0
1594 1595 olemaan 0
1595 1596 hankalaa 0
1595 1600 vaikeaa 0
1596 1597 , 0
1597 1608 jopa 0
1597 1604 kenties 0
1597 1598 ehkä 0
1598 1599 mahdotonta 0
1599
1600 1601 , 0
1601 1610 jopa 0
1601 1606 kenties 0
1601 1602 ehkä 0
1602 1603 mahdotonta 0
1603
1604 1605 mahdotonta 0
1605
1606 1607 mahdotonta 0
1607
1608 1609 mahdotonta 0
1609
1610 1611 mahdotonta 0
1611
1612 1613 tulee 0
1612 3337 on 0
1613 1614 olemaan 0
1614 1615 hankalaa 0
1614 1619 vaikeaa 0
1615 1616 , 0
1616 1627 jopa 0
1616 1623 kenties 0
1616 1617 ehkä 0
1617 1618 mahdotonta 0
1618
1619 1620 , 0
1620 1629 jopa 0
1620 1625 kenties 0
1620 1621 ehkä 0
1621 1622 mahdotonta 0
1622
1623 1624 mahdotonta 0
1624
1625 1626 mahdotonta 0
1626
1627 1628 mahdotonta 0
1628
1629 1630 mahdotonta 0
1630
1631 1632 uudelleen 0
1632 1633 tulee 0
1632 3354 on 0
1633 1634 olemaan 0
1634 1635 hankalaa 0
1634 1639 vaikeaa 0
1635 1636 , 0
1636 1647 jopa 0
1636 1643 kenties 0
1636 1637 ehkä 0
1637 1638 mahdotonta 0
1638
1639 1640 , 0
1640 1649 jopa 0
1640 1645 kenties 0
1640 1641 ehkä 0
1641 1642 mahdotonta 0
1642
1643 1644 mahdotonta 0
1644
1645 1646 mahdotonta 0
1646
1647 1648 mahdotonta 0
1648
1649 1650 mahdotonta 0
1650
1651 1652 uudelleen 0
1652 1653 tulee 0
1652 3371 on 0
1653 1654 olemaan 0
1654 1655 hankalaa 0
1654 1659 vaikeaa 0
1655 1656 , 0
1656 1667 jopa 0
1656 1663 kenties 0
1656 1657 ehkä 0
1657 1658 mahdotonta 0
1658
1659 1660 , 0
1660 1669 jopa 0
1660 1665 kenties 0
1660 1661 ehkä 0
1661 1662 mahdotonta 0
1662
1663 1664 mahdotonta 0
1664
1665 1666 mahdotonta 0
1666
1667 1668 mahdotonta 0
1668
1669 1670 mahdotonta 0
1670
1671 1672 tulee 0
1671 3388 on 0
1672 1673 olemaan 0
1673 1674 hankalaa 0
1673 1678 vaikeaa 0
1674 1675 , 0
1675 1686 jopa 0
1675 1682 kenties 0
1675 1676 ehkä 0
1676 1677 mahdotonta 0
1677
1678 1679 , 0
1679 1688 jopa 0
1679 1684 kenties 0
1679 1680 ehkä 0
1680 1681 mahdotonta 0
1681
1682 1683 mahdotonta 0
1683
1684 1685 mahdotonta 0
1685
1686 1687 mahdotonta 0
1687
1688 1689 mahdotonta 0
1689
1690 1691 tulee 0
1690 3405 on 0
1691 1692 olemaan 0
1692 1693 hankalaa 0
1692 1697 vaikeaa 0
1693 1694 , 0
1694 1705 jopa 0
1694 1701 kenties 0
1694 1695 ehkä 0
1695 1696 mahdotonta 0
1696
1697 1698 , 0
1698 1707 jopa 0
1698 1703 kenties 0
1698 1699 ehkä 0
1699 1700 mahdotonta 0
1700
1701 1702 mahdotonta 0
1702
1703 1704 mahdotonta 0
1704
1705 1706 mahdotonta 0
1706
1707 1708 mahdotonta 0
1708
1709 1710 uudelleen 0
1710 1711 tulee 0
1710 3422 on 0
1711 1712 olemaan 0
1712 1713 hankalaa 0
1712 1717 vaikeaa 0
1713 1714 , 0
1714 1725 jopa 0
1714 1721 kenties 0
1714 1715 ehkä 0
1715 1716 mahdotonta 0
1716
1717 1718 , 0
1718 1727 jopa 0
1718 1723 kenties 0
1718 1719 ehkä 0
1719 1720 mahdotonta 0
1720
1721 1722 mahdotonta 0
1722
1723 1724 mahdotonta 0
1724
1725 1726 mahdotonta 0
1726
1727 1728 mahdotonta 0
1728
1729 1730 uudelleen 0
1730 1731 tulee 0
1730 3439 on 0
1731 1732 olemaan 0
1732 1733 hankalaa 0
1732 1737 vaikeaa 0
1733 1734 , 0
1734 1745 jopa 0
1734 1741 kenties 0
1734 1735 ehkä 0
1735 1736 mahdotonta 0
1736
1737 1738 , 0
1738 1747 jopa 0
1738 1743 kenties 0
1738 1739 ehkä 0
1739 1740 mahdotonta 0
1740
1741 1742 mahdotonta 0
1742
1743 1744 mahdotonta 0
1744
1745 1746 mahdotonta 0
1746
1747 1748 mahdotonta 0
1748
1749 2524 hankalaa 0
1749 2529 vaikeaa 0
1749 1755 vaikea 0
1749 1750 hankala 0
1750 1751 , 0
1751 1766 jopa 0
1751 1760 kenties 0
1751 1752 ehkä 0
1752 1753 mahdoton 0
1753 1843 luoda 0
1753 1754 uudelleenrakentaa 0
1753 1807 rakentaa 0
1753 1795 jälleenrakentaa 0
1753 1831 palauttaa 0
1754
1755 1756 , 0
1756 1769 jopa 0
1756 1763 kenties 0
1756 1757 ehkä 0
1757 1758 mahdoton 0
1758 1845 luoda 0
1758 1759 uudelleenrakentaa 0
1758 1809 rakentaa 0
1758 1796 jälleenrakentaa 0
1758 1832 palauttaa 0
1759
1760 1761 mahdoton 0
1761 1847 luoda 0
1761 1762 uudelleenrakentaa 0
1761 1811 rakentaa 0
1761 1797 jälleenrakentaa 0
1761 1833 palauttaa 0
1762
1763 1764 mahdoton 0
1764 1849 luoda 0
1764 1765 uudelleenrakentaa 0
1764 1813 rakentaa 0
1764 1798 jälleenrakentaa 0
1764 1834 palauttaa 0
1765
1766 1767 mahdoton 0
1767 1851 luoda 0
1767 1768 uudelleenrakentaa 0
1767 1815 rakentaa 0
1767 1799 jälleenrakentaa 0
1767 1835 palauttaa 0
1768
1769 1770 mahdoton 0
1770 1853 luoda 0
1770 1771 uudelleenrakentaa 0
1770 1817 rakentaa 0
1770 1800 jälleenrakentaa 0
1770 1836 palauttaa 0
1771
1772 2546 hankalaa 0
1772 2551 vaikeaa 0
1772 1778 vaikea 0
1772 1773 hankala 0
1773 1774 , 0
1774 1789 jopa 0
1774 1783 kenties 0
1774 1775 ehkä 0
1775 1776 mahdoton 0
1776 1855 luoda 0
1776 1777 uudelleenrakentaa 0
1776 1819 rakentaa 0
1776 1801 jälleenrakentaa 0
1776 1837 palauttaa 0
1777
1778 1779 , 0
1779 1792 jopa 0
1779 1786 kenties 0
1779 1780 ehkä 0
1780 1781 mahdoton 0
1781 1857 luoda 0
1781 1782 uudelleenrakentaa 0
1781 1821 rakentaa 0
1781 1802 jälleenrakentaa 0
1781 1838 palauttaa 0
1782
1783 1784 mahdoton 0
1784 1859 luoda 0
1784 1785 uudelleenrakentaa 0
1784 1823 rakentaa 0
1784 1803 jälleenrakentaa 0
1784 1839 palauttaa 0
1785
1786 1787 mahdoton 0
1787 1861 luoda 0
1787 1788 uudelleenrakentaa 0
1787 1825 rakentaa 0
1787 1804 jälleenrakentaa 0
1787 1840 palauttaa 0
1788
1789 1790 mahdoton 0
1790 1863 luoda 0
1790 1791 uudelleenrakentaa 0
1790 1827 rakentaa 0
1790 1805 jälleenrakentaa 0
1790 1841 palauttaa 0
1791
1792 1793 mahdoton 0
1793 1865 luoda 0
1793 1794 uudelleenrakentaa 0
1793 1829 rakentaa 0
1793 1806 jälleenrakentaa 0
1793 1842 palauttaa 0
1794
1795
1796
1797
1798
1799
1800
1801
1802
1803
1804
1805
1806
1807 1808 uudelleen 0
1808
1809 1810 uudelleen 0
1810
1811 1812 uudelleen 0
1812
1813 1814 uudelleen 0
1814
1815 1816 uudelleen 0
1816
1817 1818 uudelleen 0
1818
1819 1820 uudelleen 0
1820
1821 1822 uudelleen 0
1822
1823 1824 uudelleen 0
1824
1825 1826 uudelleen 0
1826
1827 1828 uudelleen 0
1828
1829 1830 uudelleen 0
1830
1831
1832
1833
1834
1835
1836
1837
1838
1839
1840
1841
1842
1843 1844 uudelleen 0
1844
1845 1846 uudelleen 0
1846
1847 1848 uudelleen 0
1848
1849 1850 uudelleen 0
1850
1851 1852 uudelleen 0
1852
1853 1854 uudelleen 0
1854
1855 1856 uudelleen 0
1856
1857 1858 uudelleen 0
1858
1859 1860 uudelleen 0
1860
1861 1862 uudelleen 0
1862
1863 1864 uudelleen 0
1864
1865 1866 uudelleen 0
1866
1867 2640 hankalaa 0
1867 2046 aito 0
1867 2647 vaikeaa 0
1867 1868 hankala 0
1867 2070 todellinen 0
1867 2428 todellista 0
1867 2404 aitoa 0
1867 1875 vaikea 0
1868 1869 , 0
1869 1892 jopa 0
1869 1882 kenties 0
1869 1870 ehkä 0
1870 1871 mahdoton 0
1871 2010 luoda 0
1871 1872 uudelleenrakentaa 0
1871 1944 rakentaa 0
1871 1914 jälleenrakentaa 0
1871 1980 palauttaa 0
1872 1873 aito 0
1872 1902 todellinen 0
1872 2296 todellista 0
1872 2284 aitoa 0
1873 1874 luottamus 0
1874
1875 1876 , 0
1876 1897 jopa 0
1876 1887 kenties 0
1876 1877 ehkä 0
1877 1878 mahdoton 0
1878 2014 luoda 0
1878 1879 uudelleenrakentaa 0
1878 1948 rakentaa 0
1878 1917 jälleenrakentaa 0
1878 1983 palauttaa 0
1879 1880 aito 0
1879 1904 todellinen 0
1879 2298 todellista 0
1879 2286 aitoa 0
1880 1881 luottamus 0
1881
1882 1883 mahdoton 0
1883 2018 luoda 0
1883 1884 uudelleenrakentaa 0
1883 1952 rakentaa 0
1883 1920 jälleenrakentaa 0
1883 1986 palauttaa 0
1884 1885 aito 0
1884 1906 todellinen 0
1884 2300 todellista 0
1884 2288 aitoa 0
1885 1886 luottamus 0
1886
1887 1888 mahdoton 0
1888 2022 luoda 0
1888 1889 uudelleenrakentaa 0
1888 1956 rakentaa 0
1888 1923 jälleenrakentaa 0
1888 1989 palauttaa 0
1889 1890 aito 0
1889 1908 todellinen 0
1889 2302 todellista 0
1889 2290 aitoa 0
1890 1891 luottamus 0
1891
1892 1893 mahdoton 0
1893 2026 luoda 0
1893 1894 uudelleenrakentaa 0
1893 1960 rakentaa 0
1893 1926 jälleenrakentaa 0
1893 1992 palauttaa 0
1894 1895 aito 0
1894 1910 todellinen 0
1894 2304 todellista 0
1894 2292 aitoa 0
1895 1896 luottamus 0
1896
1897 1898 mahdoton 0
1898 2030 luoda 0
1898 1899 uudelleenrakentaa 0
1898 1964 rakentaa 0
1898 1929 jälleenrakentaa 0
1898 1995 palauttaa 0
1899 1900 aito 0
1899 1912 todellinen 0
1899 2306 todellista 0
1899 2294 aitoa 0
1900 1901 luottamus 0
1901
1902 1903 luottamus 0
1903
1904 1905 luottamus 0
1905
1906 1907 luottamus 0
1907
1908 1909 luottamus 0
1909
1910 1911 luottamus 0
1911
1912 1913 luottamus 0
1913
1914 1915 aito 0
1914 1932 todellinen 0
1914 2320 todellista 0
1914 2308 aitoa 0
1915 1916 luottamus 0
1916
1917 1918 aito 0
1917 1934 todellinen 0
1917 2322 todellista 0
1917 2310 aitoa 0
1918 1919 luottamus 0
1919
1920 1921 aito 0
1920 1936 todellinen 0
1920 2324 todellista 0
1920 2312 aitoa 0
1921 1922 luottamus 0
1922
1923 1924 aito 0
1923 1938 todellinen 0
1923 2326 todellista 0
1923 2314 aitoa 0
1924 1925 luottamus 0
1925
1926 1927 aito 0
1926 1940 todellinen 0
1926 2328 todellista 0
1926 2316 aitoa 0
1927 1928 luottamus 0
1928
1929 1930 aito 0
1929 1942 todellinen 0
1929 2330 todellista 0
1929 2318 aitoa 0
1930 1931 luottamus 0
1931
1932 1933 luottamus 0
1933
1934 1935 luottamus 0
1935
1936 1937 luottamus 0
1937
1938 1939 luottamus 0
1939
1940 1941 luottamus 0
1941
1942 1943 luottamus 0
1943
1944 1945 uudelleen 0
1945 1946 aito 0
1945 1968 todellinen 0
1945 2344 todellista 0
1945 2332 aitoa 0
1946 1947 luottamus 0
1947
1948 1949 uudelleen 0
1949 1950 aito 0
1949 1970 todellinen 0
1949 2346 todellista 0
1949 2334 aitoa 0
1950 1951 luottamus 0
1951
1952 1953 uudelleen 0
1953 1954 aito 0
1953 1972 todellinen 0
1953 2348 todellista 0
1953 2336 aitoa 0
1954 1955 luottamus 0
1955
1956 1957 uudelleen 0
1957 1958 aito 0
1957 1974 todellinen 0
1957 2350 todellista 0
1957 2338 aitoa 0
1958 1959 luottamus 0
1959
1960 1961 uudelleen 0
1961 1962 aito 0
1961 1976 todellinen 0
1961 2352 todellista 0
1961 2340 aitoa 0
1962 1963 luottamus 0
1963
1964 1965 uudelleen 0
1965 1966 aito 0
1965 1978 todellinen 0
1965 2354 todellista 0
1965 2342 aitoa 0
1966 1967 luottamus 0
1967
1968 1969 luottamus 0
1969
1970 1971 luottamus 0
1971
1972 1973 luottamus 0
1973
1974 1975 luottamus 0
1975
1976 1977 luottamus 0
1977
1978 1979 luottamus 0
1979
1980 1981 aito 0
1980 1998 todellinen 0
1980 2368 todellista 0
1980 2356 aitoa 0
1981 1982 luottamus 0
1982
1983 1984 aito 0
1983 2000 todellinen 0
1983 2370 todellista 0
1983 2358 aitoa 0
1984 1985 luottamus 0
1985
1986 1987 aito 0
1986 2002 todellinen 0
1986 2372 todellista 0
1986 2360 aitoa 0
1987 1988 luottamus 0
1988
1989 1990 aito 0
1989 2004 todellinen 0
1989 2374 todellista 0
1989 2362 aitoa 0
1990 1991 luottamus 0
1991
1992 1993 aito 0
1992 2006 todellinen 0
1992 2376 todellista 0
1992 2364 aitoa 0
1993 1994 luottamus 0
1994
1995 1996 aito 0
1995 2008 todellinen 0
1995 2378 todellista 0
1995 2366 aitoa 0
1996 1997 luottamus 0
1997
1998 1999 luottamus 0
1999
2000 2001 luottamus 0
2001
2002 2003 luottamus 0
2003
2004 2005 luottamus 0
2005
2006 2007 luottamus 0
2007
2008 2009 luottamus 0
2009
2010 2011 uudelleen 0
2011 2012 aito 0
2011 2034 todellinen 0
2011 2392 todellista 0
2011 2380 aitoa 0
2012 2013 luottamus 0
2013
2014 2015 uudelleen 0
2015 2016 aito 0
2015 2036 todellinen 0
2015 2394 todellista 0
2015 2382 aitoa 0
2016 2017 luottamus 0
2017
2018 2019 uudelleen 0
2019 2020 aito 0
2019 2038 todellinen 0
2019 2396 todellista 0
2019 2384 aitoa 0
2020 2021 luottamus 0
2021
2022 2023 uudelleen 0
2023 2024 aito 0
2023 2040 todellinen 0
2023 2398 todellista 0
2023 2386 aitoa 0
2024 2025 luottamus 0
2025
2026 2027 uudelleen 0
2027 2028 aito 0
2027 2042 todellinen 0
2027 2400 todellista 0
2027 2388 aitoa 0
2028 2029 luottamus 0
2029
2030 2031 uudelleen 0
2031 2032 aito 0
2031 2044 todellinen 0
2031 2402 todellista 0
2031 2390 aitoa 0
2032 2033 luottamus 0
2033
2034 2035 luottamus 0
2035
2036 2037 luottamus 0
2037
2038 2039 luottamus 0
2039
2040 2041 luottamus 0
2041
2042 2043 luottamus 0
2043
2044 2045 luottamus 0
2045
2046 2047 luottamus 0
2047 2818 hankalaa 0
2047 2823 vaikeaa 0
2047 2053 vaikea 0
2047 2048 hankala 0
2048 2049 , 0
2049 2064 jopa 0
2049 2058 kenties 0
2049 2050 ehkä 0
2050 2051 mahdoton 0
2051 2142 luoda 0
2051 2052 uudelleenrakentaa 0
2051 2106 rakentaa 0
2051 2094 jälleenrakentaa 0
2051 2130 palauttaa 0
2052
2053 2054 , 0
2054 2067 jopa 0
2054 2061 kenties 0
2054 2055 ehkä 0
2055 2056 mahdoton 0
2056 2144 luoda 0
2056 2057 uudelleenrakentaa 0
2056 2108 rakentaa 0
2056 2095 jälleenrakentaa 0
2056 2131 palauttaa 0
2057
2058 2059 mahdoton 0
2059 2146 luoda 0
2059 2060 uudelleenrakentaa 0
2059 2110 rakentaa 0
2059 2096 jälleenrakentaa 0
2059 2132 palauttaa 0
2060
2061 2062 mahdoton 0
2062 2148 luoda 0
2062 2063 uudelleenrakentaa 0
2062 2112 rakentaa 0
2062 2097 jälleenrakentaa 0
2062 2133 palauttaa 0
2063
2064 2065 mahdoton 0
2065 2150 luoda 0
2065 2066 uudelleenrakentaa 0
2065 2114 rakentaa 0
2065 2098 jälleenrakentaa 0
2065 2134 palauttaa 0
2066
2067 2068 mahdoton 0
2068 2152 luoda 0
2068 2069 uudelleenrakentaa 0
2068 2116 rakentaa 0
2068 2099 jälleenrakentaa 0
2068 2135 palauttaa 0
2069
2070 2071 luottamus 0
2071 2840 hankalaa 0
2071 2845 vaikeaa 0
2071 2077 vaikea 0
2071 2072 hankala 0
2072 2073 , 0
2073 2088 jopa 0
2073 2082 kenties 0
2073 2074 ehkä 0
2074 2075 mahdoton 0
2075 2154 luoda 0
2075 2076 uudelleenrakentaa 0
2075 2118 rakentaa 0
2075 2100 jälleenrakentaa 0
2075 2136 palauttaa 0
2076
2077 2078 , 0
2078 2091 jopa 0
2078 2085 kenties 0
2078 2079 ehkä 0
2079 2080 mahdoton 0
2080 2156 luoda 0
2080 2081 uudelleenrakentaa 0
2080 2120 rakentaa 0
2080 2101 jälleenrakentaa 0
2080 2137 palauttaa 0
2081
2082 2083 mahdoton 0
2083 2158 luoda 0
2083 2084 uudelleenrakentaa 0
2083 2122 rakentaa 0
2083 2102 jälleenrakentaa 0
2083 2138 palauttaa 0
2084
2085 2086 mahdoton 0
2086 2160 luoda 0
2086 2087 uudelleenrakentaa 0
2086 2124 rakentaa 0
2086 2103 jälleenrakentaa 0
2086 2139 palauttaa 0
2087
2088 2089 mahdoton 0
2089 2162 luoda 0
2089 2090 uudelleenrakentaa 0
2089 2126 rakentaa 0
2089 2104 jälleenrakentaa 0
2089 2140 palauttaa 0
2090
2091 2092 mahdoton 0
2092 2164 luoda 0
2092 2093 uudelleenrakentaa 0
2092 2128 rakentaa 0
2092 2105 jälleenrakentaa 0
2092 2141 palauttaa 0
2093
2094
2095
2096
2097
2098
2099
2100
2101
2102
2103
2104
2105
2106 2107 uudelleen 0
2107
2108 2109 uudelleen 0
2109
2110 2111 uudelleen 0
2111
2112 2113 uudelleen 0
2113
2114 2115 uudelleen 0
2115
2116 2117 uudelleen 0
2117
2118 2119 uudelleen 0
2119
2120 2121 uudelleen 0
2121
2122 2123 uudelleen 0
2123
2124 2125 uudelleen 0
2125
2126 2127 uudelleen 0
2127
2128 2129 uudelleen 0
2129
2130
2131
2132
2133
2134
2135
2136
2137
2138
2139
2140
2141
2142 2143 uudelleen 0
2143
2144 2145 uudelleen 0
2145
2146 2147 uudelleen 0
2147
2148 2149 uudelleen 0
2149
2150 2151 uudelleen 0
2151
2152 2153 uudelleen 0
2153
2154 2155 uudelleen 0
2155
2156 2157 uudelleen 0
2157
2158 2159 uudelleen 0
2159
2160 2161 uudelleen 0
2161
2162 2163 uudelleen 0
2163
2164 2165 uudelleen 0
2165
2166 2934 hankalaa 0
2166 2939 vaikeaa 0
2166 2172 vaikea 0
2166 2167 hankala 0
2167 2168 , 0
2168 2183 jopa 0
2168 2177 kenties 0
2168 2169 ehkä 0
2169 2170 mahdoton 0
2170 2260 luoda 0
2170 2171 uudelleenrakentaa 0
2170 2224 rakentaa 0
2170 2212 jälleenrakentaa 0
2170 2248 palauttaa 0
2171
2172 2173 , 0
2173 2186 jopa 0
2173 2180 kenties 0
2173 2174 ehkä 0
2174 2175 mahdoton 0
2175 2262 luoda 0
2175 2176 uudelleenrakentaa 0
2175 2226 rakentaa 0
2175 2213 jälleenrakentaa 0
2175 2249 palauttaa 0
2176
2177 2178 mahdoton 0
2178 2264 luoda 0
2178 2179 uudelleenrakentaa 0
2178 2228 rakentaa 0
2178 2214 jälleenrakentaa 0
2178 2250 palauttaa 0
2179
2180 2181 mahdoton 0
2181 2266 luoda 0
2181 2182 uudelleenrakentaa 0
2181 2230 rakentaa 0
2181 2215 jälleenrakentaa 0
2181 2251 palauttaa 0
2182
2183 2184 mahdoton 0
2184 2268 luoda 0
2184 2185 uudelleenrakentaa 0
2184 2232 rakentaa 0
2184 2216 jälleenrakentaa 0
2184 2252 palauttaa 0
2185
2186 2187 mahdoton 0
2187 2270 luoda 0
2187 2188 uudelleenrakentaa 0
2187 2234 rakentaa 0
2187 2217 jälleenrakentaa 0
2187 2253 palauttaa 0
2188
2189 2956 hankalaa 0
2189 2961 vaikeaa 0
2189 2195 vaikea 0
2189 2190 hankala 0
2190 2191 , 0
2191 2206 jopa 0
2191 2200 kenties 0
2191 2192 ehkä 0
2192 2193 mahdoton 0
2193 2272 luoda 0
2193 2194 uudelleenrakentaa 0
2193 2236 rakentaa 0
2193 2218 jälleenrakentaa 0
2193 2254 palauttaa 0
2194
2195 2196 , 0
2196 2209 jopa 0
2196 2203 kenties 0
2196 2197 ehkä 0
2197 2198 mahdoton 0
2198 2274 luoda 0
2198 2199 uudelleenrakentaa 0
2198 2238 rakentaa 0
2198 2219 jälleenrakentaa 0
2198 2255 palauttaa 0
2199
2200 2201 mahdoton 0
2201 2276 luoda 0
2201 2202 uudelleenrakentaa 0
2201 2240 rakentaa 0
2201 2220 jälleenrakentaa 0
2201 2256 palauttaa 0
2202
2203 2204 mahdoton 0
2204 2278 luoda 0
2204 2205 uudelleenrakentaa 0
2204 2242 rakentaa 0
2204 2221 jälleenrakentaa 0
2204 2257 palauttaa 0
2205
2206 2207 mahdoton 0
2207 2280 luoda 0
2207 2208 uudelleenrakentaa 0
2207 2244 rakentaa 0
2207 2222 jälleenrakentaa 0
2207 2258 palauttaa 0
2208
2209 2210 mahdoton 0
2210 2282 luoda 0
2210 2211 uudelleenrakentaa 0
2210 2246 rakentaa 0
2210 2223 jälleenrakentaa 0
2210 2259 palauttaa 0
2211
2212
2213
2214
2215
2216
2217
2218
2219
2220
2221
2222
2223
2224 2225 uudelleen 0
2225
2226 2227 uudelleen 0
2227
2228 2229 uudelleen 0
2229
2230 2231 uudelleen 0
2231
2232 2233 uudelleen 0
2233
2234 2235 uudelleen 0
2235
2236 2237 uudelleen 0
2237
2238 2239 uudelleen 0
2239
2240 2241 uudelleen 0
2241
2242 2243 uudelleen 0
2243
2244 2245 uudelleen 0
2245
2246 2247 uudelleen 0
2247
2248
2249
2250
2251
2252
2253
2254
2255
2256
2257
2258
2259
2260 2261 uudelleen 0
2261
2262 2263 uudelleen 0
2263
2264 2265 uudelleen 0
2265
2266 2267 uudelleen 0
2267
2268 2269 uudelleen 0
2269
2270 2271 uudelleen 0
2271
2272 2273 uudelleen 0
2273
2274 2275 uudelleen 0
2275
2276 2277 uudelleen 0
2277
2278 2279 uudelleen 0
2279
2280 2281 uudelleen 0
2281
2282 2283 uudelleen 0
2283
2284 2285 luottamusta 0
2285
2286 2287 luottamusta 0
2287
2288 2289 luottamusta 0
2289
2290 2291 luottamusta 0
2291
2292 2293 luottamusta 0
2293
2294 2295 luottamusta 0
2295
2296 2297 luottamusta 0
2297
2298 2299 luottamusta 0
2299
2300 2301 luottamusta 0
2301
2302 2303 luottamusta 0
2303
2304 2305 luottamusta 0
2305
2306 2307 luottamusta 0
2307
2308 2309 luottamusta 0
2309
2310 2311 luottamusta 0
2311
2312 2313 luottamusta 0
2313
2314 2315 luottamusta 0
2315
2316 2317 luottamusta 0
2317
2318 2319 luottamusta 0
2319
2320 2321 luottamusta 0
2321
2322 2323 luottamusta 0
2323
2324 2325 luottamusta 0
2325
2326 2327 luottamusta 0
2327
2328 2329 luottamusta 0
2329
2330 2331 luottamusta 0
2331
2332 2333 luottamusta 0
2333
2334 2335 luottamusta 0
2335
2336 2337 luottamusta 0
2337
2338 2339 luottamusta 0
2339
2340 2341 luottamusta 0
2341
2342 2343 luottamusta 0
2343
2344 2345 luottamusta 0
2345
2346 2347 luottamusta 0
2347
2348 2349 luottamusta 0
2349
2350 2351 luottamusta 0
2351
2352 2353 luottamusta 0
2353
2354 2355 luottamusta 0
2355
2356 2357 luottamusta 0
2357
2358 2359 luottamusta 0
2359
2360 2361 luottamusta 0
2361
2362 2363 luottamusta 0
2363
2364 2365 luottamusta 0
2365
2366 2367 luottamusta 0
2367
2368 2369 luottamusta 0
2369
2370 2371 luottamusta 0
2371
2372 2373 luottamusta 0
2373
2374 2375 luottamusta 0
2375
2376 2377 luottamusta 0
2377
2378 2379 luottamusta 0
2379
2380 2381 luottamusta 0
2381
2382 2383 luottamusta 0
2383
2384 2385 luottamusta 0
2385
2386 2387 luottamusta 0
2387
2388 2389 luottamusta 0
2389
2390 2391 luottamusta 0
2391
2392 2393 luottamusta 0
2393
2394 2395 luottamusta 0
2395
2396 2397 luottamusta 0
2397
2398 2399 luottamusta 0
2399
2400 2401 luottamusta 0
2401
2402 2403 luottamusta 0
2403
2404 2405 luottamusta 0
2405 3170 hankalaa 0
2405 3175 vaikeaa 0
2405 2411 vaikea 0
2405 2406 hankala 0
2406 2407 , 0
2407 2422 jopa 0
2407 2416 kenties 0
2407 2408 ehkä 0
2408 2409 mahdoton 0
2409 2500 luoda 0
2409 2410 uudelleenrakentaa 0
2409 2464 rakentaa 0
2409 2452 jälleenrakentaa 0
2409 2488 palauttaa 0
2410
2411 2412 , 0
2412 2425 jopa 0
2412 2419 kenties 0
2412 2413 ehkä 0
2413 2414 mahdoton 0
2414 2502 luoda 0
2414 2415 uudelleenrakentaa 0
2414 2466 rakentaa 0
2414 2453 jälleenrakentaa 0
2414 2489 palauttaa 0
2415
2416 2417 mahdoton 0
2417 2504 luoda 0
2417 2418 uudelleenrakentaa 0
2417 2468 rakentaa 0
2417 2454 jälleenrakentaa 0
2417 2490 palauttaa 0
2418
2419 2420 mahdoton 0
2420 2506 luoda 0
2420 2421 uudelleenrakentaa 0
2420 2470 rakentaa 0
2420 2455 jälleenrakentaa 0
2420 2491 palauttaa 0
2421
2422 2423 mahdoton 0
2423 2508 luoda 0
2423 2424 uudelleenrakentaa 0
2423 2472 rakentaa 0
2423 2456 jälleenrakentaa 0
2423 2492 palauttaa 0
2424
2425 2426 mahdoton 0
2426 2510 luoda 0
2426 2427 uudelleenrakentaa 0
2426 2474 rakentaa 0
2426 2457 jälleenrakentaa 0
2426 2493 palauttaa 0
2427
2428 2429 luottamusta 0
2429 3192 hankalaa 0
2429 3197 vaikeaa 0
2429 2435 vaikea 0
2429 2430 hankala 0
2430 2431 , 0
2431 2446 jopa 0
2431 2440 kenties 0
2431 2432 ehkä 0
2432 2433 mahdoton 0
2433 2512 luoda 0
2433 2434 uudelleenrakentaa 0
2433 2476 rakentaa 0
2433 2458 jälleenrakentaa 0
2433 2494 palauttaa 0
2434
2435 2436 , 0
2436 2449 jopa 0
2436 2443 kenties 0
2436 2437 ehkä 0
2437 2438 mahdoton 0
2438 2514 luoda 0
2438 2439 uudelleenrakentaa 0
2438 2478 rakentaa 0
2438 2459 jälleenrakentaa 0
2438 2495 palauttaa 0
2439
2440 2441 mahdoton 0
2441 2516 luoda 0
2441 2442 uudelleenrakentaa 0
2441 2480 rakentaa 0
2441 2460 jälleenrakentaa 0
2441 2496 palauttaa 0
2442
2443 2444 mahdoton 0
2444 2518 luoda 0
2444 2445 uudelleenrakentaa 0
2444 2482 rakentaa 0
2444 2461 jälleenrakentaa 0
2444 2497 palauttaa 0
2445
2446 2447 mahdoton 0
2447 2520 luoda 0
2447 2448 uudelleenrakentaa 0
2447 2484 rakentaa 0
2447 2462 jälleenrakentaa 0
2447 2498 palauttaa 0
2448
2449 2450 mahdoton 0
2450 2522 luoda 0
2450 2451 uudelleenrakentaa 0
2450 2486 rakentaa 0
2450 2463 jälleenrakentaa 0
2450 2499 palauttaa 0
2451
2452
2453
2454
2455
2456
2457
2458
2459
2460
2461
2462
2463
2464 2465 uudelleen 0
2465
2466 2467 uudelleen 0
2467
2468 2469 uudelleen 0
2469
2470 2471 uudelleen 0
2471
2472 2473 uudelleen 0
2473
2474 2475 uudelleen 0
2475
2476 2477 uudelleen 0
2477
2478 2479 uudelleen 0
2479
2480 2481 uudelleen 0
2481
2482 2483 uudelleen 0
2483
2484 2485 uudelleen 0
2485
2486 2487 uudelleen 0
2487
2488
2489
2490
2491
2492
2493
2494
2495
2496
2497
2498
2499
2500 2501 uudelleen 0
2501
2502 2503 uudelleen 0
2503
2504 2505 uudelleen 0
2505
2506 2507 uudelleen 0
2507
2508 2509 uudelleen 0
2509
2510 2511 uudelleen 0
2511
2512 2513 uudelleen 0
2513
2514 2515 uudelleen 0
2515
2516 2517 uudelleen 0
2517
2518 2519 uudelleen 0
2519
2520 2521 uudelleen 0
2521
2522 2523 uudelleen 0
2523
2524 2525 , 0
2525 2540 jopa 0
2525 2534 kenties 0
2525 2526 ehkä 0
2526 2527 mahdotonta 0
2527 2616 luoda 0
2527 2528 uudelleenrakentaa 0
2527 2580 rakentaa 0
2527 2568 jälleenrakentaa 0
2527 2604 palauttaa 0
2528
2529 2530 , 0
2530 2543 jopa 0
2530 2537 kenties 0
2530 2531 ehkä 0
2531 2532 mahdotonta 0
2532 2618 luoda 0
2532 2533 uudelleenrakentaa 0
2532 2582 rakentaa 0
2532 2569 jälleenrakentaa 0
2532 2605 palauttaa 0
2533
2534 2535 mahdotonta 0
2535 2620 luoda 0
2535 2536 uudelleenrakentaa 0
2535 2584 rakentaa 0
2535 2570 jälleenrakentaa 0
2535 2606 palauttaa 0
2536
2537 2538 mahdotonta 0
2538 2622 luoda 0
2538 2539 uudelleenrakentaa 0
2538 2586 rakentaa 0
2538 2571 jälleenrakentaa 0
2538 2607 palauttaa 0
2539
2540 2541 mahdotonta 0
2541 2624 luoda 0
2541 2542 uudelleenrakentaa 0
2541 2588 rakentaa 0
2541 2572 jälleenrakentaa 0
2541 2608 palauttaa 0
2542
2543 2544 mahdotonta 0
2544 2626 luoda 0
2544 2545 uudelleenrakentaa 0
2544 2590 rakentaa 0
2544 2573 jälleenrakentaa 0
2544 2609 palauttaa 0
2545
2546 2547 , 0
2547 2562 jopa 0
2547 2556 kenties 0
2547 2548 ehkä 0
2548 2549 mahdotonta 0
2549 2628 luoda 0
2549 2550 uudelleenrakentaa 0
2549 2592 rakentaa 0
2549 2574 jälleenrakentaa 0
2549 2610 palauttaa 0
2550
2551 2552 , 0
2552 2565 jopa 0
2552 2559 kenties 0
2552 2553 ehkä 0
2553 2554 mahdotonta 0
2554 2630 luoda 0
2554 2555 uudelleenrakentaa 0
2554 2594 rakentaa 0
2554 2575 jälleenrakentaa 0
2554 2611 palauttaa 0
2555
2556 2557 mahdotonta 0
2557 2632 luoda 0
2557 2558 uudelleenrakentaa 0
2557 2596 rakentaa 0
2557 2576 jälleenrakentaa 0
2557 2612 palauttaa 0
2558
2559 2560 mahdotonta 0
2560 2634 luoda 0
2560 2561 uudelleenrakentaa 0
2560 2598 rakentaa 0
2560 2577 jälleenrakentaa 0
2560 2613 palauttaa 0
2561
2562 2563 mahdotonta 0
2563 2636 luoda 0
2563 2564 uudelleenrakentaa 0
2563 2600 rakentaa 0
2563 2578 jälleenrakentaa 0
2563 2614 palauttaa 0
2564
2565 2566 mahdotonta 0
2566 2638 luoda 0
2566 2567 uudelleenrakentaa 0
2566 2602 rakentaa 0
2566 2579 jälleenrakentaa 0
2566 2615 palauttaa 0
2567
2568
2569
2570
2571
2572
2573
2574
2575
2576
2577
2578
2579
2580 2581 uudelleen 0
2581
2582 2583 uudelleen 0
2583
2584 2585 uudelleen 0
2585
2586 2587 uudelleen 0
2587
2588 2589 uudelleen 0
2589
2590 2591 uudelleen 0
2591
2592 2593 uudelleen 0
2593
2594 2595 uudelleen 0
2595
2596 2597 uudelleen 0
2597
2598 2599 uudelleen 0
2599
2600 2601 uudelleen 0
2601
2602 2603 uudelleen 0
2603
2604
2605
2606
2607
2608
2609
2610
2611
2612
2613
2614
2615
2616 2617 uudelleen 0
2617
2618 2619 uudelleen 0
2619
2620 2621 uudelleen 0
2621
2622 2623 uudelleen 0
2623
2624 2625 uudelleen 0
2625
2626 2627 uudelleen 0
2627
2628 2629 uudelleen 0
2629
2630 2631 uudelleen 0
2631
2632 2633 uudelleen 0
2633
2634 2635 uudelleen 0
2635
2636 2637 uudelleen 0
2637
2638 2639 uudelleen 0
2639
2640 2641 , 0
2641 2664 jopa 0
2641 2654 kenties 0
2641 2642 ehkä 0
2642 2643 mahdotonta 0
2643 2782 luoda 0
2643 2644 uudelleenrakentaa 0
2643 2716 rakentaa 0
2643 2686 jälleenrakentaa 0
2643 2752 palauttaa 0
2644 2645 aito 0
2644 2674 todellinen 0
2644 3062 todellista 0
2644 3050 aitoa 0
2645 2646 luottamus 0
2646
2647 2648 , 0
2648 2669 jopa 0
2648 2659 kenties 0
2648 2649 ehkä 0
2649 2650 mahdotonta 0
2650 2786 luoda 0
2650 2651 uudelleenrakentaa 0
2650 2720 rakentaa 0
2650 2689 jälleenrakentaa 0
2650 2755 palauttaa 0
2651 2652 aito 0
2651 2676 todellinen 0
2651 3064 todellista 0
2651 3052 aitoa 0
2652 2653 luottamus 0
2653
2654 2655 mahdotonta 0
2655 2790 luoda 0
2655 2656 uudelleenrakentaa 0
2655 2724 rakentaa 0
2655 2692 jälleenrakentaa 0
2655 2758 palauttaa 0
2656 2657 aito 0
2656 2678 todellinen 0
2656 3066 todellista 0
2656 3054 aitoa 0
2657 2658 luottamus 0
2658
2659 2660 mahdotonta 0
2660 2794 luoda 0
2660 2661 uudelleenrakentaa 0
2660 2728 rakentaa 0
2660 2695 jälleenrakentaa 0
2660 2761 palauttaa 0
2661 2662 aito 0
2661 2680 todellinen 0
2661 3068 todellista 0
2661 3056 aitoa 0
2662 2663 luottamus 0
2663
2664 2665 mahdotonta 0
2665 2798 luoda 0
2665 2666 uudelleenrakentaa 0
2665 2732 rakentaa 0
2665 2698 jälleenrakentaa 0
2665 2764 palauttaa 0
2666 2667 aito 0
2666 2682 todellinen 0
2666 3070 todellista 0
2666 3058 aitoa 0
2667 2668 luottamus 0
2668
2669 2670 mahdotonta 0
2670 2802 luoda 0
2670 2671 uudelleenrakentaa 0
2670 2736 rakentaa 0
2670 2701 jälleenrakentaa 0
2670 2767 palauttaa 0
2671 2672 aito 0
2671 2684 todellinen 0
2671 3072 todellista 0
2671 3060 aitoa 0
2672 2673 luottamus 0
2673
2674 2675 luottamus 0
2675
2676 2677 luottamus 0
2677
2678 2679 luottamus 0
2679
2680 2681 luottamus 0
2681
2682 2683 luottamus 0
2683
2684 2685 luottamus 0
2685
2686 2687 aito 0
2686 2704 todellinen 0
2686 3086 todellista 0
2686 3074 aitoa 0
2687 2688 luottamus 0
2688
2689 2690 aito 0
2689 2706 todellinen 0
2689 3088 todellista 0
2689 3076 aitoa 0
2690 2691 luottamus 0
2691
2692 2693 aito 0
2692 2708 todellinen 0
2692 3090 todellista 0
2692 3078 aitoa 0
2693 2694 luottamus 0
2694
2695 2696 aito 0
2695 2710 todellinen 0
2695 3092 todellista 0
2695 3080 aitoa 0
2696 2697 luottamus 0
2697
2698 2699 aito 0
2698 2712 todellinen 0
2698 3094 todellista 0
2698 3082 aitoa 0
2699 2700 luottamus 0
2700
2701 2702 aito 0
2701 2714 todellinen 0
2701 3096 todellista 0
2701 3084 aitoa 0
2702 2703 luottamus 0
2703
2704 2705 luottamus 0
2705
2706 2707 luottamus 0
2707
2708 2709 luottamus 0
2709
2710 2711 luottamus 0
2711
2712 2713 luottamus 0
2713
2714 2715 luottamus 0
2715
2716 2717 uudelleen 0
2717 2718 aito 0
2717 2740 todellinen 0
2717 3110 todellista 0
2717 3098 aitoa 0
2718 2719 luottamus 0
2719
2720 2721 uudelleen 0
2721 2722 aito 0
2721 2742 todellinen 0
2721 3112 todellista 0
2721 3100 aitoa 0
2722 2723 luottamus 0
2723
2724 2725 uudelleen 0
2725 2726 aito 0
2725 2744 todellinen 0
2725 3114 todellista 0
2725 3102 aitoa 0
2726 2727 luottamus 0
2727
2728 2729 uudelleen 0
2729 2730 aito 0
2729 2746 todellinen 0
2729 3116 todellista 0
2729 3104 aitoa 0
2730 2731 luottamus 0
2731
2732 2733 uudelleen 0
2733 2734 aito 0
2733 2748 todellinen 0
2733 3118 todellista 0
2733 3106 aitoa 0
2734 2735 luottamus 0
2735
2736 2737 uudelleen 0
2737 2738 aito 0
2737 2750 todellinen 0
2737 3120 todellista 0
2737 3108 aitoa 0
2738 2739 luottamus 0
2739
2740 2741 luottamus 0
2741
2742 2743 luottamus 0
2743
2744 2745 luottamus 0
2745
2746 2747 luottamus 0
2747
2748 2749 luottamus 0
2749
2750 2751 luottamus 0
2751
2752 2753 aito 0
2752 2770 todellinen 0
2752 3134 todellista 0
2752 3122 aitoa 0
2753 2754 luottamus 0
2754
2755 2756 aito 0
2755 2772 todellinen 0
2755 3136 todellista 0
2755 3124 aitoa 0
2756 2757 luottamus 0
2757
2758 2759 aito 0
2758 2774 todellinen 0
2758 3138 todellista 0
2758 3126 aitoa 0
2759 2760 luottamus 0
2760
2761 2762 aito 0
2761 2776 todellinen 0
2761 3140 todellista 0
2761 3128 aitoa 0
2762 2763 luottamus 0
2763
2764 2765 aito 0
2764 2778 todellinen 0
2764 3142 todellista 0
2764 3130 aitoa 0
2765 2766 luottamus 0
2766
2767 2768 aito 0
2767 2780 todellinen 0
2767 3144 todellista 0
2767 3132 aitoa 0
2768 2769 luottamus 0
2769
2770 2771 luottamus 0
2771
2772 2773 luottamus 0
2773
2774 2775 luottamus 0
2775
2776 2777 luottamus 0
2777
2778 2779 luottamus 0
2779
2780 2781 luottamus 0
2781
2782 2783 uudelleen 0
2783 2784 aito 0
2783 2806 todellinen 0
2783 3158 todellista 0
2783 3146 aitoa 0
2784 2785 luottamus 0
2785
2786 2787 uudelleen 0
2787 2788 aito 0
2787 2808 todellinen 0
2787 3160 todellista 0
2787 3148 aitoa 0
2788 2789 luottamus 0
2789
2790 2791 uudelleen 0
2791 2792 aito 0
2791 2810 todellinen 0
2791 3162 todellista 0
2791 3150 aitoa 0
2792 2793 luottamus 0
2793
2794 2795 uudelleen 0
2795 2796 aito 0
2795 2812 todellinen 0
2795 3164 todellista 0
2795 3152 aitoa 0
2796 2797 luottamus 0
2797
2798 2799 uudelleen 0
2799 2800 aito 0
2799 2814 todellinen 0
2799 3166 todellista 0
2799 3154 aitoa 0
2800 2801 luottamus 0
2801
2802 2803 uudelleen 0
2803 2804 aito 0
2803 2816 todellinen 0
2803 3168 todellista 0
2803 3156 aitoa 0
2804 2805 luottamus 0
2805
2806 2807 luottamus 0
2807
2808 2809 luottamus 0
2809
2810 2811 luottamus 0
2811
2812 2813 luottamus 0
2813
2814 2815 luottamus 0
2815
2816 2817 luottamus 0
2817
2818 2819 , 0
2819 2834 jopa 0
2819 2828 kenties 0
2819 2820 ehkä 0
2820 2821 mahdotonta 0
2821 2910 luoda 0
2821 2822 uudelleenrakentaa 0
2821 2874 rakentaa 0
2821 2862 jälleenrakentaa 0
2821 2898 palauttaa 0
2822
2823 2824 , 0
2824 2837 jopa 0
2824 2831 kenties 0
2824 2825 ehkä 0
2825 2826 mahdotonta 0
2826 2912 luoda 0
2826 2827 uudelleenrakentaa 0
2826 2876 rakentaa 0
2826 2863 jälleenrakentaa 0
2826 2899 palauttaa 0
2827
2828 2829 mahdotonta 0
2829 2914 luoda 0
2829 2830 uudelleenrakentaa 0
2829 2878 rakentaa 0
2829 2864 jälleenrakentaa 0
2829 2900 palauttaa 0
2830
2831 2832 mahdotonta 0
2832 2916 luoda 0
2832 2833 uudelleenrakentaa 0
2832 2880 rakentaa 0
2832 2865 jälleenrakentaa 0
2832 2901 palauttaa 0
2833
2834 2835 mahdotonta 0
2835 2918 luoda 0
2835 2836 uudelleenrakentaa 0
2835 2882 rakentaa 0
2835 2866 jälleenrakentaa 0
2835 2902 palauttaa 0
2836
2837 2838 mahdotonta 0
2838 2920 luoda 0
2838 2839 uudelleenrakentaa 0
2838 2884 rakentaa 0
2838 2867 jälleenrakentaa 0
2838 2903 palauttaa 0
2839
2840 2841 , 0
2841 2856 jopa 0
2841 2850 kenties 0
2841 2842 ehkä 0
2842 2843 mahdotonta 0
2843 2922 luoda 0
2843 2844 uudelleenrakentaa 0
2843 2886 rakentaa 0
2843 2868 jälleenrakentaa 0
2843 2904 palauttaa 0
2844
2845 2846 , 0
2846 2859 jopa 0
2846 2853 kenties 0
2846 2847 ehkä 0
2847 2848 mahdotonta 0
2848 2924 luoda 0
2848 2849 uudelleenrakentaa 0
2848 2888 rakentaa 0
2848 2869 jälleenrakentaa 0
2848 2905 palauttaa 0
2849
2850 2851 mahdotonta 0
2851 2926 luoda 0
2851 2852 uudelleenrakentaa 0
2851 2890 rakentaa 0
2851 2870 jälleenrakentaa 0
2851 2906 palauttaa 0
2852
2853 2854 mahdotonta 0
2854 2928 luoda 0
2854 2855 uudelleenrakentaa 0
2854 2892 rakentaa 0
2854 2871 jälleenrakentaa 0
2854 2907 palauttaa 0
2855
2856 2857 mahdotonta 0
2857 2930 luoda 0
2857 2858 uudelleenrakentaa 0
2857 2894 rakentaa 0
2857 2872 jälleenrakentaa 0
2857 2908 palauttaa 0
2858
2859 2860 mahdotonta 0
2860 2932 luoda 0
2860 2861 uudelleenrakentaa 0
2860 2896 rakentaa 0
2860 2873 jälleenrakentaa 0
2860 2909 palauttaa 0
2861
2862
2863
2864
2865
2866
2867
2868
2869
2870
2871
2872
2873
2874 2875 uudelleen 0
2875
2876 2877 uudelleen 0
2877
2878 2879 uudelleen 0
2879
2880 2881 uudelleen 0
2881
2882 2883 uudelleen 0
2883
2884 2885 uudelleen 0
2885
2886 2887 uudelleen 0
2887
2888 2889 uudelleen 0
2889
2890 2891 uudelleen 0
2891
2892 2893 uudelleen 0
2893
2894 2895 uudelleen 0
2895
2896 2897 uudelleen 0
2897
2898
2899
2900
2901
2902
2903
2904
2905
2906
2907
2908
2909
2910 2911 uudelleen 0
2911
2912 2913 uudelleen 0
2913
2914 2915 uudelleen 0
2915
2916 2917 uudelleen 0
2917
2918 2919 uudelleen 0
2919
2920 2921 uudelleen 0
2921
2922 2923 uudelleen 0
2923
2924 2925 uudelleen 0
2925
2926 2927 uudelleen 0
2927
2928 2929 uudelleen 0
2929
2930 2931 uudelleen 0
2931
2932 2933 uudelleen 0
2933
2934 2935 , 0
2935 2950 jopa 0
2935 2944 kenties 0
2935 2936 ehkä 0
2936 2937 mahdotonta 0
2937 3026 luoda 0
2937 2938 uudelleenrakentaa 0
2937 2990 rakentaa 0
2937 2978 jälleenrakentaa 0
2937 3014 palauttaa 0
2938
2939 2940 , 0
2940 2953 jopa 0
2940 2947 kenties 0
2940 2941 ehkä 0
2941 2942 mahdotonta 0
2942 3028 luoda 0
2942 2943 uudelleenrakentaa 0
2942 2992 rakentaa 0
2942 2979 jälleenrakentaa 0
2942 3015 palauttaa 0
2943
2944 2945 mahdotonta 0
2945 3030 luoda 0
2945 2946 uudelleenrakentaa 0
2945 2994 rakentaa 0
2945 2980 jälleenrakentaa 0
2945 3016 palauttaa 0
2946
2947 2948 mahdotonta 0
2948 3032 luoda 0
2948 2949 uudelleenrakentaa 0
2948 2996 rakentaa 0
2948 2981 jälleenrakentaa 0
2948 3017 palauttaa 0
2949
2950 2951 mahdotonta 0
2951 3034 luoda 0
2951 2952 uudelleenrakentaa 0
2951 2998 rakentaa 0
2951 2982 jälleenrakentaa 0
2951 3018 palauttaa 0
2952
2953 2954 mahdotonta 0
2954 3036 luoda 0
2954 2955 uudelleenrakentaa 0
2954 3000 rakentaa 0
2954 2983 jälleenrakentaa 0
2954 3019 palauttaa 0
2955
2956 2957 , 0
2957 2972 jopa 0
2957 2966 kenties 0
2957 2958 ehkä 0
2958 2959 mahdotonta 0
2959 3038 luoda 0
2959 2960 uudelleenrakentaa 0
2959 3002 rakentaa 0
2959 2984 jälleenrakentaa 0
2959 3020 palauttaa 0
2960
2961 2962 , 0
2962 2975 jopa 0
2962 2969 kenties 0
2962 2963 ehkä 0
2963 2964 mahdotonta 0
2964 3040 luoda 0
2964 2965 uudelleenrakentaa 0
2964 3004 rakentaa 0
2964 2985 jälleenrakentaa 0
2964 3021 palauttaa 0
2965
2966 2967 mahdotonta 0
2967 3042 luoda 0
2967 2968 uudelleenrakentaa 0
2967 3006 rakentaa 0
2967 2986 jälleenrakentaa 0
2967 3022 palauttaa 0
2968
2969 2970 mahdotonta 0
2970 3044 luoda 0
2970 2971 uudelleenrakentaa 0
2970 3008 rakentaa 0
2970 2987 jälleenrakentaa 0
2970 3023 palauttaa 0
2971
2972 2973 mahdotonta 0
2973 3046 luoda 0
2973 2974 uudelleenrakentaa 0
2973 3010 rakentaa 0
2973 2988 jälleenrakentaa 0
2973 3024 palauttaa 0
2974
2975 2976 mahdotonta 0
2976 3048 luoda 0
2976 2977 uudelleenrakentaa 0
2976 3012 rakentaa 0
2976 2989 jälleenrakentaa 0
2976 3025 palauttaa 0
2977
2978
2979
2980
2981
2982
2983
2984
2985
2986
2987
2988
2989
2990 2991 uudelleen 0
2991
2992 2993 uudelleen 0
2993
2994 2995 uudelleen 0
2995
2996 2997 uudelleen 0
2997
2998 2999 uudelleen 0
2999
3000 3001 uudelleen 0
3001
3002 3003 uudelleen 0
3003
3004 3005 uudelleen 0
3005
3006 3007 uudelleen 0
3007
3008 3009 uudelleen 0
3009
3010 3011 uudelleen 0
3011
3012 3013 uudelleen 0
3013
3014
3015
3016
3017
3018
3019
3020
3021
3022
3023
3024
3025
3026 3027 uudelleen 0
3027
3028 3029 uudelleen 0
3029
3030 3031 uudelleen 0
3031
3032 3033 uudelleen 0
3033
3034 3035 uudelleen 0
3035
3036 3037 uudelleen 0
3037
3038 3039 uudelleen 0
3039
3040 3041 uudelleen 0
3041
3042 3043 uudelleen 0
3043
3044 3045 uudelleen 0
3045
3046 3047 uudelleen 0
3047
3048 3049 uudelleen 0
3049
3050 3051 luottamusta 0
3051
3052 3053 luottamusta 0
3053
3054 3055 luottamusta 0
3055
3056 3057 luottamusta 0
3057
3058 3059 luottamusta 0
3059
3060 3061 luottamusta 0
3061
3062 3063 luottamusta 0
3063
3064 3065 luottamusta 0
3065
3066 3067 luottamusta 0
3067
3068 3069 luottamusta 0
3069
3070 3071 luottamusta 0
3071
3072 3073 luottamusta 0
3073
3074 3075 luottamusta 0
3075
3076 3077 luottamusta 0
3077
3078 3079 luottamusta 0
3079
3080 3081 luottamusta 0
3081
3082 3083 luottamusta 0
3083
3084 3085 luottamusta 0
3085
3086 3087 luottamusta 0
3087
3088 3089 luottamusta 0
3089
3090 3091 luottamusta 0
3091
3092 3093 luottamusta 0
3093
3094 3095 luottamusta 0
3095
3096 3097 luottamusta 0
3097
3098 3099 luottamusta 0
3099
3100 3101 luottamusta 0
3101
3102 3103 luottamusta 0
3103
3104 3105 luottamusta 0
3105
3106 3107 luottamusta 0
3107
3108 3109 luottamusta 0
3109
3110 3111 luottamusta 0
3111
3112 3113 luottamusta 0
3113
3114 3115 luottamusta 0
3115
3116 3117 luottamusta 0
3117
3118 3119 luottamusta 0
3119
3120 3121 luottamusta 0
3121
3122 3123 luottamusta 0
3123
3124 3125 luottamusta 0
3125
3126 3127 luottamusta 0
3127
3128 3129 luottamusta 0
3129
3130 3131 luottamusta 0
3131
3132 3133 luottamusta 0
3133
3134 3135 luottamusta 0
3135
3136 3137 luottamusta 0
3137
3138 3139 luottamusta 0
3139
3140 3141 luottamusta 0
3141
3142 3143 luottamusta 0
3143
3144 3145 luottamusta 0
3145
3146 3147 luottamusta 0
3147
3148 3149 luottamusta 0
3149
3150 3151 luottamusta 0
3151
3152 3153 luottamusta 0
3153
3154 3155 luottamusta 0
3155
3156 3157 luottamusta 0
3157
3158 3159 luottamusta 0
3159
3160 3161 luottamusta 0
3161
3162 3163 luottamusta 0
3163
3164 3165 luottamusta 0
3165
3166 3167 luottamusta 0
3167
3168 3169 luottamusta 0
3169
3170 3171 , 0
3171 3186 jopa 0
3171 3180 kenties 0
3171 3172 ehkä 0
3172 3173 mahdotonta 0
3173 3262 luoda 0
3173 3174 uudelleenrakentaa 0
3173 3226 rakentaa 0
3173 3214 jälleenrakentaa 0
3173 3250 palauttaa 0
3174
3175 3176 , 0
3176 3189 jopa 0
3176 3183 kenties 0
3176 3177 ehkä 0
3177 3178 mahdotonta 0
3178 3264 luoda 0
3178 3179 uudelleenrakentaa 0
3178 3228 rakentaa 0
3178 3215 jälleenrakentaa 0
3178 3251 palauttaa 0
3179
3180 3181 mahdotonta 0
3181 3266 luoda 0
3181 3182 uudelleenrakentaa 0
3181 3230 rakentaa 0
3181 3216 jälleenrakentaa 0
3181 3252 palauttaa 0
3182
3183 3184 mahdotonta 0
3184 3268 luoda 0
3184 3185 uudelleenrakentaa 0
3184 3232 rakentaa 0
3184 3217 jälleenrakentaa 0
3184 3253 palauttaa 0
3185
3186 3187 mahdotonta 0
3187 3270 luoda 0
3187 3188 uudelleenrakentaa 0
3187 3234 rakentaa 0
3187 3218 jälleenrakentaa 0
3187 3254 palauttaa 0
3188
3189 3190 mahdotonta 0
3190 3272 luoda 0
3190 3191 uudelleenrakentaa 0
3190 3236 rakentaa 0
3190 3219 jälleenrakentaa 0
3190 3255 palauttaa 0
3191
3192 3193 , 0
3193 3208 jopa 0
3193 3202 kenties 0
3193 3194 ehkä 0
3194 3195 mahdotonta 0
3195 3274 luoda 0
3195 3196 uudelleenrakentaa 0
3195 3238 rakentaa 0
3195 3220 jälleenrakentaa 0
3195 3256 palauttaa 0
3196
3197 3198 , 0
3198 3211 jopa 0
3198 3205 kenties 0
3198 3199 ehkä 0
3199 3200 mahdotonta 0
3200 3276 luoda 0
3200 3201 uudelleenrakentaa 0
3200 3240 rakentaa 0
3200 3221 jälleenrakentaa 0
3200 3257 palauttaa 0
3201
3202 3203 mahdotonta 0
3203 3278 luoda 0
3203 3204 uudelleenrakentaa 0
3203 3242 rakentaa 0
3203 3222 jälleenrakentaa 0
3203 3258 palauttaa 0
3204
3205 3206 mahdotonta 0
3206 3280 luoda 0
3206 3207 uudelleenrakentaa 0
3206 3244 rakentaa 0
3206 3223 jälleenrakentaa 0
3206 3259 palauttaa 0
3207
3208 3209 mahdotonta 0
3209 3282 luoda 0
3209 3210 uudelleenrakentaa 0
3209 3246 rakentaa 0
3209 3224 jälleenrakentaa 0
3209 3260 palauttaa 0
3210
3211 3212 mahdotonta 0
3212 3284 luoda 0
3212 3213 uudelleenrakentaa 0
3212 3248 rakentaa 0
3212 3225 jälleenrakentaa 0
3212 3261 palauttaa 0
3213
3214
3215
3216
3217
3218
3219
3220
3221
3222
3223
3224
3225
3226 3227 uudelleen 0
3227
3228 3229 uudelleen 0
3229
3230 3231 uudelleen 0
3231
3232 3233 uudelleen 0
3233
3234 3235 uudelleen 0
3235
3236 3237 uudelleen 0
3237
3238 3239 uudelleen 0
3239
3240 3241 uudelleen 0
3241
3242 3243 uudelleen 0
3243
3244 3245 uudelleen 0
3245
3246 3247 uudelleen 0
3247
3248 3249 uudelleen 0
3249
3250
3251
3252
3253
3254
3255
3256
3257
3258
3259
3260
3261
3262 3263 uudelleen 0
3263
3264 3265 uudelleen 0
3265
3266 3267 uudelleen 0
3267
3268 3269 uudelleen 0
3269
3270 3271 uudelleen 0
3271
3272 3273 uudelleen 0
3273
3274 3275 uudelleen 0
3275
3276 3277 uudelleen 0
3277
3278 3279 uudelleen 0
3279
3280 3281 uudelleen 0
3281
3282 3283 uudelleen 0
3283
3284 3285 uudelleen 0
3285
3286 3287 hankalaa 0
3286 3291 vaikeaa 0
3287 3288 , 0
3288 3299 jopa 0
3288 3295 kenties 0
3288 3289 ehkä 0
3289 3290 mahdotonta 0
3290
3291 3292 , 0
3292 3301 jopa 0
3292 3297 kenties 0
3292 3293 ehkä 0
3293 3294 mahdotonta 0
3294
3295 3296 mahdotonta 0
3296
3297 3298 mahdotonta 0
3298
3299 3300 mahdotonta 0
3300
3301 3302 mahdotonta 0
3302
3303 3304 hankalaa 0
3303 3308 vaikeaa 0
3304 3305 , 0
3305 3316 jopa 0
3305 3312 kenties 0
3305 3306 ehkä 0
3306 3307 mahdotonta 0
3307
3308 3309 , 0
3309 3318 jopa 0
3309 3314 kenties 0
3309 3310 ehkä 0
3310 3311 mahdotonta 0
3311
3312 3313 mahdotonta 0
3313
3314 3315 mahdotonta 0
3315
3316 3317 mahdotonta 0
3317
3318 3319 mahdotonta 0
3319
3320 3321 hankalaa 0
3320 3325 vaikeaa 0
3321 3322 , 0
3322 3333 jopa 0
3322 3329 kenties 0
3322 3323 ehkä 0
3323 3324 mahdotonta 0
3324
3325 3326 , 0
3326 3335 jopa 0
3326 3331 kenties 0
3326 3327 ehkä 0
3327 3328 mahdotonta 0
3328
3329 3330 mahdotonta 0
3330
3331 3332 mahdotonta 0
3332
3333 3334 mahdotonta 0
3334
3335 3336 mahdotonta 0
3336
3337 3338 hankalaa 0
3337 3342 vaikeaa 0
3338 3339 , 0
3339 3350 jopa 0
3339 3346 kenties 0
3339 3340 ehkä 0
3340 3341 mahdotonta 0
3341
3342 3343 , 0
3343 3352 jopa 0
3343 3348 kenties 0
3343 3344 ehkä 0
3344 3345 mahdotonta 0
3345
3346 3347 mahdotonta 0
3347
3348 3349 mahdotonta 0
3349
3350 3351 mahdotonta 0
3351
3352 3353 mahdotonta 0
3353
3354 3355 hankalaa 0
3354 3359 vaikeaa 0
3355 3356 , 0
3356 3367 jopa 0
3356 3363 kenties 0
3356 3357 ehkä 0
3357 3358 mahdotonta 0
3358
3359 3360 , 0
3360 3369 jopa 0
3360 3365 kenties 0
3360 3361 ehkä 0
3361 3362 mahdotonta 0
3362
3363 3364 mahdotonta 0
3364
3365 3366 mahdotonta 0
3366
3367 3368 mahdotonta 0
3368
3369 3370 mahdotonta 0
3370
3371 3372 hankalaa 0
3371 3376 vaikeaa 0
3372 3373 , 0
3373 3384 jopa 0
3373 3380 kenties 0
3373 3374 ehkä 0
3374 3375 mahdotonta 0
3375
3376 3377 , 0
3377 3386 jopa 0
3377 3382 kenties 0
3377 3378 ehkä 0
3378 3379 mahdotonta 0
3379
3380 3381 mahdotonta 0
3381
3382 3383 mahdotonta 0
3383
3384 3385 mahdotonta 0
3385
3386 3387 mahdotonta 0
3387
3388 3389 hankalaa 0
3388 3393 vaikeaa 0
3389 3390 , 0
3390 3401 jopa 0
3390 3397 kenties 0
3390 3391 ehkä 0
3391 3392 mahdotonta 0
3392
3393 3394 , 0
3394 3403 jopa 0
3394 3399 kenties 0
3394 3395 ehkä 0
3395 3396 mahdotonta 0
3396
3397 3398 mahdotonta 0
3398
3399 3400 mahdotonta 0
3400
3401 3402 mahdotonta 0
3402
3403 3404 mahdotonta 0
3404
3405 3406 hankalaa 0
3405 3410 vaikeaa 0
3406 3407 , 0
3407 3418 jopa 0
3407 3414 kenties 0
3407 3408 ehkä 0
3408 3409 mahdotonta 0
3409
3410 3411 , 0
3411 3420 jopa 0
3411 3416 kenties 0
3411 3412 ehkä 0
3412 3413 mahdotonta 0
3413
3414 3415 mahdotonta 0
3415
3416 3417 mahdotonta 0
3417
3418 3419 mahdotonta 0
3419
3420 3421 mahdotonta 0
3421
3422 3423 hankalaa 0
3422 3427 vaikeaa 0
3423 3424 , 0
3424 3435 jopa 0
3424 3431 kenties 0
3424 3425 ehkä 0
3425 3426 mahdotonta 0
3426
3427 3428 , 0
3428 3437 jopa 0
3428 3433 kenties 0
3428 3429 ehkä 0
3429 3430 mahdotonta 0
3430
3431 3432 mahdotonta 0
3432
3433 3434 mahdotonta 0
3434
3435 3436 mahdotonta 0
3436
3437 3438 mahdotonta 0
3438
3439 3440 hankalaa 0
3439 3444 vaikeaa 0
3440 3441 , 0
3441 3452 jopa 0
3441 3448 kenties 0
3441 3442 ehkä 0
3442 3443 mahdotonta 0
3443
3444 3445 , 0
3445 3454 jopa 0
3445 3450 kenties 0
3445 3446 ehkä 0
3446 3447 mahdotonta 0
3447
3448 3449 mahdotonta 0
3449
3450 3451 mahdotonta 0
3451
3452 3453 mahdotonta 0
3453
3454 3455 mahdotonta 0
3455
