0 51 it 0
0 1 this 0
1 2 was 0
2 3 an 0
2 13 a 0
2 37 very 0
2 42 extremely 0
3 4 operation, 0
3 28 extremely 0
4 5 which 0
5 6 was 0
6 7 very 0
6 10 extremely 0
7 8 delicate 0
7 9 precise 0
8
9
10 11 delicate 0
10 12 precise 0
11
12
13 14 task, 0
13 23 very 0
14 15 which 0
15 16 was 0
16 17 very 0
16 20 extremely 0
17 18 delicate 0
17 19 precise 0
18
19
20 21 delicate 0
20 22 precise 0
21
22
23 24 delicate 0
23 26 precise 0
24 25 operation 0
24 33 task 0
25
26 27 operation 0
26 34 task 0
27
28 29 delicate 0
28 31 precise 0
29 30 operation 0
29 35 task 0
30
31 32 operation 0
31 36 task 0
32
33
34
35
36
37 38 delicate 0
37 40 precise 0
38 39 operation 0
38 47 task 0
39
40 41 operation 0
40 48 task 0
41
42 43 delicate 0
42 45 precise 0
43 44 operation 0
43 49 task 0
44
45 46 operation 0
45 50 task 0
46
47
48
49
50
51 52 was 0
52 53 an 0
52 63 a 0
52 87 very 0
52 92 extremely 0
53 54 operation, 0
53 78 extremely 0
54 55 which 0
55 56 was 0
56 57 very 0
56 60 extremely 0
57 58 delicate 0
57 59 precise 0
58
59
60 61 delicate 0
60 62 precise 0
61
62
63 64 task, 0
63 73 very 0
64 65 which 0
65 66 was 0
66 67 very 0
66 70 extremely 0
67 68 delicate 0
67 69 precise 0
68
69
70 71 delicate 0
70 72 precise 0
71
72
73 74 delicate 0
73 76 precise 0
74 75 operation 0
74 83 task 0
75
76 77 operation 0
76 84 task 0
77
78 79 delicate 0
78 81 precise 0
79 80 operation 0
79 85 task 0
80
81 82 operation 0
81 86 task 0
82
83
84
85
86
87 88 delicate 0
87 90 precise 0
88 89 operation 0
88 97 task 0
89
90 91 operation 0
90 98 task 0
91
92 93 delicate 0
92 95 precise 0
93 94 operation 0
93 99 task 0
94
95 96 operation 0
95 100 task 0
96
97
98
99
100
