0 579 regular 0
0 1 people, 0
0 2245 chance 0
0 3404 chances 0
0 2631 the 0
0 1071 regularly 0
0 995 exercising 0
0 2300 risk 0
0 227 those, 0
0 3459 risks 0
1 2 who 0
2 3 exercise 0
2 33 regularly 0
3 4 regularly, 0
3 17 on 0
4 5 have 0
4 453 are 0
5 6 a 0
6 122 smaller 0
6 7 lower 0
7 47 risk 0
7 8 chance 0
8 74 for 0
8 9 of 0
9 14 cancer 0
9 10 developing 0
10 11 cancer 0
11 12 and 0
12 13 cancer 0
13
14 15 and 0
15 16 cancer 0
16
17 18 a 0
18 19 regular 0
19 20 basis, 0
20 21 have 0
20 466 are 0
21 22 a 0
22 132 smaller 0
22 23 lower 0
23 56 risk 0
23 24 chance 0
24 82 for 0
24 25 of 0
25 30 cancer 0
25 26 developing 0
26 27 cancer 0
27 28 and 0
28 29 cancer 0
29
30 31 and 0
31 32 cancer 0
32
33 34 exercise, 0
34 35 have 0
34 479 are 0
35 36 a 0
36 142 smaller 0
36 37 lower 0
37 65 risk 0
37 38 chance 0
38 90 for 0
38 39 of 0
39 44 cancer 0
39 40 developing 0
40 41 cancer 0
41 42 and 0
42 43 cancer 0
43
44 45 and 0
45 46 cancer 0
46
47 98 for 0
47 48 of 0
48 53 cancer 0
48 49 developing 0
49 50 cancer 0
50 51 and 0
51 52 cancer 0
52
53 54 and 0
54 55 cancer 0
55
56 106 for 0
56 57 of 0
57 62 cancer 0
57 58 developing 0
58 59 cancer 0
59 60 and 0
60 61 cancer 0
61
62 63 and 0
63 64 cancer 0
64
65 114 for 0
65 66 of 0
66 71 cancer 0
66 67 developing 0
67 68 cancer 0
68 69 and 0
69 70 cancer 0
70
71 72 and 0
72 73 cancer 0
73
74 79 cancer 0
74 75 developing 0
75 76 cancer 0
76 77 and 0
77 78 cancer 0
78
79 80 and 0
80 81 cancer 0
81
82 87 cancer 0
82 83 developing 0
83 84 cancer 0
84 85 and 0
85 86 cancer 0
86
87 88 and 0
88 89 cancer 0
89
90 95 cancer 0
90 91 developing 0
91 92 cancer 0
92 93 and 0
93 94 cancer 0
94
95 96 and 0
96 97 cancer 0
97
98 103 cancer 0
98 99 developing 0
99 100 cancer 0
100 101 and 0
101 102 cancer 0
102
103 104 and 0
104 105 cancer 0
105
106 111 cancer 0
106 107 developing 0
107 108 cancer 0
108 109 and 0
109 110 cancer 0
110
111 112 and 0
112 113 cancer 0
113
114 119 cancer 0
114 115 developing 0
115 116 cancer 0
116 117 and 0
117 118 cancer 0
118
119 120 and 0
120 121 cancer 0
121
122 152 risk 0
122 123 chance 0
123 179 for 0
123 124 of 0
124 129 cancer 0
124 125 developing 0
125 126 cancer 0
126 127 and 0
127 128 cancer 0
128
129 130 and 0
130 131 cancer 0
131
132 161 risk 0
132 133 chance 0
133 187 for 0
133 134 of 0
134 139 cancer 0
134 135 developing 0
135 136 cancer 0
136 137 and 0
137 138 cancer 0
138
139 140 and 0
140 141 cancer 0
141
142 170 risk 0
142 143 chance 0
143 195 for 0
143 144 of 0
144 149 cancer 0
144 145 developing 0
145 146 cancer 0
146 147 and 0
147 148 cancer 0
148
149 150 and 0
150 151 cancer 0
151
152 203 for 0
152 153 of 0
153 158 cancer 0
153 154 developing 0
154 155 cancer 0
155 156 and 0
156 157 cancer 0
157
158 159 and 0
159 160 cancer 0
160
161 211 for 0
161 162 of 0
162 167 cancer 0
162 163 developing 0
163 164 cancer 0
164 165 and 0
165 166 cancer 0
166
167 168 and 0
168 169 cancer 0
169
170 219 for 0
170 171 of 0
171 176 cancer 0
171 172 developing 0
172 173 cancer 0
173 174 and 0
174 175 cancer 0
175
176 177 and 0
177 178 cancer 0
178
179 184 cancer 0
179 180 developing 0
180 181 cancer 0
181 182 and 0
182 183 cancer 0
183
184 185 and 0
185 186 cancer 0
186
187 192 cancer 0
187 188 developing 0
188 189 cancer 0
189 190 and 0
190 191 cancer 0
191
192 193 and 0
193 194 cancer 0
194
195 200 cancer 0
195 196 developing 0
196 197 cancer 0
197 198 and 0
198 199 cancer 0
199
200 201 and 0
201 202 cancer 0
202
203 208 cancer 0
203 204 developing 0
204 205 cancer 0
205 206 and 0
206 207 cancer 0
207
208 209 and 0
209 210 cancer 0
210
211 216 cancer 0
211 212 developing 0
212 213 cancer 0
213 214 and 0
214 215 cancer 0
215
216 217 and 0
217 218 cancer 0
218
219 224 cancer 0
219 220 developing 0
220 221 cancer 0
221 222 and 0
222 223 cancer 0
223
224 225 and 0
225 226 cancer 0
226
227 228 who 0
228 229 exercise 0
228 259 regularly 0
229 230 regularly, 0
229 243 on 0
230 231 have 0
230 516 are 0
231 232 a 0
232 348 smaller 0
232 233 lower 0
233 273 risk 0
233 234 chance 0
234 300 for 0
234 235 of 0
235 240 cancer 0
235 236 developing 0
236 237 cancer 0
237 238 and 0
238 239 cancer 0
239
240 241 and 0
241 242 cancer 0
242
243 244 a 0
244 245 regular 0
245 246 basis, 0
246 247 have 0
246 529 are 0
247 248 a 0
248 358 smaller 0
248 249 lower 0
249 282 risk 0
249 250 chance 0
250 308 for 0
250 251 of 0
251 256 cancer 0
251 252 developing 0
252 253 cancer 0
253 254 and 0
254 255 cancer 0
255
256 257 and 0
257 258 cancer 0
258
259 260 exercise, 0
260 261 have 0
260 542 are 0
261 262 a 0
262 368 smaller 0
262 263 lower 0
263 291 risk 0
263 264 chance 0
264 316 for 0
264 265 of 0
265 270 cancer 0
265 266 developing 0
266 267 cancer 0
267 268 and 0
268 269 cancer 0
269
270 271 and 0
271 272 cancer 0
272
273 324 for 0
273 274 of 0
274 279 cancer 0
274 275 developing 0
275 276 cancer 0
276 277 and 0
277 278 cancer 0
278
279 280 and 0
280 281 cancer 0
281
282 332 for 0
282 283 of 0
283 288 cancer 0
283 284 developing 0
284 285 cancer 0
285 286 and 0
286 287 cancer 0
287
288 289 and 0
289 290 cancer 0
290
291 340 for 0
291 292 of 0
292 297 cancer 0
292 293 developing 0
293 294 cancer 0
294 295 and 0
295 296 cancer 0
296
297 298 and 0
298 299 cancer 0
299
300 305 cancer 0
300 301 developing 0
301 302 cancer 0
302 303 and 0
303 304 cancer 0
304
305 306 and 0
306 307 cancer 0
307
308 313 cancer 0
308 309 developing 0
309 310 cancer 0
310 311 and 0
311 312 cancer 0
312
313 314 and 0
314 315 cancer 0
315
316 321 cancer 0
316 317 developing 0
317 318 cancer 0
318 319 and 0
319 320 cancer 0
320
321 322 and 0
322 323 cancer 0
323
324 329 cancer 0
324 325 developing 0
325 326 cancer 0
326 327 and 0
327 328 cancer 0
328
329 330 and 0
330 331 cancer 0
331
332 337 cancer 0
332 333 developing 0
333 334 cancer 0
334 335 and 0
335 336 cancer 0
336
337 338 and 0
338 339 cancer 0
339
340 345 cancer 0
340 341 developing 0
341 342 cancer 0
342 343 and 0
343 344 cancer 0
344
345 346 and 0
346 347 cancer 0
347
348 378 risk 0
348 349 chance 0
349 405 for 0
349 350 of 0
350 355 cancer 0
350 351 developing 0
351 352 cancer 0
352 353 and 0
353 354 cancer 0
354
355 356 and 0
356 357 cancer 0
357
358 387 risk 0
358 359 chance 0
359 413 for 0
359 360 of 0
360 365 cancer 0
360 361 developing 0
361 362 cancer 0
362 363 and 0
363 364 cancer 0
364
365 366 and 0
366 367 cancer 0
367
368 396 risk 0
368 369 chance 0
369 421 for 0
369 370 of 0
370 375 cancer 0
370 371 developing 0
371 372 cancer 0
372 373 and 0
373 374 cancer 0
374
375 376 and 0
376 377 cancer 0
377
378 429 for 0
378 379 of 0
379 384 cancer 0
379 380 developing 0
380 381 cancer 0
381 382 and 0
382 383 cancer 0
383
384 385 and 0
385 386 cancer 0
386
387 437 for 0
387 388 of 0
388 393 cancer 0
388 389 developing 0
389 390 cancer 0
390 391 and 0
391 392 cancer 0
392
393 394 and 0
394 395 cancer 0
395
396 445 for 0
396 397 of 0
397 402 cancer 0
397 398 developing 0
398 399 cancer 0
399 400 and 0
400 401 cancer 0
401
402 403 and 0
403 404 cancer 0
404
405 410 cancer 0
405 406 developing 0
406 407 cancer 0
407 408 and 0
408 409 cancer 0
409
410 411 and 0
411 412 cancer 0
412
413 418 cancer 0
413 414 developing 0
414 415 cancer 0
415 416 and 0
416 417 cancer 0
417
418 419 and 0
419 420 cancer 0
420
421 426 cancer 0
421 422 developing 0
422 423 cancer 0
423 424 and 0
424 425 cancer 0
425
426 427 and 0
427 428 cancer 0
428
429 434 cancer 0
429 430 developing 0
430 431 cancer 0
431 432 and 0
432 433 cancer 0
433
434 435 and 0
435 436 cancer 0
436
437 442 cancer 0
437 438 developing 0
438 439 cancer 0
439 440 and 0
440 441 cancer 0
441
442 443 and 0
443 444 cancer 0
444
445 450 cancer 0
445 446 developing 0
446 447 cancer 0
447 448 and 0
448 449 cancer 0
449
450 451 and 0
451 452 cancer 0
452
453 454 at 0
454 455 a 0
455 456 lower 0
456 457 risk 0
457 492 for 0
457 458 of 0
458 463 cancer 0
458 459 developing 0
459 460 cancer 0
460 461 and 0
461 462 cancer 0
462
463 464 and 0
464 465 cancer 0
465
466 467 at 0
467 468 a 0
468 469 lower 0
469 470 risk 0
470 500 for 0
470 471 of 0
471 476 cancer 0
471 472 developing 0
472 473 cancer 0
473 474 and 0
474 475 cancer 0
475
476 477 and 0
477 478 cancer 0
478
479 480 at 0
480 481 a 0
481 482 lower 0
482 483 risk 0
483 508 for 0
483 484 of 0
484 489 cancer 0
484 485 developing 0
485 486 cancer 0
486 487 and 0
487 488 cancer 0
488
489 490 and 0
490 491 cancer 0
491
492 497 cancer 0
492 493 developing 0
493 494 cancer 0
494 495 and 0
495 496 cancer 0
496
497 498 and 0
498 499 cancer 0
499
500 505 cancer 0
500 501 developing 0
501 502 cancer 0
502 503 and 0
503 504 cancer 0
504
505 506 and 0
506 507 cancer 0
507
508 513 cancer 0
508 509 developing 0
509 510 cancer 0
510 511 and 0
511 512 cancer 0
512
513 514 and 0
514 515 cancer 0
515
516 517 at 0
517 518 a 0
518 519 lower 0
519 520 risk 0
520 555 for 0
520 521 of 0
521 526 cancer 0
521 522 developing 0
522 523 cancer 0
523 524 and 0
524 525 cancer 0
525
526 527 and 0
527 528 cancer 0
528
529 530 at 0
530 531 a 0
531 532 lower 0
532 533 risk 0
533 563 for 0
533 534 of 0
534 539 cancer 0
534 535 developing 0
535 536 cancer 0
536 537 and 0
537 538 cancer 0
538
539 540 and 0
540 541 cancer 0
541
542 543 at 0
543 544 a 0
544 545 lower 0
545 546 risk 0
546 571 for 0
546 547 of 0
547 552 cancer 0
547 548 developing 0
548 549 cancer 0
549 550 and 0
550 551 cancer 0
551
552 553 and 0
553 554 cancer 0
554
555 560 cancer 0
555 556 developing 0
556 557 cancer 0
557 558 and 0
558 559 cancer 0
559
560 561 and 0
561 562 cancer 0
562
563 568 cancer 0
563 564 developing 0
564 565 cancer 0
565 566 and 0
566 567 cancer 0
567
568 569 and 0
569 570 cancer 0
570
571 576 cancer 0
571 572 developing 0
572 573 cancer 0
573 574 and 0
574 575 cancer 0
575
576 577 and 0
577 578 cancer 0
578
579 580 exercise 0
580 719 lowers 0
580 581 reduces 0
580 857 lessens 0
581 616 the 0
581 591 risk 0
581 582 chance 0
581 685 chances 0
581 694 risks 0
582 600 for 0
582 583 of 0
583 588 cancer 0
583 584 developing 0
584 585 cancer 0
585 586 and 0
586 587 cancer 0
587
588 589 and 0
589 590 cancer 0
590
591 608 for 0
591 592 of 0
592 597 cancer 0
592 593 developing 0
593 594 cancer 0
594 595 and 0
595 596 cancer 0
596
597 598 and 0
598 599 cancer 0
599
600 605 cancer 0
600 601 developing 0
601 602 cancer 0
602 603 and 0
603 604 cancer 0
604
605 606 and 0
606 607 cancer 0
607
608 613 cancer 0
608 609 developing 0
609 610 cancer 0
610 611 and 0
611 612 cancer 0
612
613 614 and 0
614 615 cancer 0
615
616 626 risk 0
616 617 chance 0
616 651 chances 0
616 660 risks 0
617 635 for 0
617 618 of 0
618 623 cancer 0
618 619 developing 0
619 620 cancer 0
620 621 and 0
621 622 cancer 0
622
623 624 and 0
624 625 cancer 0
625
626 643 for 0
626 627 of 0
627 632 cancer 0
627 628 developing 0
628 629 cancer 0
629 630 and 0
630 631 cancer 0
631
632 633 and 0
633 634 cancer 0
634
635 640 cancer 0
635 636 developing 0
636 637 cancer 0
637 638 and 0
638 639 cancer 0
639
640 641 and 0
641 642 cancer 0
642
643 648 cancer 0
643 644 developing 0
644 645 cancer 0
645 646 and 0
646 647 cancer 0
647
648 649 and 0
649 650 cancer 0
650
651 669 for 0
651 652 of 0
652 657 cancer 0
652 653 developing 0
653 654 cancer 0
654 655 and 0
655 656 cancer 0
656
657 658 and 0
658 659 cancer 0
659
660 677 for 0
660 661 of 0
661 666 cancer 0
661 662 developing 0
662 663 cancer 0
663 664 and 0
664 665 cancer 0
665
666 667 and 0
667 668 cancer 0
668
669 674 cancer 0
669 670 developing 0
670 671 cancer 0
671 672 and 0
672 673 cancer 0
673
674 675 and 0
675 676 cancer 0
676
677 682 cancer 0
677 678 developing 0
678 679 cancer 0
679 680 and 0
680 681 cancer 0
681
682 683 and 0
683 684 cancer 0
684
685 703 for 0
685 686 of 0
686 691 cancer 0
686 687 developing 0
687 688 cancer 0
688 689 and 0
689 690 cancer 0
690
691 692 and 0
692 693 cancer 0
693
694 711 for 0
694 695 of 0
695 700 cancer 0
695 696 developing 0
696 697 cancer 0
697 698 and 0
698 699 cancer 0
699
700 701 and 0
701 702 cancer 0
702
703 708 cancer 0
703 704 developing 0
704 705 cancer 0
705 706 and 0
706 707 cancer 0
707
708 709 and 0
709 710 cancer 0
710
711 716 cancer 0
711 712 developing 0
712 713 cancer 0
713 714 and 0
714 715 cancer 0
715
716 717 and 0
717 718 cancer 0
718
719 754 the 0
719 729 risk 0
719 720 chance 0
719 823 chances 0
719 832 risks 0
720 738 for 0
720 721 of 0
721 726 cancer 0
721 722 developing 0
722 723 cancer 0
723 724 and 0
724 725 cancer 0
725
726 727 and 0
727 728 cancer 0
728
729 746 for 0
729 730 of 0
730 735 cancer 0
730 731 developing 0
731 732 cancer 0
732 733 and 0
733 734 cancer 0
734
735 736 and 0
736 737 cancer 0
737
738 743 cancer 0
738 739 developing 0
739 740 cancer 0
740 741 and 0
741 742 cancer 0
742
743 744 and 0
744 745 cancer 0
745
746 751 cancer 0
746 747 developing 0
747 748 cancer 0
748 749 and 0
749 750 cancer 0
750
751 752 and 0
752 753 cancer 0
753
754 764 risk 0
754 755 chance 0
754 789 chances 0
754 798 risks 0
755 773 for 0
755 756 of 0
756 761 cancer 0
756 757 developing 0
757 758 cancer 0
758 759 and 0
759 760 cancer 0
760
761 762 and 0
762 763 cancer 0
763
764 781 for 0
764 765 of 0
765 770 cancer 0
765 766 developing 0
766 767 cancer 0
767 768 and 0
768 769 cancer 0
769
770 771 and 0
771 772 cancer 0
772
773 778 cancer 0
773 774 developing 0
774 775 cancer 0
775 776 and 0
776 777 cancer 0
777
778 779 and 0
779 780 cancer 0
780
781 786 cancer 0
781 782 developing 0
782 783 cancer 0
783 784 and 0
784 785 cancer 0
785
786 787 and 0
787 788 cancer 0
788
789 807 for 0
789 790 of 0
790 795 cancer 0
790 791 developing 0
791 792 cancer 0
792 793 and 0
793 794 cancer 0
794
795 796 and 0
796 797 cancer 0
797
798 815 for 0
798 799 of 0
799 804 cancer 0
799 800 developing 0
800 801 cancer 0
801 802 and 0
802 803 cancer 0
803
804 805 and 0
805 806 cancer 0
806
807 812 cancer 0
807 808 developing 0
808 809 cancer 0
809 810 and 0
810 811 cancer 0
811
812 813 and 0
813 814 cancer 0
814
815 820 cancer 0
815 816 developing 0
816 817 cancer 0
817 818 and 0
818 819 cancer 0
819
820 821 and 0
821 822 cancer 0
822
823 841 for 0
823 824 of 0
824 829 cancer 0
824 825 developing 0
825 826 cancer 0
826 827 and 0
827 828 cancer 0
828
829 830 and 0
830 831 cancer 0
831
832 849 for 0
832 833 of 0
833 838 cancer 0
833 834 developing 0
834 835 cancer 0
835 836 and 0
836 837 cancer 0
837
838 839 and 0
839 840 cancer 0
840
841 846 cancer 0
841 842 developing 0
842 843 cancer 0
843 844 and 0
844 845 cancer 0
845
846 847 and 0
847 848 cancer 0
848
849 854 cancer 0
849 850 developing 0
850 851 cancer 0
851 852 and 0
852 853 cancer 0
853
854 855 and 0
855 856 cancer 0
856
857 892 the 0
857 867 risk 0
857 858 chance 0
857 961 chances 0
857 970 risks 0
858 876 for 0
858 859 of 0
859 864 cancer 0
859 860 developing 0
860 861 cancer 0
861 862 and 0
862 863 cancer 0
863
864 865 and 0
865 866 cancer 0
866
867 884 for 0
867 868 of 0
868 873 cancer 0
868 869 developing 0
869 870 cancer 0
870 871 and 0
871 872 cancer 0
872
873 874 and 0
874 875 cancer 0
875
876 881 cancer 0
876 877 developing 0
877 878 cancer 0
878 879 and 0
879 880 cancer 0
880
881 882 and 0
882 883 cancer 0
883
884 889 cancer 0
884 885 developing 0
885 886 cancer 0
886 887 and 0
887 888 cancer 0
888
889 890 and 0
890 891 cancer 0
891
892 902 risk 0
892 893 chance 0
892 927 chances 0
892 936 risks 0
893 911 for 0
893 894 of 0
894 899 cancer 0
894 895 developing 0
895 896 cancer 0
896 897 and 0
897 898 cancer 0
898
899 900 and 0
900 901 cancer 0
901
902 919 for 0
902 903 of 0
903 908 cancer 0
903 904 developing 0
904 905 cancer 0
905 906 and 0
906 907 cancer 0
907
908 909 and 0
909 910 cancer 0
910
911 916 cancer 0
911 912 developing 0
912 913 cancer 0
913 914 and 0
914 915 cancer 0
915
916 917 and 0
917 918 cancer 0
918
919 924 cancer 0
919 920 developing 0
920 921 cancer 0
921 922 and 0
922 923 cancer 0
923
924 925 and 0
925 926 cancer 0
926
927 945 for 0
927 928 of 0
928 933 cancer 0
928 929 developing 0
929 930 cancer 0
930 931 and 0
931 932 cancer 0
932
933 934 and 0
934 935 cancer 0
935
936 953 for 0
936 937 of 0
937 942 cancer 0
937 938 developing 0
938 939 cancer 0
939 940 and 0
940 941 cancer 0
941
942 943 and 0
943 944 cancer 0
944
945 950 cancer 0
945 946 developing 0
946 947 cancer 0
947 948 and 0
948 949 cancer 0
949
950 951 and 0
951 952 cancer 0
952
953 958 cancer 0
953 954 developing 0
954 955 cancer 0
955 956 and 0
956 957 cancer 0
957
958 959 and 0
959 960 cancer 0
960
961 979 for 0
961 962 of 0
962 967 cancer 0
962 963 developing 0
963 964 cancer 0
964 965 and 0
965 966 cancer 0
966
967 968 and 0
968 969 cancer 0
969
970 987 for 0
970 971 of 0
971 976 cancer 0
971 972 developing 0
972 973 cancer 0
973 974 and 0
974 975 cancer 0
975
976 977 and 0
977 978 cancer 0
978
979 984 cancer 0
979 980 developing 0
980 981 cancer 0
981 982 and 0
982 983 cancer 0
983
984 985 and 0
985 986 cancer 0
986
987 992 cancer 0
987 988 developing 0
988 989 cancer 0
989 990 and 0
990 991 cancer 0
991
992 993 and 0
993 994 cancer 0
994
995 996 regularly 0
995 1007 on 0
996 1417 lowers 0
996 997 reduces 0
996 1831 lessens 0
997 1108 the 0
997 1021 risk 0
997 998 chance 0
997 1315 chances 0
997 1333 risks 0
998 1039 for 0
998 999 of 0
999 1004 cancer 0
999 1000 developing 0
1000 1001 cancer 0
1001 1002 and 0
1002 1003 cancer 0
1003
1004 1005 and 0
1005 1006 cancer 0
1006
1007 1008 a 0
1008 1009 regular 0
1009 1010 basis 0
1010 1427 lowers 0
1010 1011 reduces 0
1010 1841 lessens 0
1011 1118 the 0
1011 1030 risk 0
1011 1012 chance 0
1011 1324 chances 0
1011 1342 risks 0
1012 1047 for 0
1012 1013 of 0
1013 1018 cancer 0
1013 1014 developing 0
1014 1015 cancer 0
1015 1016 and 0
1016 1017 cancer 0
1017
1018 1019 and 0
1019 1020 cancer 0
1020
1021 1055 for 0
1021 1022 of 0
1022 1027 cancer 0
1022 1023 developing 0
1023 1024 cancer 0
1024 1025 and 0
1025 1026 cancer 0
1026
1027 1028 and 0
1028 1029 cancer 0
1029
1030 1063 for 0
1030 1031 of 0
1031 1036 cancer 0
1031 1032 developing 0
1032 1033 cancer 0
1033 1034 and 0
1034 1035 cancer 0
1035
1036 1037 and 0
1037 1038 cancer 0
1038
1039 1044 cancer 0
1039 1040 developing 0
1040 1041 cancer 0
1041 1042 and 0
1042 1043 cancer 0
1043
1044 1045 and 0
1045 1046 cancer 0
1046
1047 1052 cancer 0
1047 1048 developing 0
1048 1049 cancer 0
1049 1050 and 0
1050 1051 cancer 0
1051
1052 1053 and 0
1053 1054 cancer 0
1054
1055 1060 cancer 0
1055 1056 developing 0
1056 1057 cancer 0
1057 1058 and 0
1058 1059 cancer 0
1059
1060 1061 and 0
1061 1062 cancer 0
1062
1063 1068 cancer 0
1063 1064 developing 0
1064 1065 cancer 0
1065 1066 and 0
1066 1067 cancer 0
1067
1068 1069 and 0
1069 1070 cancer 0
1070
1071 1072 exercising 0
1072 1487 lowers 0
1072 1073 reduces 0
1072 1901 lessens 0
1073 1178 the 0
1073 1083 risk 0
1073 1074 chance 0
1073 1383 chances 0
1073 1392 risks 0
1074 1092 for 0
1074 1075 of 0
1075 1080 cancer 0
1075 1076 developing 0
1076 1077 cancer 0
1077 1078 and 0
1078 1079 cancer 0
1079
1080 1081 and 0
1081 1082 cancer 0
1082
1083 1100 for 0
1083 1084 of 0
1084 1089 cancer 0
1084 1085 developing 0
1085 1086 cancer 0
1086 1087 and 0
1087 1088 cancer 0
1088
1089 1090 and 0
1090 1091 cancer 0
1091
1092 1097 cancer 0
1092 1093 developing 0
1093 1094 cancer 0
1094 1095 and 0
1095 1096 cancer 0
1096
1097 1098 and 0
1098 1099 cancer 0
1099
1100 1105 cancer 0
1100 1101 developing 0
1101 1102 cancer 0
1102 1103 and 0
1103 1104 cancer 0
1104
1105 1106 and 0
1106 1107 cancer 0
1107
1108 1128 risk 0
1108 1109 chance 0
1108 1213 chances 0
1108 1231 risks 0
1109 1146 for 0
1109 1110 of 0
1110 1115 cancer 0
1110 1111 developing 0
1111 1112 cancer 0
1112 1113 and 0
1113 1114 cancer 0
1114
1115 1116 and 0
1116 1117 cancer 0
1117
1118 1137 risk 0
1118 1119 chance 0
1118 1222 chances 0
1118 1240 risks 0
1119 1154 for 0
1119 1120 of 0
1120 1125 cancer 0
1120 1121 developing 0
1121 1122 cancer 0
1122 1123 and 0
1123 1124 cancer 0
1124
1125 1126 and 0
1126 1127 cancer 0
1127
1128 1162 for 0
1128 1129 of 0
1129 1134 cancer 0
1129 1130 developing 0
1130 1131 cancer 0
1131 1132 and 0
1132 1133 cancer 0
1133
1134 1135 and 0
1135 1136 cancer 0
1136
1137 1170 for 0
1137 1138 of 0
1138 1143 cancer 0
1138 1139 developing 0
1139 1140 cancer 0
1140 1141 and 0
1141 1142 cancer 0
1142
1143 1144 and 0
1144 1145 cancer 0
1145
1146 1151 cancer 0
1146 1147 developing 0
1147 1148 cancer 0
1148 1149 and 0
1149 1150 cancer 0
1150
1151 1152 and 0
1152 1153 cancer 0
1153
1154 1159 cancer 0
1154 1155 developing 0
1155 1156 cancer 0
1156 1157 and 0
1157 1158 cancer 0
1158
1159 1160 and 0
1160 1161 cancer 0
1161
1162 1167 cancer 0
1162 1163 developing 0
1163 1164 cancer 0
1164 1165 and 0
1165 1166 cancer 0
1166
1167 1168 and 0
1168 1169 cancer 0
1169
1170 1175 cancer 0
1170 1171 developing 0
1171 1172 cancer 0
1172 1173 and 0
1173 1174 cancer 0
1174
1175 1176 and 0
1176 1177 cancer 0
1177
1178 1188 risk 0
1178 1179 chance 0
1178 1281 chances 0
1178 1290 risks 0
1179 1197 for 0
1179 1180 of 0
1180 1185 cancer 0
1180 1181 developing 0
1181 1182 cancer 0
1182 1183 and 0
1183 1184 cancer 0
1184
1185 1186 and 0
1186 1187 cancer 0
1187
1188 1205 for 0
1188 1189 of 0
1189 1194 cancer 0
1189 1190 developing 0
1190 1191 cancer 0
1191 1192 and 0
1192 1193 cancer 0
1193
1194 1195 and 0
1195 1196 cancer 0
1196
1197 1202 cancer 0
1197 1198 developing 0
1198 1199 cancer 0
1199 1200 and 0
1200 1201 cancer 0
1201
1202 1203 and 0
1203 1204 cancer 0
1204
1205 1210 cancer 0
1205 1206 developing 0
1206 1207 cancer 0
1207 1208 and 0
1208 1209 cancer 0
1209
1210 1211 and 0
1211 1212 cancer 0
1212
1213 1249 for 0
1213 1214 of 0
1214 1219 cancer 0
1214 1215 developing 0
1215 1216 cancer 0
1216 1217 and 0
1217 1218 cancer 0
1218
1219 1220 and 0
1220 1221 cancer 0
1221
1222 1257 for 0
1222 1223 of 0
1223 1228 cancer 0
1223 1224 developing 0
1224 1225 cancer 0
1225 1226 and 0
1226 1227 cancer 0
1227
1228 1229 and 0
1229 1230 cancer 0
1230
1231 1265 for 0
1231 1232 of 0
1232 1237 cancer 0
1232 1233 developing 0
1233 1234 cancer 0
1234 1235 and 0
1235 1236 cancer 0
1236
1237 1238 and 0
1238 1239 cancer 0
1239
1240 1273 for 0
1240 1241 of 0
1241 1246 cancer 0
1241 1242 developing 0
1242 1243 cancer 0
1243 1244 and 0
1244 1245 cancer 0
1245
1246 1247 and 0
1247 1248 cancer 0
1248
1249 1254 cancer 0
1249 1250 developing 0
1250 1251 cancer 0
1251 1252 and 0
1252 1253 cancer 0
1253
1254 1255 and 0
1255 1256 cancer 0
1256
1257 1262 cancer 0
1257 1258 developing 0
1258 1259 cancer 0
1259 1260 and 0
1260 1261 cancer 0
1261
1262 1263 and 0
1263 1264 cancer 0
1264
1265 1270 cancer 0
1265 1266 developing 0
1266 1267 cancer 0
1267 1268 and 0
1268 1269 cancer 0
1269
1270 1271 and 0
1271 1272 cancer 0
1272
1273 1278 cancer 0
1273 1274 developing 0
1274 1275 cancer 0
1275 1276 and 0
1276 1277 cancer 0
1277
1278 1279 and 0
1279 1280 cancer 0
1280
1281 1299 for 0
1281 1282 of 0
1282 1287 cancer 0
1282 1283 developing 0
1283 1284 cancer 0
1284 1285 and 0
1285 1286 cancer 0
1286
1287 1288 and 0
1288 1289 cancer 0
1289
1290 1307 for 0
1290 1291 of 0
1291 1296 cancer 0
1291 1292 developing 0
1292 1293 cancer 0
1293 1294 and 0
1294 1295 cancer 0
1295
1296 1297 and 0
1297 1298 cancer 0
1298
1299 1304 cancer 0
1299 1300 developing 0
1300 1301 cancer 0
1301 1302 and 0
1302 1303 cancer 0
1303
1304 1305 and 0
1305 1306 cancer 0
1306
1307 1312 cancer 0
1307 1308 developing 0
1308 1309 cancer 0
1309 1310 and 0
1310 1311 cancer 0
1311
1312 1313 and 0
1313 1314 cancer 0
1314
1315 1351 for 0
1315 1316 of 0
1316 1321 cancer 0
1316 1317 developing 0
1317 1318 cancer 0
1318 1319 and 0
1319 1320 cancer 0
1320
1321 1322 and 0
1322 1323 cancer 0
1323
1324 1359 for 0
1324 1325 of 0
1325 1330 cancer 0
1325 1326 developing 0
1326 1327 cancer 0
1327 1328 and 0
1328 1329 cancer 0
1329
1330 1331 and 0
1331 1332 cancer 0
1332
1333 1367 for 0
1333 1334 of 0
1334 1339 cancer 0
1334 1335 developing 0
1335 1336 cancer 0
1336 1337 and 0
1337 1338 cancer 0
1338
1339 1340 and 0
1340 1341 cancer 0
1341
1342 1375 for 0
1342 1343 of 0
1343 1348 cancer 0
1343 1344 developing 0
1344 1345 cancer 0
1345 1346 and 0
1346 1347 cancer 0
1347
1348 1349 and 0
1349 1350 cancer 0
1350
1351 1356 cancer 0
1351 1352 developing 0
1352 1353 cancer 0
1353 1354 and 0
1354 1355 cancer 0
1355
1356 1357 and 0
1357 1358 cancer 0
1358
1359 1364 cancer 0
1359 1360 developing 0
1360 1361 cancer 0
1361 1362 and 0
1362 1363 cancer 0
1363
1364 1365 and 0
1365 1366 cancer 0
1366
1367 1372 cancer 0
1367 1368 developing 0
1368 1369 cancer 0
1369 1370 and 0
1370 1371 cancer 0
1371
1372 1373 and 0
1373 1374 cancer 0
1374
1375 1380 cancer 0
1375 1376 developing 0
1376 1377 cancer 0
1377 1378 and 0
1378 1379 cancer 0
1379
1380 1381 and 0
1381 1382 cancer 0
1382
1383 1401 for 0
1383 1384 of 0
1384 1389 cancer 0
1384 1385 developing 0
1385 1386 cancer 0
1386 1387 and 0
1387 1388 cancer 0
1388
1389 1390 and 0
1390 1391 cancer 0
1391
1392 1409 for 0
1392 1393 of 0
1393 1398 cancer 0
1393 1394 developing 0
1394 1395 cancer 0
1395 1396 and 0
1396 1397 cancer 0
1397
1398 1399 and 0
1399 1400 cancer 0
1400
1401 1406 cancer 0
1401 1402 developing 0
1402 1403 cancer 0
1403 1404 and 0
1404 1405 cancer 0
1405
1406 1407 and 0
1407 1408 cancer 0
1408
1409 1414 cancer 0
1409 1410 developing 0
1410 1411 cancer 0
1411 1412 and 0
1412 1413 cancer 0
1413
1414 1415 and 0
1415 1416 cancer 0
1416
1417 1522 the 0
1417 1437 risk 0
1417 1418 chance 0
1417 1729 chances 0
1417 1747 risks 0
1418 1455 for 0
1418 1419 of 0
1419 1424 cancer 0
1419 1420 developing 0
1420 1421 cancer 0
1421 1422 and 0
1422 1423 cancer 0
1423
1424 1425 and 0
1425 1426 cancer 0
1426
1427 1532 the 0
1427 1446 risk 0
1427 1428 chance 0
1427 1738 chances 0
1427 1756 risks 0
1428 1463 for 0
1428 1429 of 0
1429 1434 cancer 0
1429 1430 developing 0
1430 1431 cancer 0
1431 1432 and 0
1432 1433 cancer 0
1433
1434 1435 and 0
1435 1436 cancer 0
1436
1437 1471 for 0
1437 1438 of 0
1438 1443 cancer 0
1438 1439 developing 0
1439 1440 cancer 0
1440 1441 and 0
1441 1442 cancer 0
1442
1443 1444 and 0
1444 1445 cancer 0
1445
1446 1479 for 0
1446 1447 of 0
1447 1452 cancer 0
1447 1448 developing 0
1448 1449 cancer 0
1449 1450 and 0
1450 1451 cancer 0
1451
1452 1453 and 0
1453 1454 cancer 0
1454
1455 1460 cancer 0
1455 1456 developing 0
1456 1457 cancer 0
1457 1458 and 0
1458 1459 cancer 0
1459
1460 1461 and 0
1461 1462 cancer 0
1462
1463 1468 cancer 0
1463 1464 developing 0
1464 1465 cancer 0
1465 1466 and 0
1466 1467 cancer 0
1467
1468 1469 and 0
1469 1470 cancer 0
1470
1471 1476 cancer 0
1471 1472 developing 0
1472 1473 cancer 0
1473 1474 and 0
1474 1475 cancer 0
1475
1476 1477 and 0
1477 1478 cancer 0
1478
1479 1484 cancer 0
1479 1480 developing 0
1480 1481 cancer 0
1481 1482 and 0
1482 1483 cancer 0
1483
1484 1485 and 0
1485 1486 cancer 0
1486
1487 1592 the 0
1487 1497 risk 0
1487 1488 chance 0
1487 1797 chances 0
1487 1806 risks 0
1488 1506 for 0
1488 1489 of 0
1489 1494 cancer 0
1489 1490 developing 0
1490 1491 cancer 0
1491 1492 and 0
1492 1493 cancer 0
1493
1494 1495 and 0
1495 1496 cancer 0
1496
1497 1514 for 0
1497 1498 of 0
1498 1503 cancer 0
1498 1499 developing 0
1499 1500 cancer 0
1500 1501 and 0
1501 1502 cancer 0
1502
1503 1504 and 0
1504 1505 cancer 0
1505
1506 1511 cancer 0
1506 1507 developing 0
1507 1508 cancer 0
1508 1509 and 0
1509 1510 cancer 0
1510
1511 1512 and 0
1512 1513 cancer 0
1513
1514 1519 cancer 0
1514 1515 developing 0
1515 1516 cancer 0
1516 1517 and 0
1517 1518 cancer 0
1518
1519 1520 and 0
1520 1521 cancer 0
1521
1522 1542 risk 0
1522 1523 chance 0
1522 1627 chances 0
1522 1645 risks 0
1523 1560 for 0
1523 1524 of 0
1524 1529 cancer 0
1524 1525 developing 0
1525 1526 cancer 0
1526 1527 and 0
1527 1528 cancer 0
1528
1529 1530 and 0
1530 1531 cancer 0
1531
1532 1551 risk 0
1532 1533 chance 0
1532 1636 chances 0
1532 1654 risks 0
1533 1568 for 0
1533 1534 of 0
1534 1539 cancer 0
1534 1535 developing 0
1535 1536 cancer 0
1536 1537 and 0
1537 1538 cancer 0
1538
1539 1540 and 0
1540 1541 cancer 0
1541
1542 1576 for 0
1542 1543 of 0
1543 1548 cancer 0
1543 1544 developing 0
1544 1545 cancer 0
1545 1546 and 0
1546 1547 cancer 0
1547
1548 1549 and 0
1549 1550 cancer 0
1550
1551 1584 for 0
1551 1552 of 0
1552 1557 cancer 0
1552 1553 developing 0
1553 1554 cancer 0
1554 1555 and 0
1555 1556 cancer 0
1556
1557 1558 and 0
1558 1559 cancer 0
1559
1560 1565 cancer 0
1560 1561 developing 0
1561 1562 cancer 0
1562 1563 and 0
1563 1564 cancer 0
1564
1565 1566 and 0
1566 1567 cancer 0
1567
1568 1573 cancer 0
1568 1569 developing 0
1569 1570 cancer 0
1570 1571 and 0
1571 1572 cancer 0
1572
1573 1574 and 0
1574 1575 cancer 0
1575
1576 1581 cancer 0
1576 1577 developing 0
1577 1578 cancer 0
1578 1579 and 0
1579 1580 cancer 0
1580
1581 1582 and 0
1582 1583 cancer 0
1583
1584 1589 cancer 0
1584 1585 developing 0
1585 1586 cancer 0
1586 1587 and 0
1587 1588 cancer 0
1588
1589 1590 and 0
1590 1591 cancer 0
1591
1592 1602 risk 0
1592 1593 chance 0
1592 1695 chances 0
1592 1704 risks 0
1593 1611 for 0
1593 1594 of 0
1594 1599 cancer 0
1594 1595 developing 0
1595 1596 cancer 0
1596 1597 and 0
1597 1598 cancer 0
1598
1599 1600 and 0
1600 1601 cancer 0
1601
1602 1619 for 0
1602 1603 of 0
1603 1608 cancer 0
1603 1604 developing 0
1604 1605 cancer 0
1605 1606 and 0
1606 1607 cancer 0
1607
1608 1609 and 0
1609 1610 cancer 0
1610
1611 1616 cancer 0
1611 1612 developing 0
1612 1613 cancer 0
1613 1614 and 0
1614 1615 cancer 0
1615
1616 1617 and 0
1617 1618 cancer 0
1618
1619 1624 cancer 0
1619 1620 developing 0
1620 1621 cancer 0
1621 1622 and 0
1622 1623 cancer 0
1623
1624 1625 and 0
1625 1626 cancer 0
1626
1627 1663 for 0
1627 1628 of 0
1628 1633 cancer 0
1628 1629 developing 0
1629 1630 cancer 0
1630 1631 and 0
1631 1632 cancer 0
1632
1633 1634 and 0
1634 1635 cancer 0
1635
1636 1671 for 0
1636 1637 of 0
1637 1642 cancer 0
1637 1638 developing 0
1638 1639 cancer 0
1639 1640 and 0
1640 1641 cancer 0
1641
1642 1643 and 0
1643 1644 cancer 0
1644
1645 1679 for 0
1645 1646 of 0
1646 1651 cancer 0
1646 1647 developing 0
1647 1648 cancer 0
1648 1649 and 0
1649 1650 cancer 0
1650
1651 1652 and 0
1652 1653 cancer 0
1653
1654 1687 for 0
1654 1655 of 0
1655 1660 cancer 0
1655 1656 developing 0
1656 1657 cancer 0
1657 1658 and 0
1658 1659 cancer 0
1659
1660 1661 and 0
1661 1662 cancer 0
1662
1663 1668 cancer 0
1663 1664 developing 0
1664 1665 cancer 0
1665 1666 and 0
1666 1667 cancer 0
1667
1668 1669 and 0
1669 1670 cancer 0
1670
1671 1676 cancer 0
1671 1672 developing 0
1672 1673 cancer 0
1673 1674 and 0
1674 1675 cancer 0
1675
1676 1677 and 0
1677 1678 cancer 0
1678
1679 1684 cancer 0
1679 1680 developing 0
1680 1681 cancer 0
1681 1682 and 0
1682 1683 cancer 0
1683
1684 1685 and 0
1685 1686 cancer 0
1686
1687 1692 cancer 0
1687 1688 developing 0
1688 1689 cancer 0
1689 1690 and 0
1690 1691 cancer 0
1691
1692 1693 and 0
1693 1694 cancer 0
1694
1695 1713 for 0
1695 1696 of 0
1696 1701 cancer 0
1696 1697 developing 0
1697 1698 cancer 0
1698 1699 and 0
1699 1700 cancer 0
1700
1701 1702 and 0
1702 1703 cancer 0
1703
1704 1721 for 0
1704 1705 of 0
1705 1710 cancer 0
1705 1706 developing 0
1706 1707 cancer 0
1707 1708 and 0
1708 1709 cancer 0
1709
1710 1711 and 0
1711 1712 cancer 0
1712
1713 1718 cancer 0
1713 1714 developing 0
1714 1715 cancer 0
1715 1716 and 0
1716 1717 cancer 0
1717
1718 1719 and 0
1719 1720 cancer 0
1720
1721 1726 cancer 0
1721 1722 developing 0
1722 1723 cancer 0
1723 1724 and 0
1724 1725 cancer 0
1725
1726 1727 and 0
1727 1728 cancer 0
1728
1729 1765 for 0
1729 1730 of 0
1730 1735 cancer 0
1730 1731 developing 0
1731 1732 cancer 0
1732 1733 and 0
1733 1734 cancer 0
1734
1735 1736 and 0
1736 1737 cancer 0
1737
1738 1773 for 0
1738 1739 of 0
1739 1744 cancer 0
1739 1740 developing 0
1740 1741 cancer 0
1741 1742 and 0
1742 1743 cancer 0
1743
1744 1745 and 0
1745 1746 cancer 0
1746
1747 1781 for 0
1747 1748 of 0
1748 1753 cancer 0
1748 1749 developing 0
1749 1750 cancer 0
1750 1751 and 0
1751 1752 cancer 0
1752
1753 1754 and 0
1754 1755 cancer 0
1755
1756 1789 for 0
1756 1757 of 0
1757 1762 cancer 0
1757 1758 developing 0
1758 1759 cancer 0
1759 1760 and 0
1760 1761 cancer 0
1761
1762 1763 and 0
1763 1764 cancer 0
1764
1765 1770 cancer 0
1765 1766 developing 0
1766 1767 cancer 0
1767 1768 and 0
1768 1769 cancer 0
1769
1770 1771 and 0
1771 1772 cancer 0
1772
1773 1778 cancer 0
1773 1774 developing 0
1774 1775 cancer 0
1775 1776 and 0
1776 1777 cancer 0
1777
1778 1779 and 0
1779 1780 cancer 0
1780
1781 1786 cancer 0
1781 1782 developing 0
1782 1783 cancer 0
1783 1784 and 0
1784 1785 cancer 0
1785
1786 1787 and 0
1787 1788 cancer 0
1788
1789 1794 cancer 0
1789 1790 developing 0
1790 1791 cancer 0
1791 1792 and 0
1792 1793 cancer 0
1793
1794 1795 and 0
1795 1796 cancer 0
1796
1797 1815 for 0
1797 1798 of 0
1798 1803 cancer 0
1798 1799 developing 0
1799 1800 cancer 0
1800 1801 and 0
1801 1802 cancer 0
1802
1803 1804 and 0
1804 1805 cancer 0
1805
1806 1823 for 0
1806 1807 of 0
1807 1812 cancer 0
1807 1808 developing 0
1808 1809 cancer 0
1809 1810 and 0
1810 1811 cancer 0
1811
1812 1813 and 0
1813 1814 cancer 0
1814
1815 1820 cancer 0
1815 1816 developing 0
1816 1817 cancer 0
1817 1818 and 0
1818 1819 cancer 0
1819
1820 1821 and 0
1821 1822 cancer 0
1822
1823 1828 cancer 0
1823 1824 developing 0
1824 1825 cancer 0
1825 1826 and 0
1826 1827 cancer 0
1827
1828 1829 and 0
1829 1830 cancer 0
1830
1831 1936 the 0
1831 1851 risk 0
1831 1832 chance 0
1831 2143 chances 0
1831 2161 risks 0
1832 1869 for 0
1832 1833 of 0
1833 1838 cancer 0
1833 1834 developing 0
1834 1835 cancer 0
1835 1836 and 0
1836 1837 cancer 0
1837
1838 1839 and 0
1839 1840 cancer 0
1840
1841 1946 the 0
1841 1860 risk 0
1841 1842 chance 0
1841 2152 chances 0
1841 2170 risks 0
1842 1877 for 0
1842 1843 of 0
1843 1848 cancer 0
1843 1844 developing 0
1844 1845 cancer 0
1845 1846 and 0
1846 1847 cancer 0
1847
1848 1849 and 0
1849 1850 cancer 0
1850
1851 1885 for 0
1851 1852 of 0
1852 1857 cancer 0
1852 1853 developing 0
1853 1854 cancer 0
1854 1855 and 0
1855 1856 cancer 0
1856
1857 1858 and 0
1858 1859 cancer 0
1859
1860 1893 for 0
1860 1861 of 0
1861 1866 cancer 0
1861 1862 developing 0
1862 1863 cancer 0
1863 1864 and 0
1864 1865 cancer 0
1865
1866 1867 and 0
1867 1868 cancer 0
1868
1869 1874 cancer 0
1869 1870 developing 0
1870 1871 cancer 0
1871 1872 and 0
1872 1873 cancer 0
1873
1874 1875 and 0
1875 1876 cancer 0
1876
1877 1882 cancer 0
1877 1878 developing 0
1878 1879 cancer 0
1879 1880 and 0
1880 1881 cancer 0
1881
1882 1883 and 0
1883 1884 cancer 0
1884
1885 1890 cancer 0
1885 1886 developing 0
1886 1887 cancer 0
1887 1888 and 0
1888 1889 cancer 0
1889
1890 1891 and 0
1891 1892 cancer 0
1892
1893 1898 cancer 0
1893 1894 developing 0
1894 1895 cancer 0
1895 1896 and 0
1896 1897 cancer 0
1897
1898 1899 and 0
1899 1900 cancer 0
1900
1901 2006 the 0
1901 1911 risk 0
1901 1902 chance 0
1901 2211 chances 0
1901 2220 risks 0
1902 1920 for 0
1902 1903 of 0
1903 1908 cancer 0
1903 1904 developing 0
1904 1905 cancer 0
1905 1906 and 0
1906 1907 cancer 0
1907
1908 1909 and 0
1909 1910 cancer 0
1910
1911 1928 for 0
1911 1912 of 0
1912 1917 cancer 0
1912 1913 developing 0
1913 1914 cancer 0
1914 1915 and 0
1915 1916 cancer 0
1916
1917 1918 and 0
1918 1919 cancer 0
1919
1920 1925 cancer 0
1920 1921 developing 0
1921 1922 cancer 0
1922 1923 and 0
1923 1924 cancer 0
1924
1925 1926 and 0
1926 1927 cancer 0
1927
1928 1933 cancer 0
1928 1929 developing 0
1929 1930 cancer 0
1930 1931 and 0
1931 1932 cancer 0
1932
1933 1934 and 0
1934 1935 cancer 0
1935
1936 1956 risk 0
1936 1937 chance 0
1936 2041 chances 0
1936 2059 risks 0
1937 1974 for 0
1937 1938 of 0
1938 1943 cancer 0
1938 1939 developing 0
1939 1940 cancer 0
1940 1941 and 0
1941 1942 cancer 0
1942
1943 1944 and 0
1944 1945 cancer 0
1945
1946 1965 risk 0
1946 1947 chance 0
1946 2050 chances 0
1946 2068 risks 0
1947 1982 for 0
1947 1948 of 0
1948 1953 cancer 0
1948 1949 developing 0
1949 1950 cancer 0
1950 1951 and 0
1951 1952 cancer 0
1952
1953 1954 and 0
1954 1955 cancer 0
1955
1956 1990 for 0
1956 1957 of 0
1957 1962 cancer 0
1957 1958 developing 0
1958 1959 cancer 0
1959 1960 and 0
1960 1961 cancer 0
1961
1962 1963 and 0
1963 1964 cancer 0
1964
1965 1998 for 0
1965 1966 of 0
1966 1971 cancer 0
1966 1967 developing 0
1967 1968 cancer 0
1968 1969 and 0
1969 1970 cancer 0
1970
1971 1972 and 0
1972 1973 cancer 0
1973
1974 1979 cancer 0
1974 1975 developing 0
1975 1976 cancer 0
1976 1977 and 0
1977 1978 cancer 0
1978
1979 1980 and 0
1980 1981 cancer 0
1981
1982 1987 cancer 0
1982 1983 developing 0
1983 1984 cancer 0
1984 1985 and 0
1985 1986 cancer 0
1986
1987 1988 and 0
1988 1989 cancer 0
1989
1990 1995 cancer 0
1990 1991 developing 0
1991 1992 cancer 0
1992 1993 and 0
1993 1994 cancer 0
1994
1995 1996 and 0
1996 1997 cancer 0
1997
1998 2003 cancer 0
1998 1999 developing 0
1999 2000 cancer 0
2000 2001 and 0
2001 2002 cancer 0
2002
2003 2004 and 0
2004 2005 cancer 0
2005
2006 2016 risk 0
2006 2007 chance 0
2006 2109 chances 0
2006 2118 risks 0
2007 2025 for 0
2007 2008 of 0
2008 2013 cancer 0
2008 2009 developing 0
2009 2010 cancer 0
2010 2011 and 0
2011 2012 cancer 0
2012
2013 2014 and 0
2014 2015 cancer 0
2015
2016 2033 for 0
2016 2017 of 0
2017 2022 cancer 0
2017 2018 developing 0
2018 2019 cancer 0
2019 2020 and 0
2020 2021 cancer 0
2021
2022 2023 and 0
2023 2024 cancer 0
2024
2025 2030 cancer 0
2025 2026 developing 0
2026 2027 cancer 0
2027 2028 and 0
2028 2029 cancer 0
2029
2030 2031 and 0
2031 2032 cancer 0
2032
2033 2038 cancer 0
2033 2034 developing 0
2034 2035 cancer 0
2035 2036 and 0
2036 2037 cancer 0
2037
2038 2039 and 0
2039 2040 cancer 0
2040
2041 2077 for 0
2041 2042 of 0
2042 2047 cancer 0
2042 2043 developing 0
2043 2044 cancer 0
2044 2045 and 0
2045 2046 cancer 0
2046
2047 2048 and 0
2048 2049 cancer 0
2049
2050 2085 for 0
2050 2051 of 0
2051 2056 cancer 0
2051 2052 developing 0
2052 2053 cancer 0
2053 2054 and 0
2054 2055 cancer 0
2055
2056 2057 and 0
2057 2058 cancer 0
2058
2059 2093 for 0
2059 2060 of 0
2060 2065 cancer 0
2060 2061 developing 0
2061 2062 cancer 0
2062 2063 and 0
2063 2064 cancer 0
2064
2065 2066 and 0
2066 2067 cancer 0
2067
2068 2101 for 0
2068 2069 of 0
2069 2074 cancer 0
2069 2070 developing 0
2070 2071 cancer 0
2071 2072 and 0
2072 2073 cancer 0
2073
2074 2075 and 0
2075 2076 cancer 0
2076
2077 2082 cancer 0
2077 2078 developing 0
2078 2079 cancer 0
2079 2080 and 0
2080 2081 cancer 0
2081
2082 2083 and 0
2083 2084 cancer 0
2084
2085 2090 cancer 0
2085 2086 developing 0
2086 2087 cancer 0
2087 2088 and 0
2088 2089 cancer 0
2089
2090 2091 and 0
2091 2092 cancer 0
2092
2093 2098 cancer 0
2093 2094 developing 0
2094 2095 cancer 0
2095 2096 and 0
2096 2097 cancer 0
2097
2098 2099 and 0
2099 2100 cancer 0
2100
2101 2106 cancer 0
2101 2102 developing 0
2102 2103 cancer 0
2103 2104 and 0
2104 2105 cancer 0
2105
2106 2107 and 0
2107 2108 cancer 0
2108
2109 2127 for 0
2109 2110 of 0
2110 2115 cancer 0
2110 2111 developing 0
2111 2112 cancer 0
2112 2113 and 0
2113 2114 cancer 0
2114
2115 2116 and 0
2116 2117 cancer 0
2117
2118 2135 for 0
2118 2119 of 0
2119 2124 cancer 0
2119 2120 developing 0
2120 2121 cancer 0
2121 2122 and 0
2122 2123 cancer 0
2123
2124 2125 and 0
2125 2126 cancer 0
2126
2127 2132 cancer 0
2127 2128 developing 0
2128 2129 cancer 0
2129 2130 and 0
2130 2131 cancer 0
2131
2132 2133 and 0
2133 2134 cancer 0
2134
2135 2140 cancer 0
2135 2136 developing 0
2136 2137 cancer 0
2137 2138 and 0
2138 2139 cancer 0
2139
2140 2141 and 0
2141 2142 cancer 0
2142
2143 2179 for 0
2143 2144 of 0
2144 2149 cancer 0
2144 2145 developing 0
2145 2146 cancer 0
2146 2147 and 0
2147 2148 cancer 0
2148
2149 2150 and 0
2150 2151 cancer 0
2151
2152 2187 for 0
2152 2153 of 0
2153 2158 cancer 0
2153 2154 developing 0
2154 2155 cancer 0
2155 2156 and 0
2156 2157 cancer 0
2157
2158 2159 and 0
2159 2160 cancer 0
2160
2161 2195 for 0
2161 2162 of 0
2162 2167 cancer 0
2162 2163 developing 0
2163 2164 cancer 0
2164 2165 and 0
2165 2166 cancer 0
2166
2167 2168 and 0
2168 2169 cancer 0
2169
2170 2203 for 0
2170 2171 of 0
2171 2176 cancer 0
2171 2172 developing 0
2172 2173 cancer 0
2173 2174 and 0
2174 2175 cancer 0
2175
2176 2177 and 0
2177 2178 cancer 0
2178
2179 2184 cancer 0
2179 2180 developing 0
2180 2181 cancer 0
2181 2182 and 0
2182 2183 cancer 0
2183
2184 2185 and 0
2185 2186 cancer 0
2186
2187 2192 cancer 0
2187 2188 developing 0
2188 2189 cancer 0
2189 2190 and 0
2190 2191 cancer 0
2191
2192 2193 and 0
2193 2194 cancer 0
2194
2195 2200 cancer 0
2195 2196 developing 0
2196 2197 cancer 0
2197 2198 and 0
2198 2199 cancer 0
2199
2200 2201 and 0
2201 2202 cancer 0
2202
2203 2208 cancer 0
2203 2204 developing 0
2204 2205 cancer 0
2205 2206 and 0
2206 2207 cancer 0
2207
2208 2209 and 0
2209 2210 cancer 0
2210
2211 2229 for 0
2211 2212 of 0
2212 2217 cancer 0
2212 2213 developing 0
2213 2214 cancer 0
2214 2215 and 0
2215 2216 cancer 0
2216
2217 2218 and 0
2218 2219 cancer 0
2219
2220 2237 for 0
2220 2221 of 0
2221 2226 cancer 0
2221 2222 developing 0
2222 2223 cancer 0
2223 2224 and 0
2224 2225 cancer 0
2225
2226 2227 and 0
2227 2228 cancer 0
2228
2229 2234 cancer 0
2229 2230 developing 0
2230 2231 cancer 0
2231 2232 and 0
2232 2233 cancer 0
2233
2234 2235 and 0
2235 2236 cancer 0
2236
2237 2242 cancer 0
2237 2238 developing 0
2238 2239 cancer 0
2239 2240 and 0
2240 2241 cancer 0
2241
2242 2243 and 0
2243 2244 cancer 0
2244
2245 2355 for 0
2245 2246 of 0
2246 2258 cancer 0
2246 2247 developing 0
2247 2248 cancer 0
2248 2249 and 0
2249 2250 cancer 0
2250 2251 is 0
2251 2252 lower 0
2252 2463 for 0
2252 2253 in 0
2253 2254 people, 0
2253 2280 those, 0
2254 2255 who 0
2255 2256 exercise 0
2255 2276 regularly 0
2256 2257 regularly 0
2256 2268 on 0
2257
2258 2259 and 0
2259 2260 cancer 0
2260 2261 is 0
2261 2262 lower 0
2262 2468 for 0
2262 2263 in 0
2263 2264 people, 0
2263 2284 those, 0
2264 2265 who 0
2265 2266 exercise 0
2265 2278 regularly 0
2266 2267 regularly 0
2266 2272 on 0
2267
2268 2269 a 0
2269 2270 regular 0
2270 2271 basis 0
2271
2272 2273 a 0
2273 2274 regular 0
2274 2275 basis 0
2275
2276 2277 exercise 0
2277
2278 2279 exercise 0
2279
2280 2281 who 0
2281 2282 exercise 0
2281 2296 regularly 0
2282 2283 regularly 0
2282 2288 on 0
2283
2284 2285 who 0
2285 2286 exercise 0
2285 2298 regularly 0
2286 2287 regularly 0
2286 2292 on 0
2287
2288 2289 a 0
2289 2290 regular 0
2290 2291 basis 0
2291
2292 2293 a 0
2293 2294 regular 0
2294 2295 basis 0
2295
2296 2297 exercise 0
2297
2298 2299 exercise 0
2299
2300 2409 for 0
2300 2301 of 0
2301 2313 cancer 0
2301 2302 developing 0
2302 2303 cancer 0
2303 2304 and 0
2304 2305 cancer 0
2305 2306 is 0
2306 2307 lower 0
2307 2505 for 0
2307 2308 in 0
2308 2309 people, 0
2308 2335 those, 0
2309 2310 who 0
2310 2311 exercise 0
2310 2331 regularly 0
2311 2312 regularly 0
2311 2323 on 0
2312
2313 2314 and 0
2314 2315 cancer 0
2315 2316 is 0
2316 2317 lower 0
2317 2510 for 0
2317 2318 in 0
2318 2319 people, 0
2318 2339 those, 0
2319 2320 who 0
2320 2321 exercise 0
2320 2333 regularly 0
2321 2322 regularly 0
2321 2327 on 0
2322
2323 2324 a 0
2324 2325 regular 0
2325 2326 basis 0
2326
2327 2328 a 0
2328 2329 regular 0
2329 2330 basis 0
2330
2331 2332 exercise 0
2332
2333 2334 exercise 0
2334
2335 2336 who 0
2336 2337 exercise 0
2336 2351 regularly 0
2337 2338 regularly 0
2337 2343 on 0
2338
2339 2340 who 0
2340 2341 exercise 0
2340 2353 regularly 0
2341 2342 regularly 0
2341 2347 on 0
2342
2343 2344 a 0
2344 2345 regular 0
2345 2346 basis 0
2346
2347 2348 a 0
2348 2349 regular 0
2349 2350 basis 0
2350
2351 2352 exercise 0
2352
2353 2354 exercise 0
2354
2355 2367 cancer 0
2355 2356 developing 0
2356 2357 cancer 0
2357 2358 and 0
2358 2359 cancer 0
2359 2360 is 0
2360 2361 lower 0
2361 2547 for 0
2361 2362 in 0
2362 2363 people, 0
2362 2389 those, 0
2363 2364 who 0
2364 2365 exercise 0
2364 2385 regularly 0
2365 2366 regularly 0
2365 2377 on 0
2366
2367 2368 and 0
2368 2369 cancer 0
2369 2370 is 0
2370 2371 lower 0
2371 2552 for 0
2371 2372 in 0
2372 2373 people, 0
2372 2393 those, 0
2373 2374 who 0
2374 2375 exercise 0
2374 2387 regularly 0
2375 2376 regularly 0
2375 2381 on 0
2376
2377 2378 a 0
2378 2379 regular 0
2379 2380 basis 0
2380
2381 2382 a 0
2382 2383 regular 0
2383 2384 basis 0
2384
2385 2386 exercise 0
2386
2387 2388 exercise 0
2388
2389 2390 who 0
2390 2391 exercise 0
2390 2405 regularly 0
2391 2392 regularly 0
2391 2397 on 0
2392
2393 2394 who 0
2394 2395 exercise 0
2394 2407 regularly 0
2395 2396 regularly 0
2395 2401 on 0
2396
2397 2398 a 0
2398 2399 regular 0
2399 2400 basis 0
2400
2401 2402 a 0
2402 2403 regular 0
2403 2404 basis 0
2404
2405 2406 exercise 0
2406
2407 2408 exercise 0
2408
2409 2421 cancer 0
2409 2410 developing 0
2410 2411 cancer 0
2411 2412 and 0
2412 2413 cancer 0
2413 2414 is 0
2414 2415 lower 0
2415 2589 for 0
2415 2416 in 0
2416 2417 people, 0
2416 2443 those, 0
2417 2418 who 0
2418 2419 exercise 0
2418 2439 regularly 0
2419 2420 regularly 0
2419 2431 on 0
2420
2421 2422 and 0
2422 2423 cancer 0
2423 2424 is 0
2424 2425 lower 0
2425 2594 for 0
2425 2426 in 0
2426 2427 people, 0
2426 2447 those, 0
2427 2428 who 0
2428 2429 exercise 0
2428 2441 regularly 0
2429 2430 regularly 0
2429 2435 on 0
2430
2431 2432 a 0
2432 2433 regular 0
2433 2434 basis 0
2434
2435 2436 a 0
2436 2437 regular 0
2437 2438 basis 0
2438
2439 2440 exercise 0
2440
2441 2442 exercise 0
2442
2443 2444 who 0
2444 2445 exercise 0
2444 2459 regularly 0
2445 2446 regularly 0
2445 2451 on 0
2446
2447 2448 who 0
2448 2449 exercise 0
2448 2461 regularly 0
2449 2450 regularly 0
2449 2455 on 0
2450
2451 2452 a 0
2452 2453 regular 0
2453 2454 basis 0
2454
2455 2456 a 0
2456 2457 regular 0
2457 2458 basis 0
2458
2459 2460 exercise 0
2460
2461 2462 exercise 0
2462
2463 2464 people, 0
2463 2485 those, 0
2464 2465 who 0
2465 2466 exercise 0
2465 2481 regularly 0
2466 2467 regularly 0
2466 2473 on 0
2467
2468 2469 people, 0
2468 2489 those, 0
2469 2470 who 0
2470 2471 exercise 0
2470 2483 regularly 0
2471 2472 regularly 0
2471 2477 on 0
2472
2473 2474 a 0
2474 2475 regular 0
2475 2476 basis 0
2476
2477 2478 a 0
2478 2479 regular 0
2479 2480 basis 0
2480
2481 2482 exercise 0
2482
2483 2484 exercise 0
2484
2485 2486 who 0
2486 2487 exercise 0
2486 2501 regularly 0
2487 2488 regularly 0
2487 2493 on 0
2488
2489 2490 who 0
2490 2491 exercise 0
2490 2503 regularly 0
2491 2492 regularly 0
2491 2497 on 0
2492
2493 2494 a 0
2494 2495 regular 0
2495 2496 basis 0
2496
2497 2498 a 0
2498 2499 regular 0
2499 2500 basis 0
2500
2501 2502 exercise 0
2502
2503 2504 exercise 0
2504
2505 2506 people, 0
2505 2527 those, 0
2506 2507 who 0
2507 2508 exercise 0
2507 2523 regularly 0
2508 2509 regularly 0
2508 2515 on 0
2509
2510 2511 people, 0
2510 2531 those, 0
2511 2512 who 0
2512 2513 exercise 0
2512 2525 regularly 0
2513 2514 regularly 0
2513 2519 on 0
2514
2515 2516 a 0
2516 2517 regular 0
2517 2518 basis 0
2518
2519 2520 a 0
2520 2521 regular 0
2521 2522 basis 0
2522
2523 2524 exercise 0
2524
2525 2526 exercise 0
2526
2527 2528 who 0
2528 2529 exercise 0
2528 2543 regularly 0
2529 2530 regularly 0
2529 2535 on 0
2530
2531 2532 who 0
2532 2533 exercise 0
2532 2545 regularly 0
2533 2534 regularly 0
2533 2539 on 0
2534
2535 2536 a 0
2536 2537 regular 0
2537 2538 basis 0
2538
2539 2540 a 0
2540 2541 regular 0
2541 2542 basis 0
2542
2543 2544 exercise 0
2544
2545 2546 exercise 0
2546
2547 2548 people, 0
2547 2569 those, 0
2548 2549 who 0
2549 2550 exercise 0
2549 2565 regularly 0
2550 2551 regularly 0
2550 2557 on 0
2551
2552 2553 people, 0
2552 2573 those, 0
2553 2554 who 0
2554 2555 exercise 0
2554 2567 regularly 0
2555 2556 regularly 0
2555 2561 on 0
2556
2557 2558 a 0
2558 2559 regular 0
2559 2560 basis 0
2560
2561 2562 a 0
2562 2563 regular 0
2563 2564 basis 0
2564
2565 2566 exercise 0
2566
2567 2568 exercise 0
2568
2569 2570 who 0
2570 2571 exercise 0
2570 2585 regularly 0
2571 2572 regularly 0
2571 2577 on 0
2572
2573 2574 who 0
2574 2575 exercise 0
2574 2587 regularly 0
2575 2576 regularly 0
2575 2581 on 0
2576
2577 2578 a 0
2578 2579 regular 0
2579 2580 basis 0
2580
2581 2582 a 0
2582 2583 regular 0
2583 2584 basis 0
2584
2585 2586 exercise 0
2586
2587 2588 exercise 0
2588
2589 2590 people, 0
2589 2611 those, 0
2590 2591 who 0
2591 2592 exercise 0
2591 2607 regularly 0
2592 2593 regularly 0
2592 2599 on 0
2593
2594 2595 people, 0
2594 2615 those, 0
2595 2596 who 0
2596 2597 exercise 0
2596 2609 regularly 0
2597 2598 regularly 0
2597 2603 on 0
2598
2599 2600 a 0
2600 2601 regular 0
2601 2602 basis 0
2602
2603 2604 a 0
2604 2605 regular 0
2605 2606 basis 0
2606
2607 2608 exercise 0
2608
2609 2610 exercise 0
2610
2611 2612 who 0
2612 2613 exercise 0
2612 2627 regularly 0
2613 2614 regularly 0
2613 2619 on 0
2614
2615 2616 who 0
2616 2617 exercise 0
2616 2629 regularly 0
2617 2618 regularly 0
2617 2623 on 0
2618
2619 2620 a 0
2620 2621 regular 0
2621 2622 basis 0
2622
2623 2624 a 0
2624 2625 regular 0
2625 2626 basis 0
2626
2627 2628 exercise 0
2628
2629 2630 exercise 0
2630
2631 2687 risk 0
2631 2632 chance 0
2631 3018 chances 0
2631 3073 risks 0
2632 2742 for 0
2632 2633 of 0
2633 2645 cancer 0
2633 2634 developing 0
2634 2635 cancer 0
2635 2636 and 0
2636 2637 cancer 0
2637 2638 is 0
2638 2639 lower 0
2639 2850 for 0
2639 2640 in 0
2640 2641 people, 0
2640 2667 those, 0
2641 2642 who 0
2642 2643 exercise 0
2642 2663 regularly 0
2643 2644 regularly 0
2643 2655 on 0
2644
2645 2646 and 0
2646 2647 cancer 0
2647 2648 is 0
2648 2649 lower 0
2649 2855 for 0
2649 2650 in 0
2650 2651 people, 0
2650 2671 those, 0
2651 2652 who 0
2652 2653 exercise 0
2652 2665 regularly 0
2653 2654 regularly 0
2653 2659 on 0
2654
2655 2656 a 0
2656 2657 regular 0
2657 2658 basis 0
2658
2659 2660 a 0
2660 2661 regular 0
2661 2662 basis 0
2662
2663 2664 exercise 0
2664
2665 2666 exercise 0
2666
2667 2668 who 0
2668 2669 exercise 0
2668 2683 regularly 0
2669 2670 regularly 0
2669 2675 on 0
2670
2671 2672 who 0
2672 2673 exercise 0
2672 2685 regularly 0
2673 2674 regularly 0
2673 2679 on 0
2674
2675 2676 a 0
2676 2677 regular 0
2677 2678 basis 0
2678
2679 2680 a 0
2680 2681 regular 0
2681 2682 basis 0
2682
2683 2684 exercise 0
2684
2685 2686 exercise 0
2686
2687 2796 for 0
2687 2688 of 0
2688 2700 cancer 0
2688 2689 developing 0
2689 2690 cancer 0
2690 2691 and 0
2691 2692 cancer 0
2692 2693 is 0
2693 2694 lower 0
2694 2892 for 0
2694 2695 in 0
2695 2696 people, 0
2695 2722 those, 0
2696 2697 who 0
2697 2698 exercise 0
2697 2718 regularly 0
2698 2699 regularly 0
2698 2710 on 0
2699
2700 2701 and 0
2701 2702 cancer 0
2702 2703 is 0
2703 2704 lower 0
2704 2897 for 0
2704 2705 in 0
2705 2706 people, 0
2705 2726 those, 0
2706 2707 who 0
2707 2708 exercise 0
2707 2720 regularly 0
2708 2709 regularly 0
2708 2714 on 0
2709
2710 2711 a 0
2711 2712 regular 0
2712 2713 basis 0
2713
2714 2715 a 0
2715 2716 regular 0
2716 2717 basis 0
2717
2718 2719 exercise 0
2719
2720 2721 exercise 0
2721
2722 2723 who 0
2723 2724 exercise 0
2723 2738 regularly 0
2724 2725 regularly 0
2724 2730 on 0
2725
2726 2727 who 0
2727 2728 exercise 0
2727 2740 regularly 0
2728 2729 regularly 0
2728 2734 on 0
2729
2730 2731 a 0
2731 2732 regular 0
2732 2733 basis 0
2733
2734 2735 a 0
2735 2736 regular 0
2736 2737 basis 0
2737
2738 2739 exercise 0
2739
2740 2741 exercise 0
2741
2742 2754 cancer 0
2742 2743 developing 0
2743 2744 cancer 0
2744 2745 and 0
2745 2746 cancer 0
2746 2747 is 0
2747 2748 lower 0
2748 2934 for 0
2748 2749 in 0
2749 2750 people, 0
2749 2776 those, 0
2750 2751 who 0
2751 2752 exercise 0
2751 2772 regularly 0
2752 2753 regularly 0
2752 2764 on 0
2753
2754 2755 and 0
2755 2756 cancer 0
2756 2757 is 0
2757 2758 lower 0
2758 2939 for 0
2758 2759 in 0
2759 2760 people, 0
2759 2780 those, 0
2760 2761 who 0
2761 2762 exercise 0
2761 2774 regularly 0
2762 2763 regularly 0
2762 2768 on 0
2763
2764 2765 a 0
2765 2766 regular 0
2766 2767 basis 0
2767
2768 2769 a 0
2769 2770 regular 0
2770 2771 basis 0
2771
2772 2773 exercise 0
2773
2774 2775 exercise 0
2775
2776 2777 who 0
2777 2778 exercise 0
2777 2792 regularly 0
2778 2779 regularly 0
2778 2784 on 0
2779
2780 2781 who 0
2781 2782 exercise 0
2781 2794 regularly 0
2782 2783 regularly 0
2782 2788 on 0
2783
2784 2785 a 0
2785 2786 regular 0
2786 2787 basis 0
2787
2788 2789 a 0
2789 2790 regular 0
2790 2791 basis 0
2791
2792 2793 exercise 0
2793
2794 2795 exercise 0
2795
2796 2808 cancer 0
2796 2797 developing 0
2797 2798 cancer 0
2798 2799 and 0
2799 2800 cancer 0
2800 2801 is 0
2801 2802 lower 0
2802 2976 for 0
2802 2803 in 0
2803 2804 people, 0
2803 2830 those, 0
2804 2805 who 0
2805 2806 exercise 0
2805 2826 regularly 0
2806 2807 regularly 0
2806 2818 on 0
2807
2808 2809 and 0
2809 2810 cancer 0
2810 2811 is 0
2811 2812 lower 0
2812 2981 for 0
2812 2813 in 0
2813 2814 people, 0
2813 2834 those, 0
2814 2815 who 0
2815 2816 exercise 0
2815 2828 regularly 0
2816 2817 regularly 0
2816 2822 on 0
2817
2818 2819 a 0
2819 2820 regular 0
2820 2821 basis 0
2821
2822 2823 a 0
2823 2824 regular 0
2824 2825 basis 0
2825
2826 2827 exercise 0
2827
2828 2829 exercise 0
2829
2830 2831 who 0
2831 2832 exercise 0
2831 2846 regularly 0
2832 2833 regularly 0
2832 2838 on 0
2833
2834 2835 who 0
2835 2836 exercise 0
2835 2848 regularly 0
2836 2837 regularly 0
2836 2842 on 0
2837
2838 2839 a 0
2839 2840 regular 0
2840 2841 basis 0
2841
2842 2843 a 0
2843 2844 regular 0
2844 2845 basis 0
2845
2846 2847 exercise 0
2847
2848 2849 exercise 0
2849
2850 2851 people, 0
2850 2872 those, 0
2851 2852 who 0
2852 2853 exercise 0
2852 2868 regularly 0
2853 2854 regularly 0
2853 2860 on 0
2854
2855 2856 people, 0
2855 2876 those, 0
2856 2857 who 0
2857 2858 exercise 0
2857 2870 regularly 0
2858 2859 regularly 0
2858 2864 on 0
2859
2860 2861 a 0
2861 2862 regular 0
2862 2863 basis 0
2863
2864 2865 a 0
2865 2866 regular 0
2866 2867 basis 0
2867
2868 2869 exercise 0
2869
2870 2871 exercise 0
2871
2872 2873 who 0
2873 2874 exercise 0
2873 2888 regularly 0
2874 2875 regularly 0
2874 2880 on 0
2875
2876 2877 who 0
2877 2878 exercise 0
2877 2890 regularly 0
2878 2879 regularly 0
2878 2884 on 0
2879
2880 2881 a 0
2881 2882 regular 0
2882 2883 basis 0
2883
2884 2885 a 0
2885 2886 regular 0
2886 2887 basis 0
2887
2888 2889 exercise 0
2889
2890 2891 exercise 0
2891
2892 2893 people, 0
2892 2914 those, 0
2893 2894 who 0
2894 2895 exercise 0
2894 2910 regularly 0
2895 2896 regularly 0
2895 2902 on 0
2896
2897 2898 people, 0
2897 2918 those, 0
2898 2899 who 0
2899 2900 exercise 0
2899 2912 regularly 0
2900 2901 regularly 0
2900 2906 on 0
2901
2902 2903 a 0
2903 2904 regular 0
2904 2905 basis 0
2905
2906 2907 a 0
2907 2908 regular 0
2908 2909 basis 0
2909
2910 2911 exercise 0
2911
2912 2913 exercise 0
2913
2914 2915 who 0
2915 2916 exercise 0
2915 2930 regularly 0
2916 2917 regularly 0
2916 2922 on 0
2917
2918 2919 who 0
2919 2920 exercise 0
2919 2932 regularly 0
2920 2921 regularly 0
2920 2926 on 0
2921
2922 2923 a 0
2923 2924 regular 0
2924 2925 basis 0
2925
2926 2927 a 0
2927 2928 regular 0
2928 2929 basis 0
2929
2930 2931 exercise 0
2931
2932 2933 exercise 0
2933
2934 2935 people, 0
2934 2956 those, 0
2935 2936 who 0
2936 2937 exercise 0
2936 2952 regularly 0
2937 2938 regularly 0
2937 2944 on 0
2938
2939 2940 people, 0
2939 2960 those, 0
2940 2941 who 0
2941 2942 exercise 0
2941 2954 regularly 0
2942 2943 regularly 0
2942 2948 on 0
2943
2944 2945 a 0
2945 2946 regular 0
2946 2947 basis 0
2947
2948 2949 a 0
2949 2950 regular 0
2950 2951 basis 0
2951
2952 2953 exercise 0
2953
2954 2955 exercise 0
2955
2956 2957 who 0
2957 2958 exercise 0
2957 2972 regularly 0
2958 2959 regularly 0
2958 2964 on 0
2959
2960 2961 who 0
2961 2962 exercise 0
2961 2974 regularly 0
2962 2963 regularly 0
2962 2968 on 0
2963
2964 2965 a 0
2965 2966 regular 0
2966 2967 basis 0
2967
2968 2969 a 0
2969 2970 regular 0
2970 2971 basis 0
2971
2972 2973 exercise 0
2973
2974 2975 exercise 0
2975
2976 2977 people, 0
2976 2998 those, 0
2977 2978 who 0
2978 2979 exercise 0
2978 2994 regularly 0
2979 2980 regularly 0
2979 2986 on 0
2980
2981 2982 people, 0
2981 3002 those, 0
2982 2983 who 0
2983 2984 exercise 0
2983 2996 regularly 0
2984 2985 regularly 0
2984 2990 on 0
2985
2986 2987 a 0
2987 2988 regular 0
2988 2989 basis 0
2989
2990 2991 a 0
2991 2992 regular 0
2992 2993 basis 0
2993
2994 2995 exercise 0
2995
2996 2997 exercise 0
2997
2998 2999 who 0
2999 3000 exercise 0
2999 3014 regularly 0
3000 3001 regularly 0
3000 3006 on 0
3001
3002 3003 who 0
3003 3004 exercise 0
3003 3016 regularly 0
3004 3005 regularly 0
3004 3010 on 0
3005
3006 3007 a 0
3007 3008 regular 0
3008 3009 basis 0
3009
3010 3011 a 0
3011 3012 regular 0
3012 3013 basis 0
3013
3014 3015 exercise 0
3015
3016 3017 exercise 0
3017
3018 3128 for 0
3018 3019 of 0
3019 3031 cancer 0
3019 3020 developing 0
3020 3021 cancer 0
3021 3022 and 0
3022 3023 cancer 0
3023 3024 are 0
3024 3025 lower 0
3025 3236 for 0
3025 3026 in 0
3026 3027 people, 0
3026 3053 those, 0
3027 3028 who 0
3028 3029 exercise 0
3028 3049 regularly 0
3029 3030 regularly 0
3029 3041 on 0
3030
3031 3032 and 0
3032 3033 cancer 0
3033 3034 are 0
3034 3035 lower 0
3035 3241 for 0
3035 3036 in 0
3036 3037 people, 0
3036 3057 those, 0
3037 3038 who 0
3038 3039 exercise 0
3038 3051 regularly 0
3039 3040 regularly 0
3039 3045 on 0
3040
3041 3042 a 0
3042 3043 regular 0
3043 3044 basis 0
3044
3045 3046 a 0
3046 3047 regular 0
3047 3048 basis 0
3048
3049 3050 exercise 0
3050
3051 3052 exercise 0
3052
3053 3054 who 0
3054 3055 exercise 0
3054 3069 regularly 0
3055 3056 regularly 0
3055 3061 on 0
3056
3057 3058 who 0
3058 3059 exercise 0
3058 3071 regularly 0
3059 3060 regularly 0
3059 3065 on 0
3060
3061 3062 a 0
3062 3063 regular 0
3063 3064 basis 0
3064
3065 3066 a 0
3066 3067 regular 0
3067 3068 basis 0
3068
3069 3070 exercise 0
3070
3071 3072 exercise 0
3072
3073 3182 for 0
3073 3074 of 0
3074 3086 cancer 0
3074 3075 developing 0
3075 3076 cancer 0
3076 3077 and 0
3077 3078 cancer 0
3078 3079 are 0
3079 3080 lower 0
3080 3278 for 0
3080 3081 in 0
3081 3082 people, 0
3081 3108 those, 0
3082 3083 who 0
3083 3084 exercise 0
3083 3104 regularly 0
3084 3085 regularly 0
3084 3096 on 0
3085
3086 3087 and 0
3087 3088 cancer 0
3088 3089 are 0
3089 3090 lower 0
3090 3283 for 0
3090 3091 in 0
3091 3092 people, 0
3091 3112 those, 0
3092 3093 who 0
3093 3094 exercise 0
3093 3106 regularly 0
3094 3095 regularly 0
3094 3100 on 0
3095
3096 3097 a 0
3097 3098 regular 0
3098 3099 basis 0
3099
3100 3101 a 0
3101 3102 regular 0
3102 3103 basis 0
3103
3104 3105 exercise 0
3105
3106 3107 exercise 0
3107
3108 3109 who 0
3109 3110 exercise 0
3109 3124 regularly 0
3110 3111 regularly 0
3110 3116 on 0
3111
3112 3113 who 0
3113 3114 exercise 0
3113 3126 regularly 0
3114 3115 regularly 0
3114 3120 on 0
3115
3116 3117 a 0
3117 3118 regular 0
3118 3119 basis 0
3119
3120 3121 a 0
3121 3122 regular 0
3122 3123 basis 0
3123
3124 3125 exercise 0
3125
3126 3127 exercise 0
3127
3128 3140 cancer 0
3128 3129 developing 0
3129 3130 cancer 0
3130 3131 and 0
3131 3132 cancer 0
3132 3133 are 0
3133 3134 lower 0
3134 3320 for 0
3134 3135 in 0
3135 3136 people, 0
3135 3162 those, 0
3136 3137 who 0
3137 3138 exercise 0
3137 3158 regularly 0
3138 3139 regularly 0
3138 3150 on 0
3139
3140 3141 and 0
3141 3142 cancer 0
3142 3143 are 0
3143 3144 lower 0
3144 3325 for 0
3144 3145 in 0
3145 3146 people, 0
3145 3166 those, 0
3146 3147 who 0
3147 3148 exercise 0
3147 3160 regularly 0
3148 3149 regularly 0
3148 3154 on 0
3149
3150 3151 a 0
3151 3152 regular 0
3152 3153 basis 0
3153
3154 3155 a 0
3155 3156 regular 0
3156 3157 basis 0
3157
3158 3159 exercise 0
3159
3160 3161 exercise 0
3161
3162 3163 who 0
3163 3164 exercise 0
3163 3178 regularly 0
3164 3165 regularly 0
3164 3170 on 0
3165
3166 3167 who 0
3167 3168 exercise 0
3167 3180 regularly 0
3168 3169 regularly 0
3168 3174 on 0
3169
3170 3171 a 0
3171 3172 regular 0
3172 3173 basis 0
3173
3174 3175 a 0
3175 3176 regular 0
3176 3177 basis 0
3177
3178 3179 exercise 0
3179
3180 3181 exercise 0
3181
3182 3194 cancer 0
3182 3183 developing 0
3183 3184 cancer 0
3184 3185 and 0
3185 3186 cancer 0
3186 3187 are 0
3187 3188 lower 0
3188 3362 for 0
3188 3189 in 0
3189 3190 people, 0
3189 3216 those, 0
3190 3191 who 0
3191 3192 exercise 0
3191 3212 regularly 0
3192 3193 regularly 0
3192 3204 on 0
3193
3194 3195 and 0
3195 3196 cancer 0
3196 3197 are 0
3197 3198 lower 0
3198 3367 for 0
3198 3199 in 0
3199 3200 people, 0
3199 3220 those, 0
3200 3201 who 0
3201 3202 exercise 0
3201 3214 regularly 0
3202 3203 regularly 0
3202 3208 on 0
3203
3204 3205 a 0
3205 3206 regular 0
3206 3207 basis 0
3207
3208 3209 a 0
3209 3210 regular 0
3210 3211 basis 0
3211
3212 3213 exercise 0
3213
3214 3215 exercise 0
3215
3216 3217 who 0
3217 3218 exercise 0
3217 3232 regularly 0
3218 3219 regularly 0
3218 3224 on 0
3219
3220 3221 who 0
3221 3222 exercise 0
3221 3234 regularly 0
3222 3223 regularly 0
3222 3228 on 0
3223
3224 3225 a 0
3225 3226 regular 0
3226 3227 basis 0
3227
3228 3229 a 0
3229 3230 regular 0
3230 3231 basis 0
3231
3232 3233 exercise 0
3233
3234 3235 exercise 0
3235
3236 3237 people, 0
3236 3258 those, 0
3237 3238 who 0
3238 3239 exercise 0
3238 3254 regularly 0
3239 3240 regularly 0
3239 3246 on 0
3240
3241 3242 people, 0
3241 3262 those, 0
3242 3243 who 0
3243 3244 exercise 0
3243 3256 regularly 0
3244 3245 regularly 0
3244 3250 on 0
3245
3246 3247 a 0
3247 3248 regular 0
3248 3249 basis 0
3249
3250 3251 a 0
3251 3252 regular 0
3252 3253 basis 0
3253
3254 3255 exercise 0
3255
3256 3257 exercise 0
3257
3258 3259 who 0
3259 3260 exercise 0
3259 3274 regularly 0
3260 3261 regularly 0
3260 3266 on 0
3261
3262 3263 who 0
3263 3264 exercise 0
3263 3276 regularly 0
3264 3265 regularly 0
3264 3270 on 0
3265
3266 3267 a 0
3267 3268 regular 0
3268 3269 basis 0
3269
3270 3271 a 0
3271 3272 regular 0
3272 3273 basis 0
3273
3274 3275 exercise 0
3275
3276 3277 exercise 0
3277
3278 3279 people, 0
3278 3300 those, 0
3279 3280 who 0
3280 3281 exercise 0
3280 3296 regularly 0
3281 3282 regularly 0
3281 3288 on 0
3282
3283 3284 people, 0
3283 3304 those, 0
3284 3285 who 0
3285 3286 exercise 0
3285 3298 regularly 0
3286 3287 regularly 0
3286 3292 on 0
3287
3288 3289 a 0
3289 3290 regular 0
3290 3291 basis 0
3291
3292 3293 a 0
3293 3294 regular 0
3294 3295 basis 0
3295
3296 3297 exercise 0
3297
3298 3299 exercise 0
3299
3300 3301 who 0
3301 3302 exercise 0
3301 3316 regularly 0
3302 3303 regularly 0
3302 3308 on 0
3303
3304 3305 who 0
3305 3306 exercise 0
3305 3318 regularly 0
3306 3307 regularly 0
3306 3312 on 0
3307
3308 3309 a 0
3309 3310 regular 0
3310 3311 basis 0
3311
3312 3313 a 0
3313 3314 regular 0
3314 3315 basis 0
3315
3316 3317 exercise 0
3317
3318 3319 exercise 0
3319
3320 3321 people, 0
3320 3342 those, 0
3321 3322 who 0
3322 3323 exercise 0
3322 3338 regularly 0
3323 3324 regularly 0
3323 3330 on 0
3324
3325 3326 people, 0
3325 3346 those, 0
3326 3327 who 0
3327 3328 exercise 0
3327 3340 regularly 0
3328 3329 regularly 0
3328 3334 on 0
3329
3330 3331 a 0
3331 3332 regular 0
3332 3333 basis 0
3333
3334 3335 a 0
3335 3336 regular 0
3336 3337 basis 0
3337
3338 3339 exercise 0
3339
3340 3341 exercise 0
3341
3342 3343 who 0
3343 3344 exercise 0
3343 3358 regularly 0
3344 3345 regularly 0
3344 3350 on 0
3345
3346 3347 who 0
3347 3348 exercise 0
3347 3360 regularly 0
3348 3349 regularly 0
3348 3354 on 0
3349
3350 3351 a 0
3351 3352 regular 0
3352 3353 basis 0
3353
3354 3355 a 0
3355 3356 regular 0
3356 3357 basis 0
3357
3358 3359 exercise 0
3359
3360 3361 exercise 0
3361
3362 3363 people, 0
3362 3384 those, 0
3363 3364 who 0
3364 3365 exercise 0
3364 3380 regularly 0
3365 3366 regularly 0
3365 3372 on 0
3366
3367 3368 people, 0
3367 3388 those, 0
3368 3369 who 0
3369 3370 exercise 0
3369 3382 regularly 0
3370 3371 regularly 0
3370 3376 on 0
3371
3372 3373 a 0
3373 3374 regular 0
3374 3375 basis 0
3375
3376 3377 a 0
3377 3378 regular 0
3378 3379 basis 0
3379
3380 3381 exercise 0
3381
3382 3383 exercise 0
3383
3384 3385 who 0
3385 3386 exercise 0
3385 3400 regularly 0
3386 3387 regularly 0
3386 3392 on 0
3387
3388 3389 who 0
3389 3390 exercise 0
3389 3402 regularly 0
3390 3391 regularly 0
3390 3396 on 0
3391
3392 3393 a 0
3393 3394 regular 0
3394 3395 basis 0
3395
3396 3397 a 0
3397 3398 regular 0
3398 3399 basis 0
3399
3400 3401 exercise 0
3401
3402 3403 exercise 0
3403
3404 3514 for 0
3404 3405 of 0
3405 3417 cancer 0
3405 3406 developing 0
3406 3407 cancer 0
3407 3408 and 0
3408 3409 cancer 0
3409 3410 are 0
3410 3411 lower 0
3411 3622 for 0
3411 3412 in 0
3412 3413 people, 0
3412 3439 those, 0
3413 3414 who 0
3414 3415 exercise 0
3414 3435 regularly 0
3415 3416 regularly 0
3415 3427 on 0
3416
3417 3418 and 0
3418 3419 cancer 0
3419 3420 are 0
3420 3421 lower 0
3421 3627 for 0
3421 3422 in 0
3422 3423 people, 0
3422 3443 those, 0
3423 3424 who 0
3424 3425 exercise 0
3424 3437 regularly 0
3425 3426 regularly 0
3425 3431 on 0
3426
3427 3428 a 0
3428 3429 regular 0
3429 3430 basis 0
3430
3431 3432 a 0
3432 3433 regular 0
3433 3434 basis 0
3434
3435 3436 exercise 0
3436
3437 3438 exercise 0
3438
3439 3440 who 0
3440 3441 exercise 0
3440 3455 regularly 0
3441 3442 regularly 0
3441 3447 on 0
3442
3443 3444 who 0
3444 3445 exercise 0
3444 3457 regularly 0
3445 3446 regularly 0
3445 3451 on 0
3446
3447 3448 a 0
3448 3449 regular 0
3449 3450 basis 0
3450
3451 3452 a 0
3452 3453 regular 0
3453 3454 basis 0
3454
3455 3456 exercise 0
3456
3457 3458 exercise 0
3458
3459 3568 for 0
3459 3460 of 0
3460 3472 cancer 0
3460 3461 developing 0
3461 3462 cancer 0
3462 3463 and 0
3463 3464 cancer 0
3464 3465 are 0
3465 3466 lower 0
3466 3664 for 0
3466 3467 in 0
3467 3468 people, 0
3467 3494 those, 0
3468 3469 who 0
3469 3470 exercise 0
3469 3490 regularly 0
3470 3471 regularly 0
3470 3482 on 0
3471
3472 3473 and 0
3473 3474 cancer 0
3474 3475 are 0
3475 3476 lower 0
3476 3669 for 0
3476 3477 in 0
3477 3478 people, 0
3477 3498 those, 0
3478 3479 who 0
3479 3480 exercise 0
3479 3492 regularly 0
3480 3481 regularly 0
3480 3486 on 0
3481
3482 3483 a 0
3483 3484 regular 0
3484 3485 basis 0
3485
3486 3487 a 0
3487 3488 regular 0
3488 3489 basis 0
3489
3490 3491 exercise 0
3491
3492 3493 exercise 0
3493
3494 3495 who 0
3495 3496 exercise 0
3495 3510 regularly 0
3496 3497 regularly 0
3496 3502 on 0
3497
3498 3499 who 0
3499 3500 exercise 0
3499 3512 regularly 0
3500 3501 regularly 0
3500 3506 on 0
3501
3502 3503 a 0
3503 3504 regular 0
3504 3505 basis 0
3505
3506 3507 a 0
3507 3508 regular 0
3508 3509 basis 0
3509
3510 3511 exercise 0
3511
3512 3513 exercise 0
3513
3514 3526 cancer 0
3514 3515 developing 0
3515 3516 cancer 0
3516 3517 and 0
3517 3518 cancer 0
3518 3519 are 0
3519 3520 lower 0
3520 3706 for 0
3520 3521 in 0
3521 3522 people, 0
3521 3548 those, 0
3522 3523 who 0
3523 3524 exercise 0
3523 3544 regularly 0
3524 3525 regularly 0
3524 3536 on 0
3525
3526 3527 and 0
3527 3528 cancer 0
3528 3529 are 0
3529 3530 lower 0
3530 3711 for 0
3530 3531 in 0
3531 3532 people, 0
3531 3552 those, 0
3532 3533 who 0
3533 3534 exercise 0
3533 3546 regularly 0
3534 3535 regularly 0
3534 3540 on 0
3535
3536 3537 a 0
3537 3538 regular 0
3538 3539 basis 0
3539
3540 3541 a 0
3541 3542 regular 0
3542 3543 basis 0
3543
3544 3545 exercise 0
3545
3546 3547 exercise 0
3547
3548 3549 who 0
3549 3550 exercise 0
3549 3564 regularly 0
3550 3551 regularly 0
3550 3556 on 0
3551
3552 3553 who 0
3553 3554 exercise 0
3553 3566 regularly 0
3554 3555 regularly 0
3554 3560 on 0
3555
3556 3557 a 0
3557 3558 regular 0
3558 3559 basis 0
3559
3560 3561 a 0
3561 3562 regular 0
3562 3563 basis 0
3563
3564 3565 exercise 0
3565
3566 3567 exercise 0
3567
3568 3580 cancer 0
3568 3569 developing 0
3569 3570 cancer 0
3570 3571 and 0
3571 3572 cancer 0
3572 3573 are 0
3573 3574 lower 0
3574 3748 for 0
3574 3575 in 0
3575 3576 people, 0
3575 3602 those, 0
3576 3577 who 0
3577 3578 exercise 0
3577 3598 regularly 0
3578 3579 regularly 0
3578 3590 on 0
3579
3580 3581 and 0
3581 3582 cancer 0
3582 3583 are 0
3583 3584 lower 0
3584 3753 for 0
3584 3585 in 0
3585 3586 people, 0
3585 3606 those, 0
3586 3587 who 0
3587 3588 exercise 0
3587 3600 regularly 0
3588 3589 regularly 0
3588 3594 on 0
3589
3590 3591 a 0
3591 3592 regular 0
3592 3593 basis 0
3593
3594 3595 a 0
3595 3596 regular 0
3596 3597 basis 0
3597
3598 3599 exercise 0
3599
3600 3601 exercise 0
3601
3602 3603 who 0
3603 3604 exercise 0
3603 3618 regularly 0
3604 3605 regularly 0
3604 3610 on 0
3605
3606 3607 who 0
3607 3608 exercise 0
3607 3620 regularly 0
3608 3609 regularly 0
3608 3614 on 0
3609
3610 3611 a 0
3611 3612 regular 0
3612 3613 basis 0
3613
3614 3615 a 0
3615 3616 regular 0
3616 3617 basis 0
3617
3618 3619 exercise 0
3619
3620 3621 exercise 0
3621
3622 3623 people, 0
3622 3644 those, 0
3623 3624 who 0
3624 3625 exercise 0
3624 3640 regularly 0
3625 3626 regularly 0
3625 3632 on 0
3626
3627 3628 people, 0
3627 3648 those, 0
3628 3629 who 0
3629 3630 exercise 0
3629 3642 regularly 0
3630 3631 regularly 0
3630 3636 on 0
3631
3632 3633 a 0
3633 3634 regular 0
3634 3635 basis 0
3635
3636 3637 a 0
3637 3638 regular 0
3638 3639 basis 0
3639
3640 3641 exercise 0
3641
3642 3643 exercise 0
3643
3644 3645 who 0
3645 3646 exercise 0
3645 3660 regularly 0
3646 3647 regularly 0
3646 3652 on 0
3647
3648 3649 who 0
3649 3650 exercise 0
3649 3662 regularly 0
3650 3651 regularly 0
3650 3656 on 0
3651
3652 3653 a 0
3653 3654 regular 0
3654 3655 basis 0
3655
3656 3657 a 0
3657 3658 regular 0
3658 3659 basis 0
3659
3660 3661 exercise 0
3661
3662 3663 exercise 0
3663
3664 3665 people, 0
3664 3686 those, 0
3665 3666 who 0
3666 3667 exercise 0
3666 3682 regularly 0
3667 3668 regularly 0
3667 3674 on 0
3668
3669 3670 people, 0
3669 3690 those, 0
3670 3671 who 0
3671 3672 exercise 0
3671 3684 regularly 0
3672 3673 regularly 0
3672 3678 on 0
3673
3674 3675 a 0
3675 3676 regular 0
3676 3677 basis 0
3677
3678 3679 a 0
3679 3680 regular 0
3680 3681 basis 0
3681
3682 3683 exercise 0
3683
3684 3685 exercise 0
3685
3686 3687 who 0
3687 3688 exercise 0
3687 3702 regularly 0
3688 3689 regularly 0
3688 3694 on 0
3689
3690 3691 who 0
3691 3692 exercise 0
3691 3704 regularly 0
3692 3693 regularly 0
3692 3698 on 0
3693
3694 3695 a 0
3695 3696 regular 0
3696 3697 basis 0
3697
3698 3699 a 0
3699 3700 regular 0
3700 3701 basis 0
3701
3702 3703 exercise 0
3703
3704 3705 exercise 0
3705
3706 3707 people, 0
3706 3728 those, 0
3707 3708 who 0
3708 3709 exercise 0
3708 3724 regularly 0
3709 3710 regularly 0
3709 3716 on 0
3710
3711 3712 people, 0
3711 3732 those, 0
3712 3713 who 0
3713 3714 exercise 0
3713 3726 regularly 0
3714 3715 regularly 0
3714 3720 on 0
3715
3716 3717 a 0
3717 3718 regular 0
3718 3719 basis 0
3719
3720 3721 a 0
3721 3722 regular 0
3722 3723 basis 0
3723
3724 3725 exercise 0
3725
3726 3727 exercise 0
3727
3728 3729 who 0
3729 3730 exercise 0
3729 3744 regularly 0
3730 3731 regularly 0
3730 3736 on 0
3731
3732 3733 who 0
3733 3734 exercise 0
3733 3746 regularly 0
3734 3735 regularly 0
3734 3740 on 0
3735
3736 3737 a 0
3737 3738 regular 0
3738 3739 basis 0
3739
3740 3741 a 0
3741 3742 regular 0
3742 3743 basis 0
3743
3744 3745 exercise 0
3745
3746 3747 exercise 0
3747
3748 3749 people, 0
3748 3770 those, 0
3749 3750 who 0
3750 3751 exercise 0
3750 3766 regularly 0
3751 3752 regularly 0
3751 3758 on 0
3752
3753 3754 people, 0
3753 3774 those, 0
3754 3755 who 0
3755 3756 exercise 0
3755 3768 regularly 0
3756 3757 regularly 0
3756 3762 on 0
3757
3758 3759 a 0
3759 3760 regular 0
3760 3761 basis 0
3761
3762 3763 a 0
3763 3764 regular 0
3764 3765 basis 0
3765
3766 3767 exercise 0
3767
3768 3769 exercise 0
3769
3770 3771 who 0
3771 3772 exercise 0
3771 3786 regularly 0
3772 3773 regularly 0
3772 3778 on 0
3773
3774 3775 who 0
3775 3776 exercise 0
3775 3788 regularly 0
3776 3777 regularly 0
3776 3782 on 0
3777
3778 3779 a 0
3779 3780 regular 0
3780 3781 basis 0
3781
3782 3783 a 0
3783 3784 regular 0
3784 3785 basis 0
3785
3786 3787 exercise 0
3787
3788 3789 exercise 0
3789
