1 2 säännöllisesti 0
1 3 niillä 0
1 4 säännöllinen 0
1 50 riskiä 0
1 52 vaaraa 0
1 53 mahdollisuutta 0
1 94 riski 0
1 96 vaara 0
1 97 mahdollisuus 0
1 221 liikuntaa 0
1 222 liikkumista 0
1 234 liikunnan 0
1 235 liikkumisen 0
1 236 ihmisellä 0
1 237 henkilöllä 0
1 241 ihmisillä 0
1 242 henkilöillä 0
1 252 masennuksen 0
1 253 masennukseen 0
1 257 masentumisen 0
10
100 126 syntyyn 0
100 127 synnystä 0
100 128 synnylle 0
100 129 kehittymisestä 0
100 130 kehittymiselle 0
100 131 kehittymiseen 0
101 111 syntyyn 0
101 112 synnystä 0
101 113 synnylle 0
101 114 kehittymisestä 0
101 115 kehittymiselle 0
101 116 kehittymiseen 0
102 110 sairastumiseen 0
102 258 on 0
103 125 sairastumiseen 0
103 259 on 0
104 123 sairastumisesta 0
104 124 sairastumiselle 0
104 125 sairastumiseen 0
104 259 on 0
105 108 sairastumisesta 0
105 109 sairastumiselle 0
105 110 sairastumiseen 0
105 258 on 0
106 258 on 0
107 258 on 0
108 258 on 0
109 258 on 0
11
110 258 on 0
111 258 on 0
112 258 on 0
113 258 on 0
114 258 on 0
115 258 on 0
116 258 on 0
117 258 on 0
118 258 on 0
119 258 on 0
12
120 258 on 0
121 258 on 0
122 259 on 0
123 259 on 0
124 259 on 0
125 259 on 0
126 259 on 0
127 259 on 0
128 259 on 0
129 259 on 0
13
130 259 on 0
131 259 on 0
132 259 on 0
133 259 on 0
134 259 on 0
135 259 on 0
136 259 on 0
137 142 masennuksen 0
137 145 masennukseen 0
137 153 masentumisen 0
137 211 riski 0
137 212 vaara 0
137 213 mahdollisuus 0
138 142 masennuksen 0
138 145 masennukseen 0
138 153 masentumisen 0
138 211 riski 0
138 212 vaara 0
138 213 mahdollisuus 0
139 143 masennuksen 0
139 144 masennukseen 0
139 149 masentumisen 0
139 211 riski 0
14
140 143 masennuksen 0
140 144 masennukseen 0
140 149 masentumisen 0
140 211 riski 0
141 143 masennuksen 0
141 144 masennukseen 0
141 149 masentumisen 0
141 211 riski 0
142 33 vaara 0
142 34 riski 0
142 35 mahdollisuus 0
142 151 synnyn 0
142 152 kehittymisen 0
143 34 riski 0
143 147 synnyn 0
143 148 kehittymisen 0
144 146 sairastumisen 0
145 150 sairastumisen 0
146 34 riski 0
147 34 riski 0
148 34 riski 0
149 34 riski 0
15
150 33 vaara 0
150 34 riski 0
150 35 mahdollisuus 0
151 33 vaara 0
151 34 riski 0
151 35 mahdollisuus 0
152 33 vaara 0
152 34 riski 0
152 35 mahdollisuus 0
153 33 vaara 0
153 34 riski 0
153 35 mahdollisuus 0
154 31 masentumista 0
154 32 masennusta 0
154 156 masennuksen 0
154 157 masennukseen 0
155 31 masentumista 0
155 32 masennusta 0
155 156 masennuksen 0
155 157 masennukseen 0
156 29 syntyä 0
156 30 kehittymistä 0
157 28 sairastumista 0
158 162 masennukseen 0
158 171 masentumisen 0
158 172 masennuksen 0
158 208 riskiä 0
158 209 vaaraa 0
158 210 mahdollisuutta 0
158 216 masentumis 0
158 217 masennus 0
158 25 masentumisBINDriskiä 0
158 25 masennusBINDriskiä 0
159 162 masennukseen 0
159 171 masentumisen 0
159 172 masennuksen 0
159 208 riskiä 0
159 209 vaaraa 0
159 210 mahdollisuutta 0
159 216 masentumis 0
159 217 masennus 0
159 25 masentumisBINDriskiä 0
159 25 masennusBINDriskiä 0
16
160 161 masennukseen 0
160 167 masentumisen 0
160 173 masennuksen 0
160 208 riskiä 0
160 216 masentumis 0
160 217 masennus 0
160 25 masentumisBINDriskiä 0
160 25 masennusBINDriskiä 0
161 166 sairastumisen 0
162 170 sairastumisen 0
163 25 riskiä 0
164 25 riskiä 0
165 25 riskiä 0
166 25 riskiä 0
167 25 riskiä 0
168 25 riskiä 0
168 26 vaaraa 0
168 27 mahdollisuutta 0
169 25 riskiä 0
169 26 vaaraa 0
169 27 mahdollisuutta 0
17
170 25 riskiä 0
170 26 vaaraa 0
170 27 mahdollisuutta 0
171 25 riskiä 0
171 26 vaaraa 0
171 27 mahdollisuutta 0
172 25 riskiä 0
172 26 vaaraa 0
172 27 mahdollisuutta 0
172 168 synnyn 0
172 169 kehittymisen 0
173 25 riskiä 0
173 164 synnyn 0
173 165 kehittymisen 0
174 43 liikuntaa 0
174 44 liikkumista 0
175 24 säännöllisesti 0
176 22 liikunnalla 0
176 23 liikkumisella 0
176 181 liikunnan 0
176 182 liikkumisen 0
177 174 harrastamalla 0
177 175 liikkumalla 0
177 176 säännöllisellä 0
177 183 liikunnan 0
177 184 liikkumisen 0
178 174 harrastamalla 0
178 175 liikkumalla 0
178 176 säännöllisellä 0
178 183 liikunnan 0
178 184 liikkumisen 0
179 174 harrastamalla 0
179 175 liikkumalla 0
179 176 säännöllisellä 0
179 183 liikunnan 0
179 184 liikkumisen 0
18
180 21 harrastamisella 0
181 21 harrastamisella 0
182 21 harrastamisella 0
183 21 harrastamisella 0
183 180 säännöllisellä 0
184 21 harrastamisella 0
184 180 säännöllisellä 0
185 201 säännöllisesti 0
186 201 säännöllisesti 0
187 186 liikkuu 0
188 45 liikkuvalla 0
188 46 liikkuvilla 0
188 194 liikuntaa 0
188 195 liikkumista 0
189 188 säännöllisesti 0
189 194 liikuntaa 0
189 195 liikkumista 0
189 196 liikunnan 0
189 197 liikkumisen 0
189 198 ihmisellä 0
189 199 henkilöllä 0
189 203 niillä 0
189 204 ihmisillä 0
189 205 henkilöillä 0
19
190 188 säännöllisesti 0
190 194 liikuntaa 0
190 195 liikkumista 0
190 196 liikunnan 0
190 197 liikkumisen 0
190 198 ihmisellä 0
190 199 henkilöllä 0
190 203 niillä 0
190 204 ihmisillä 0
190 205 henkilöillä 0
191 188 säännöllisesti 0
191 194 liikuntaa 0
191 195 liikkumista 0
191 196 liikunnan 0
191 197 liikkumisen 0
191 198 ihmisellä 0
191 199 henkilöllä 0
191 203 niillä 0
191 204 ihmisillä 0
191 205 henkilöillä 0
192 188 säännöllisesti 0
192 194 liikuntaa 0
192 195 liikkumista 0
192 196 liikunnan 0
192 197 liikkumisen 0
192 198 ihmisellä 0
192 199 henkilöllä 0
192 203 niillä 0
192 204 ihmisillä 0
192 205 henkilöillä 0
193 188 säännöllisesti 0
193 194 liikuntaa 0
193 195 liikkumista 0
193 196 liikunnan 0
193 197 liikkumisen 0
193 198 ihmisellä 0
193 199 henkilöllä 0
193 203 niillä 0
193 204 ihmisillä 0
193 205 henkilöillä 0
194 19 harrastavilla 0
194 20 harrastavalla 0
195 19 harrastavilla 0
195 20 harrastavalla 0
196 17 harrastajilla 0
196 18 harrastajalla 0
197 17 harrastajilla 0
197 18 harrastajalla 0
198 200 , 0
199 200 , 0
2 221 liikuntaa 0
2 222 liikkumista 0
2 223 liikkuvalla 0
2 224 liikkuvilla 0
2 248 liikkuminen 0
20
200 187 joka 0
201 16 , 0
202 185 liikkuvat 0
203 204 ihmisillä 0
203 205 henkilöillä 0
203 206 , 0
204 206 , 0
205 206 , 0
206 202 jotka 0
207 47 masennukseen 0
207 214 masennuksen 0
208 11 masentumisesta 0
208 12 masentumiselle 0
208 13 masentumiseen 0
208 14 masennuksesta 0
208 15 masennukselle 0
208 48 masennukseen 0
208 207 sairastua 0
208 215 masennuksen 0
209 11 masentumisesta 0
209 12 masentumiselle 0
209 13 masentumiseen 0
209 14 masennuksesta 0
209 15 masennukselle 0
209 48 masennukseen 0
209 207 sairastua 0
209 215 masennuksen 0
21
210 11 masentumisesta 0
210 12 masentumiselle 0
210 13 masentumiseen 0
210 14 masennuksesta 0
210 15 masennukselle 0
210 48 masennukseen 0
210 207 sairastua 0
210 215 masennuksen 0
211 11 masentumisesta 0
211 12 masentumiselle 0
211 13 masentumiseen 0
211 14 masennuksesta 0
211 15 masennukselle 0
211 48 masennukseen 0
211 207 sairastua 0
211 215 masennuksen 0
212 11 masentumisesta 0
212 12 masentumiselle 0
212 13 masentumiseen 0
212 14 masennuksesta 0
212 15 masennukselle 0
212 48 masennukseen 0
212 207 sairastua 0
212 215 masennuksen 0
213 11 masentumisesta 0
213 12 masentumiselle 0
213 13 masentumiseen 0
213 14 masennuksesta 0
213 15 masennukselle 0
213 48 masennukseen 0
213 207 sairastua 0
213 215 masennuksen 0
214 5 syntyyn 0
214 10 kehittymiseen 0
215 5 syntyyn 0
215 6 synnystä 0
215 7 synnylle 0
215 8 kehittymisestä 0
215 9 kehittymiselle 0
215 10 kehittymiseen 0
216 163 &+ 0
217 163 &+ 0
218 239 säännöllisesti 0
219 239 säännöllisesti 0
22
220 219 liikkuu 0
221 232 harrastavilla 0
221 233 harrastavalla 0
222 232 harrastavilla 0
222 233 harrastavalla 0
223 230 ihmisellä 0
223 231 henkilöllä 0
223 264 on 0
224 228 ihmisillä 0
224 229 henkilöillä 0
224 264 on 0
225 264 on 0
226 264 on 0
227 264 on 0
228 264 on 0
229 264 on 0
23
230 264 on 0
231 264 on 0
232 264 on 0
233 264 on 0
234 226 harrastajilla 0
234 227 harrastajalla 0
234 244 harrastaminen 0
234 249 säännöllinen 0
235 226 harrastajilla 0
235 227 harrastajalla 0
235 244 harrastaminen 0
235 249 säännöllinen 0
236 238 , 0
237 238 , 0
238 220 joka 0
239 225 , 0
24
240 218 liikkuvat 0
241 243 , 0
242 243 , 0
243 240 jotka 0
244 154 ennaltaehkäisee 0
244 155 ehkäisee 0
244 158 vähentää 0
244 159 pienentää 0
244 160 alentaa 0
244 246 säännöllisesti 0
245 154 ennaltaehkäisee 0
245 155 ehkäisee 0
245 158 vähentää 0
245 159 pienentää 0
245 160 alentaa 0
246 154 ennaltaehkäisee 0
246 155 ehkäisee 0
246 158 vähentää 0
246 159 pienentää 0
246 160 alentaa 0
247 154 ennaltaehkäisee 0
247 155 ehkäisee 0
247 158 vähentää 0
247 159 pienentää 0
247 160 alentaa 0
248 154 ennaltaehkäisee 0
248 155 ehkäisee 0
248 158 vähentää 0
248 159 pienentää 0
248 160 alentaa 0
249 245 harrastaminen 0
25
250 245 harrastaminen 0
251 245 harrastaminen 0
252 62 riskiä 0
252 77 vaaraa 0
252 78 mahdollisuutta 0
252 106 vaara 0
252 107 mahdollisuus 0
252 122 riski 0
252 255 synnyn 0
252 256 kehittymisen 0
253 254 sairastumisen 0
254 62 riskiä 0
254 77 vaaraa 0
254 78 mahdollisuutta 0
254 106 vaara 0
254 107 mahdollisuus 0
254 122 riski 0
255 62 riskiä 0
255 77 vaaraa 0
255 78 mahdollisuutta 0
255 106 vaara 0
255 107 mahdollisuus 0
255 122 riski 0
256 62 riskiä 0
256 77 vaaraa 0
256 78 mahdollisuutta 0
256 106 vaara 0
256 107 mahdollisuus 0
256 122 riski 0
257 62 riskiä 0
257 77 vaaraa 0
257 78 mahdollisuutta 0
257 106 vaara 0
257 107 mahdollisuus 0
257 122 riski 0
258 189 vähäisempi 0
258 190 pienempi 0
259 189 vähäisempi 0
259 190 pienempi 0
259 191 matalampi 0
259 192 alhaisempi 0
259 193 alempi 0
26
260 177 vähentää 0
260 178 pienentää 0
261 177 vähentää 0
261 178 pienentää 0
262 177 vähentää 0
262 178 pienentää 0
262 179 alentaa 0
263 177 vähentää 0
263 178 pienentää 0
263 179 alentaa 0
264 137 vähäisempi 0
264 138 pienempi 0
264 139 matalampi 0
264 140 alhaisempi 0
264 141 alempi 0
27
28
29
3 241 ihmisillä 0
3 242 henkilöillä 0
3 243 , 0
30
31
32
33
34
35
36
37
38
39
4 247 liikunta 0
4 248 liikkuminen 0
4 250 liikunnan 0
4 251 liikkumisen 0
40
41
42
43
43 24 säännöllisesti 0
44
44 24 säännöllisesti 0
45
45 41 ihmisellä 0
45 42 henkilöllä 0
46
46 39 ihmisillä 0
46 40 henkilöillä 0
47
47 38 sairastumiseen 0
48
48 36 sairastumisesta 0
48 37 sairastumiselle 0
48 38 sairastumiseen 0
49 54 masennuksen 0
49 58 masennukseen 0
5
50 49 sairastua 0
50 55 masennuksen 0
50 59 masennukseen 0
50 72 masentumisesta 0
50 73 masentumiselle 0
50 74 masentumiseen 0
50 75 masennuksesta 0
50 76 masennukselle 0
51 56 masennuksen 0
51 60 masennukseen 0
52 51 sairastua 0
52 57 masennuksen 0
52 61 masennukseen 0
52 88 masentumisesta 0
52 89 masentumiselle 0
52 90 masentumiseen 0
52 91 masennuksesta 0
52 92 masennukselle 0
53 51 sairastua 0
53 57 masennuksen 0
53 61 masennukseen 0
53 88 masentumisesta 0
53 89 masentumiselle 0
53 90 masentumiseen 0
53 91 masennuksesta 0
53 92 masennukselle 0
54 66 syntyyn 0
54 71 kehittymiseen 0
55 66 syntyyn 0
55 67 synnystä 0
55 68 synnylle 0
55 69 kehittymisestä 0
55 70 kehittymiselle 0
55 71 kehittymiseen 0
56 82 syntyyn 0
56 87 kehittymiseen 0
57 82 syntyyn 0
57 83 synnystä 0
57 84 synnylle 0
57 85 kehittymisestä 0
57 86 kehittymiselle 0
57 87 kehittymiseen 0
58 65 sairastumiseen 0
58 261 voidaan 0
58 263 voi 0
59 63 sairastumisesta 0
59 64 sairastumiselle 0
59 65 sairastumiseen 0
59 261 voidaan 0
59 263 voi 0
6
60 81 sairastumiseen 0
60 260 voi 0
60 262 voidaan 0
61 79 sairastumisesta 0
61 80 sairastumiselle 0
61 81 sairastumiseen 0
61 260 voi 0
61 262 voidaan 0
62 261 voidaan 0
62 263 voi 0
63 261 voidaan 0
63 263 voi 0
64 261 voidaan 0
64 263 voi 0
65 261 voidaan 0
65 263 voi 0
66 261 voidaan 0
66 263 voi 0
67 261 voidaan 0
67 263 voi 0
68 261 voidaan 0
68 263 voi 0
69 261 voidaan 0
69 263 voi 0
7
70 261 voidaan 0
70 263 voi 0
71 261 voidaan 0
71 263 voi 0
72 261 voidaan 0
72 263 voi 0
73 261 voidaan 0
73 263 voi 0
74 261 voidaan 0
74 263 voi 0
75 261 voidaan 0
75 263 voi 0
76 261 voidaan 0
76 263 voi 0
77 260 voi 0
77 262 voidaan 0
78 260 voi 0
78 262 voidaan 0
79 260 voi 0
79 262 voidaan 0
8
80 260 voi 0
80 262 voidaan 0
81 260 voi 0
81 262 voidaan 0
82 260 voi 0
82 262 voidaan 0
83 260 voi 0
83 262 voidaan 0
84 260 voi 0
84 262 voidaan 0
85 260 voi 0
85 262 voidaan 0
86 260 voi 0
86 262 voidaan 0
87 260 voi 0
87 262 voidaan 0
88 260 voi 0
88 262 voidaan 0
89 260 voi 0
89 262 voidaan 0
9
90 260 voi 0
90 262 voidaan 0
91 260 voi 0
91 262 voidaan 0
92 260 voi 0
92 262 voidaan 0
93 99 masennuksen 0
93 103 masennukseen 0
94 93 sairastua 0
94 100 masennuksen 0
94 104 masennukseen 0
94 132 masentumisesta 0
94 133 masentumiselle 0
94 134 masentumiseen 0
94 135 masennuksesta 0
94 136 masennukselle 0
95 98 masennuksen 0
95 102 masennukseen 0
96 95 sairastua 0
96 101 masennuksen 0
96 105 masennukseen 0
96 117 masentumisesta 0
96 118 masentumiselle 0
96 119 masentumiseen 0
96 120 masennuksesta 0
96 121 masennukselle 0
97 95 sairastua 0
97 101 masennuksen 0
97 105 masennukseen 0
97 117 masentumisesta 0
97 118 masentumiselle 0
97 119 masentumiseen 0
97 120 masennuksesta 0
97 121 masennukselle 0
98 111 syntyyn 0
98 116 kehittymiseen 0
99 126 syntyyn 0
99 131 kehittymiseen 0
