1 32 kyse 0
1 41 tämä 0
1 42 se 0
1 43 kyseessä 0
10
11 15 hyvin 0
11 16 erittäin 0
11 17 paljon 0
11 36 toimenpide 0
11 37 tehtävä 0
11 38 operaatio 0
12 8 toimenpide 0
12 9 tehtävä 0
12 10 operaatio 0
13 8 toimenpide 0
13 9 tehtävä 0
13 10 operaatio 0
14 8 toimenpide 0
14 9 tehtävä 0
14 10 operaatio 0
15 13 tarkka 0
15 14 hienovarainen 0
16 13 tarkka 0
16 14 hienovarainen 0
17 18 tarkkuutta 0
18 12 vaativa 0
19 20 hyvin 0
19 21 erittäin 0
19 22 paljon 0
2
20 6 tarkka 0
20 7 hienovarainen 0
21 6 tarkka 0
21 7 hienovarainen 0
22 23 tarkkuutta 0
23 5 vaativa 0
24 28 hyvin 0
24 29 erittäin 0
24 30 paljon 0
24 33 toimenpiteesta 0
24 34 tehtävästä 0
24 35 operaatiosta 0
25 2 toimenpiteesta 0
25 3 tehtävästä 0
25 4 operaatiosta 0
26 2 toimenpiteesta 0
26 3 tehtävästä 0
26 4 operaatiosta 0
27 2 toimenpiteesta 0
27 3 tehtävästä 0
27 4 operaatiosta 0
28 26 tarkasta 0
28 27 hienovaraisesta 0
29 26 tarkasta 0
29 27 hienovaraisesta 0
3
30 31 tarkkuutta 0
31 25 vaativasta 0
32 24 oli 0
33 39 , 0
34 39 , 0
35 39 , 0
36 39 , 0
37 39 , 0
38 39 , 0
39 40 joka 0
4
40 19 oli 0
41 11 oli 0
42 11 oli 0
43 11 oli 0
5
6
7
8
9
