1 2 säännöllisesti 0
1 3 niillä 0
1 4 säännöllinen 0
1 56 riskiä 0
1 58 vaaraa 0
1 59 mahdollisuutta 0
1 118 riski 0
1 120 vaara 0
1 121 mahdollisuus 0
1 283 liikuntaa 0
1 284 liikkumista 0
1 296 liikunnan 0
1 297 liikkumisen 0
1 298 ihmisellä 0
1 299 henkilöllä 0
1 303 ihmisillä 0
1 304 henkilöillä 0
1 314 syövän 0
1 315 syöpäsairauksien 0
1 316 syöpäsairauden 0
1 317 syöpään 0
1 318 syöpäsairauteen 0
1 319 syöpäsairauksiin 0
10
100 325 voi 0
100 327 voidaan 0
101 325 voi 0
101 327 voidaan 0
102 325 voi 0
102 327 voidaan 0
103 325 voi 0
103 327 voidaan 0
104 325 voi 0
104 327 voidaan 0
105 325 voi 0
105 327 voidaan 0
106 325 voi 0
106 327 voidaan 0
107 325 voi 0
107 327 voidaan 0
108 325 voi 0
108 327 voidaan 0
109 325 voi 0
109 327 voidaan 0
11
110 325 voi 0
110 327 voidaan 0
111 325 voi 0
111 327 voidaan 0
112 325 voi 0
112 327 voidaan 0
113 325 voi 0
113 327 voidaan 0
114 325 voi 0
114 327 voidaan 0
115 325 voi 0
115 327 voidaan 0
116 325 voi 0
116 327 voidaan 0
117 125 syövän 0
117 126 syöpäsairauksien 0
117 127 syöpäsairauden 0
117 137 syöpään 0
117 138 syöpäsairauteen 0
117 139 syöpäsairauksiin 0
118 117 sairastua 0
118 128 syövän 0
118 129 syöpäsairauksien 0
118 130 syöpäsairauden 0
118 140 syöpään 0
118 141 syöpäsairauteen 0
118 142 syöpäsairauksiin 0
118 173 syövästä 0
118 174 syövälle 0
118 175 syöpäsairauksista 0
118 176 syöpäsairauksille 0
118 177 syöpäsairaudesta 0
118 178 syöpäsairaudelle 0
119 122 syövän 0
119 123 syöpäsairauksien 0
119 124 syöpäsairauden 0
119 134 syöpään 0
119 135 syöpäsairauteen 0
119 136 syöpäsairauksiin 0
12
120 119 sairastua 0
120 131 syövän 0
120 132 syöpäsairauksien 0
120 133 syöpäsairauden 0
120 143 syöpään 0
120 144 syöpäsairauteen 0
120 145 syöpäsairauksiin 0
120 157 syövästä 0
120 158 syövälle 0
120 159 syöpäsairauksista 0
120 160 syöpäsairauksille 0
120 161 syöpäsairaudesta 0
120 162 syöpäsairaudelle 0
121 119 sairastua 0
121 131 syövän 0
121 132 syöpäsairauksien 0
121 133 syöpäsairauden 0
121 143 syöpään 0
121 144 syöpäsairauteen 0
121 145 syöpäsairauksiin 0
121 157 syövästä 0
121 158 syövälle 0
121 159 syöpäsairauksista 0
121 160 syöpäsairauksille 0
121 161 syöpäsairaudesta 0
121 162 syöpäsairaudelle 0
122 151 syntyyn 0
122 156 kehittymiseen 0
123 151 syntyyn 0
123 156 kehittymiseen 0
124 151 syntyyn 0
124 156 kehittymiseen 0
125 167 syntyyn 0
125 172 kehittymiseen 0
126 167 syntyyn 0
126 172 kehittymiseen 0
127 167 syntyyn 0
127 172 kehittymiseen 0
128 167 syntyyn 0
128 168 synnystä 0
128 169 synnylle 0
128 170 kehittymisestä 0
128 171 kehittymiselle 0
128 172 kehittymiseen 0
129 167 syntyyn 0
129 168 synnystä 0
129 169 synnylle 0
129 170 kehittymisestä 0
129 171 kehittymiselle 0
129 172 kehittymiseen 0
13
130 167 syntyyn 0
130 168 synnystä 0
130 169 synnylle 0
130 170 kehittymisestä 0
130 171 kehittymiselle 0
130 172 kehittymiseen 0
131 151 syntyyn 0
131 152 synnystä 0
131 153 synnylle 0
131 154 kehittymisestä 0
131 155 kehittymiselle 0
131 156 kehittymiseen 0
132 151 syntyyn 0
132 152 synnystä 0
132 153 synnylle 0
132 154 kehittymisestä 0
132 155 kehittymiselle 0
132 156 kehittymiseen 0
133 151 syntyyn 0
133 152 synnystä 0
133 153 synnylle 0
133 154 kehittymisestä 0
133 155 kehittymiselle 0
133 156 kehittymiseen 0
134 150 sairastumiseen 0
134 323 on 0
135 150 sairastumiseen 0
135 323 on 0
136 150 sairastumiseen 0
136 323 on 0
137 166 sairastumiseen 0
137 324 on 0
138 166 sairastumiseen 0
138 324 on 0
139 166 sairastumiseen 0
139 324 on 0
14
140 164 sairastumisesta 0
140 165 sairastumiselle 0
140 166 sairastumiseen 0
140 324 on 0
141 164 sairastumisesta 0
141 165 sairastumiselle 0
141 166 sairastumiseen 0
141 324 on 0
142 164 sairastumisesta 0
142 165 sairastumiselle 0
142 166 sairastumiseen 0
142 324 on 0
143 148 sairastumisesta 0
143 149 sairastumiselle 0
143 150 sairastumiseen 0
143 323 on 0
144 148 sairastumisesta 0
144 149 sairastumiselle 0
144 150 sairastumiseen 0
144 323 on 0
145 148 sairastumisesta 0
145 149 sairastumiselle 0
145 150 sairastumiseen 0
145 323 on 0
146 323 on 0
147 323 on 0
148 323 on 0
149 323 on 0
15
150 323 on 0
151 323 on 0
152 323 on 0
153 323 on 0
154 323 on 0
155 323 on 0
156 323 on 0
157 323 on 0
158 323 on 0
159 323 on 0
16
160 323 on 0
161 323 on 0
162 323 on 0
163 324 on 0
164 324 on 0
165 324 on 0
166 324 on 0
167 324 on 0
168 324 on 0
169 324 on 0
17
170 324 on 0
171 324 on 0
172 324 on 0
173 324 on 0
174 324 on 0
175 324 on 0
176 324 on 0
177 324 on 0
178 324 on 0
179 184 syövän 0
179 185 syöpäsairauksien 0
179 186 syöpäsairauden 0
179 193 syöpään 0
179 194 syöpäsairauteen 0
179 195 syöpäsairauksiin 0
179 269 riski 0
179 270 vaara 0
179 271 mahdollisuus 0
18
180 184 syövän 0
180 185 syöpäsairauksien 0
180 186 syöpäsairauden 0
180 193 syöpään 0
180 194 syöpäsairauteen 0
180 195 syöpäsairauksiin 0
180 269 riski 0
180 270 vaara 0
180 271 mahdollisuus 0
181 187 syövän 0
181 188 syöpäsairauksien 0
181 189 syöpäsairauden 0
181 190 syöpään 0
181 191 syöpäsairauteen 0
181 192 syöpäsairauksiin 0
181 269 riski 0
182 187 syövän 0
182 188 syöpäsairauksien 0
182 189 syöpäsairauden 0
182 190 syöpään 0
182 191 syöpäsairauteen 0
182 192 syöpäsairauksiin 0
182 269 riski 0
183 187 syövän 0
183 188 syöpäsairauksien 0
183 189 syöpäsairauden 0
183 190 syöpään 0
183 191 syöpäsairauteen 0
183 192 syöpäsairauksiin 0
183 269 riski 0
184 35 vaara 0
184 36 riski 0
184 37 mahdollisuus 0
184 200 synnyn 0
184 201 kehittymisen 0
185 35 vaara 0
185 36 riski 0
185 37 mahdollisuus 0
185 200 synnyn 0
185 201 kehittymisen 0
186 35 vaara 0
186 36 riski 0
186 37 mahdollisuus 0
186 200 synnyn 0
186 201 kehittymisen 0
187 36 riski 0
187 197 synnyn 0
187 198 kehittymisen 0
188 36 riski 0
188 197 synnyn 0
188 198 kehittymisen 0
189 36 riski 0
189 197 synnyn 0
189 198 kehittymisen 0
19
190 196 sairastumisen 0
191 196 sairastumisen 0
192 196 sairastumisen 0
193 199 sairastumisen 0
194 199 sairastumisen 0
195 199 sairastumisen 0
196 36 riski 0
197 36 riski 0
198 36 riski 0
199 35 vaara 0
199 36 riski 0
199 37 mahdollisuus 0
2 283 liikuntaa 0
2 284 liikkumista 0
2 285 liikkuvalla 0
2 286 liikkuvilla 0
2 310 liikkuminen 0
20
200 35 vaara 0
200 36 riski 0
200 37 mahdollisuus 0
201 35 vaara 0
201 36 riski 0
201 37 mahdollisuus 0
202 32 syöpää 0
202 33 syöpäsairautta 0
202 34 syöpäsairauksia 0
202 204 syövän 0
202 205 syöpäsairauksien 0
202 206 syöpäsairauden 0
202 207 syöpään 0
202 208 syöpäsairauteen 0
202 209 syöpäsairauksiin 0
203 32 syöpää 0
203 33 syöpäsairautta 0
203 34 syöpäsairauksia 0
203 204 syövän 0
203 205 syöpäsairauksien 0
203 206 syöpäsairauden 0
203 207 syöpään 0
203 208 syöpäsairauteen 0
203 209 syöpäsairauksiin 0
204 30 syntyä 0
204 31 kehittymistä 0
205 30 syntyä 0
205 31 kehittymistä 0
206 30 syntyä 0
206 31 kehittymistä 0
207 29 sairastumista 0
208 29 sairastumista 0
209 29 sairastumista 0
21
210 216 syöpään 0
210 217 syöpäsairauteen 0
210 218 syöpäsairauksiin 0
210 226 syövän 0
210 227 syöpäsairauksien 0
210 228 syöpäsairauden 0
210 266 riskiä 0
210 267 vaaraa 0
210 268 mahdollisuutta 0
210 278 syöpäsairaus 0
210 279 syöpä 0
210 26 syöpäsairausBINDriskiä 0
210 26 syöpäBINDriskiä 0
211 216 syöpään 0
211 217 syöpäsairauteen 0
211 218 syöpäsairauksiin 0
211 226 syövän 0
211 227 syöpäsairauksien 0
211 228 syöpäsairauden 0
211 266 riskiä 0
211 267 vaaraa 0
211 268 mahdollisuutta 0
211 278 syöpäsairaus 0
211 279 syöpä 0
211 26 syöpäsairausBINDriskiä 0
211 26 syöpäBINDriskiä 0
212 213 syöpään 0
212 214 syöpäsairauteen 0
212 215 syöpäsairauksiin 0
212 229 syövän 0
212 230 syöpäsairauksien 0
212 231 syöpäsairauden 0
212 266 riskiä 0
212 278 syöpäsairaus 0
212 279 syöpä 0
212 26 syöpäsairausBINDriskiä 0
212 26 syöpäBINDriskiä 0
213 222 sairastumisen 0
214 222 sairastumisen 0
215 222 sairastumisen 0
216 225 sairastumisen 0
217 225 sairastumisen 0
218 225 sairastumisen 0
219 26 riskiä 0
22
220 26 riskiä 0
221 26 riskiä 0
222 26 riskiä 0
223 26 riskiä 0
223 27 vaaraa 0
223 28 mahdollisuutta 0
224 26 riskiä 0
224 27 vaaraa 0
224 28 mahdollisuutta 0
225 26 riskiä 0
225 27 vaaraa 0
225 28 mahdollisuutta 0
226 26 riskiä 0
226 27 vaaraa 0
226 28 mahdollisuutta 0
226 223 synnyn 0
226 224 kehittymisen 0
227 26 riskiä 0
227 27 vaaraa 0
227 28 mahdollisuutta 0
227 223 synnyn 0
227 224 kehittymisen 0
228 26 riskiä 0
228 27 vaaraa 0
228 28 mahdollisuutta 0
228 223 synnyn 0
228 224 kehittymisen 0
229 26 riskiä 0
229 220 synnyn 0
229 221 kehittymisen 0
23
230 26 riskiä 0
230 220 synnyn 0
230 221 kehittymisen 0
231 26 riskiä 0
231 220 synnyn 0
231 221 kehittymisen 0
232 45 liikuntaa 0
232 46 liikkumista 0
233 25 säännöllisesti 0
234 23 liikunnalla 0
234 24 liikkumisella 0
234 239 liikunnan 0
234 240 liikkumisen 0
235 232 harrastamalla 0
235 233 liikkumalla 0
235 234 säännöllisellä 0
235 241 liikunnan 0
235 242 liikkumisen 0
236 232 harrastamalla 0
236 233 liikkumalla 0
236 234 säännöllisellä 0
236 241 liikunnan 0
236 242 liikkumisen 0
237 232 harrastamalla 0
237 233 liikkumalla 0
237 234 säännöllisellä 0
237 241 liikunnan 0
237 242 liikkumisen 0
238 22 harrastamisella 0
239 22 harrastamisella 0
24
240 22 harrastamisella 0
241 22 harrastamisella 0
241 238 säännöllisellä 0
242 22 harrastamisella 0
242 238 säännöllisellä 0
243 259 säännöllisesti 0
244 259 säännöllisesti 0
245 244 liikkuu 0
246 47 liikkuvalla 0
246 48 liikkuvilla 0
246 252 liikuntaa 0
246 253 liikkumista 0
247 246 säännöllisesti 0
247 252 liikuntaa 0
247 253 liikkumista 0
247 254 liikunnan 0
247 255 liikkumisen 0
247 256 ihmisellä 0
247 257 henkilöllä 0
247 261 niillä 0
247 262 ihmisillä 0
247 263 henkilöillä 0
248 246 säännöllisesti 0
248 252 liikuntaa 0
248 253 liikkumista 0
248 254 liikunnan 0
248 255 liikkumisen 0
248 256 ihmisellä 0
248 257 henkilöllä 0
248 261 niillä 0
248 262 ihmisillä 0
248 263 henkilöillä 0
249 246 säännöllisesti 0
249 252 liikuntaa 0
249 253 liikkumista 0
249 254 liikunnan 0
249 255 liikkumisen 0
249 256 ihmisellä 0
249 257 henkilöllä 0
249 261 niillä 0
249 262 ihmisillä 0
249 263 henkilöillä 0
25
250 246 säännöllisesti 0
250 252 liikuntaa 0
250 253 liikkumista 0
250 254 liikunnan 0
250 255 liikkumisen 0
250 256 ihmisellä 0
250 257 henkilöllä 0
250 261 niillä 0
250 262 ihmisillä 0
250 263 henkilöillä 0
251 246 säännöllisesti 0
251 252 liikuntaa 0
251 253 liikkumista 0
251 254 liikunnan 0
251 255 liikkumisen 0
251 256 ihmisellä 0
251 257 henkilöllä 0
251 261 niillä 0
251 262 ihmisillä 0
251 263 henkilöillä 0
252 20 harrastavilla 0
252 21 harrastavalla 0
253 20 harrastavilla 0
253 21 harrastavalla 0
254 18 harrastajilla 0
254 19 harrastajalla 0
255 18 harrastajilla 0
255 19 harrastajalla 0
256 258 , 0
257 258 , 0
258 245 joka 0
259 17 , 0
26
260 243 liikkuvat 0
261 262 ihmisillä 0
261 263 henkilöillä 0
261 264 , 0
262 264 , 0
263 264 , 0
264 260 jotka 0
265 49 syöpään 0
265 50 syöpäsairauteen 0
265 51 syöpäsairauksiin 0
265 272 syövän 0
265 273 syöpäsairauksien 0
265 274 syöpäsairauden 0
266 11 syövästä 0
266 12 syövälle 0
266 13 syöpäsairauksista 0
266 14 syöpäsairauksille 0
266 15 syöpäsairaudesta 0
266 16 syöpäsairaudelle 0
266 52 syöpään 0
266 53 syöpäsairauteen 0
266 54 syöpäsairauksiin 0
266 265 sairastua 0
266 275 syövän 0
266 276 syöpäsairauksien 0
266 277 syöpäsairauden 0
267 11 syövästä 0
267 12 syövälle 0
267 13 syöpäsairauksista 0
267 14 syöpäsairauksille 0
267 15 syöpäsairaudesta 0
267 16 syöpäsairaudelle 0
267 52 syöpään 0
267 53 syöpäsairauteen 0
267 54 syöpäsairauksiin 0
267 265 sairastua 0
267 275 syövän 0
267 276 syöpäsairauksien 0
267 277 syöpäsairauden 0
268 11 syövästä 0
268 12 syövälle 0
268 13 syöpäsairauksista 0
268 14 syöpäsairauksille 0
268 15 syöpäsairaudesta 0
268 16 syöpäsairaudelle 0
268 52 syöpään 0
268 53 syöpäsairauteen 0
268 54 syöpäsairauksiin 0
268 265 sairastua 0
268 275 syövän 0
268 276 syöpäsairauksien 0
268 277 syöpäsairauden 0
269 11 syövästä 0
269 12 syövälle 0
269 13 syöpäsairauksista 0
269 14 syöpäsairauksille 0
269 15 syöpäsairaudesta 0
269 16 syöpäsairaudelle 0
269 52 syöpään 0
269 53 syöpäsairauteen 0
269 54 syöpäsairauksiin 0
269 265 sairastua 0
269 275 syövän 0
269 276 syöpäsairauksien 0
269 277 syöpäsairauden 0
27
270 11 syövästä 0
270 12 syövälle 0
270 13 syöpäsairauksista 0
270 14 syöpäsairauksille 0
270 15 syöpäsairaudesta 0
270 16 syöpäsairaudelle 0
270 52 syöpään 0
270 53 syöpäsairauteen 0
270 54 syöpäsairauksiin 0
270 265 sairastua 0
270 275 syövän 0
270 276 syöpäsairauksien 0
270 277 syöpäsairauden 0
271 11 syövästä 0
271 12 syövälle 0
271 13 syöpäsairauksista 0
271 14 syöpäsairauksille 0
271 15 syöpäsairaudesta 0
271 16 syöpäsairaudelle 0
271 52 syöpään 0
271 53 syöpäsairauteen 0
271 54 syöpäsairauksiin 0
271 265 sairastua 0
271 275 syövän 0
271 276 syöpäsairauksien 0
271 277 syöpäsairauden 0
272 5 syntyyn 0
272 10 kehittymiseen 0
273 5 syntyyn 0
273 10 kehittymiseen 0
274 5 syntyyn 0
274 10 kehittymiseen 0
275 5 syntyyn 0
275 6 synnystä 0
275 7 synnylle 0
275 8 kehittymisestä 0
275 9 kehittymiselle 0
275 10 kehittymiseen 0
276 5 syntyyn 0
276 6 synnystä 0
276 7 synnylle 0
276 8 kehittymisestä 0
276 9 kehittymiselle 0
276 10 kehittymiseen 0
277 5 syntyyn 0
277 6 synnystä 0
277 7 synnylle 0
277 8 kehittymisestä 0
277 9 kehittymiselle 0
277 10 kehittymiseen 0
278 219 &+ 0
279 219 &+ 0
28
280 301 säännöllisesti 0
281 301 säännöllisesti 0
282 281 liikkuu 0
283 294 harrastavilla 0
283 295 harrastavalla 0
284 294 harrastavilla 0
284 295 harrastavalla 0
285 292 ihmisellä 0
285 293 henkilöllä 0
285 329 on 0
286 290 ihmisillä 0
286 291 henkilöillä 0
286 329 on 0
287 329 on 0
288 329 on 0
289 329 on 0
29
290 329 on 0
291 329 on 0
292 329 on 0
293 329 on 0
294 329 on 0
295 329 on 0
296 288 harrastajilla 0
296 289 harrastajalla 0
296 306 harrastaminen 0
296 311 säännöllinen 0
297 288 harrastajilla 0
297 289 harrastajalla 0
297 306 harrastaminen 0
297 311 säännöllinen 0
298 300 , 0
299 300 , 0
3 303 ihmisillä 0
3 304 henkilöillä 0
3 305 , 0
30
300 282 joka 0
301 287 , 0
302 280 liikkuvat 0
303 305 , 0
304 305 , 0
305 302 jotka 0
306 202 ennaltaehkäisee 0
306 203 ehkäisee 0
306 210 vähentää 0
306 211 pienentää 0
306 212 alentaa 0
306 308 säännöllisesti 0
307 202 ennaltaehkäisee 0
307 203 ehkäisee 0
307 210 vähentää 0
307 211 pienentää 0
307 212 alentaa 0
308 202 ennaltaehkäisee 0
308 203 ehkäisee 0
308 210 vähentää 0
308 211 pienentää 0
308 212 alentaa 0
309 202 ennaltaehkäisee 0
309 203 ehkäisee 0
309 210 vähentää 0
309 211 pienentää 0
309 212 alentaa 0
31
310 202 ennaltaehkäisee 0
310 203 ehkäisee 0
310 210 vähentää 0
310 211 pienentää 0
310 212 alentaa 0
311 307 harrastaminen 0
312 307 harrastaminen 0
313 307 harrastaminen 0
314 84 riskiä 0
314 100 vaaraa 0
314 101 mahdollisuutta 0
314 146 vaara 0
314 147 mahdollisuus 0
314 163 riski 0
314 321 synnyn 0
314 322 kehittymisen 0
315 84 riskiä 0
315 100 vaaraa 0
315 101 mahdollisuutta 0
315 146 vaara 0
315 147 mahdollisuus 0
315 163 riski 0
315 321 synnyn 0
315 322 kehittymisen 0
316 84 riskiä 0
316 100 vaaraa 0
316 101 mahdollisuutta 0
316 146 vaara 0
316 147 mahdollisuus 0
316 163 riski 0
316 321 synnyn 0
316 322 kehittymisen 0
317 320 sairastumisen 0
318 320 sairastumisen 0
319 320 sairastumisen 0
32
320 84 riskiä 0
320 100 vaaraa 0
320 101 mahdollisuutta 0
320 146 vaara 0
320 147 mahdollisuus 0
320 163 riski 0
321 84 riskiä 0
321 100 vaaraa 0
321 101 mahdollisuutta 0
321 146 vaara 0
321 147 mahdollisuus 0
321 163 riski 0
322 84 riskiä 0
322 100 vaaraa 0
322 101 mahdollisuutta 0
322 146 vaara 0
322 147 mahdollisuus 0
322 163 riski 0
323 247 vähäisempi 0
323 248 pienempi 0
324 247 vähäisempi 0
324 248 pienempi 0
324 249 matalampi 0
324 250 alhaisempi 0
324 251 alempi 0
325 235 vähentää 0
325 236 pienentää 0
326 235 vähentää 0
326 236 pienentää 0
327 235 vähentää 0
327 236 pienentää 0
327 237 alentaa 0
328 235 vähentää 0
328 236 pienentää 0
328 237 alentaa 0
329 179 vähäisempi 0
329 180 pienempi 0
329 181 matalampi 0
329 182 alhaisempi 0
329 183 alempi 0
33
34
35
36
37
38
39
4 309 liikunta 0
4 310 liikkuminen 0
4 312 liikunnan 0
4 313 liikkumisen 0
40
41
42
43
44
45
45 25 säännöllisesti 0
46
46 25 säännöllisesti 0
47
47 43 ihmisellä 0
47 44 henkilöllä 0
48
48 41 ihmisillä 0
48 42 henkilöillä 0
49
49 40 sairastumiseen 0
5
50
50 40 sairastumiseen 0
51
51 40 sairastumiseen 0
52
52 38 sairastumisesta 0
52 39 sairastumiselle 0
52 40 sairastumiseen 0
53
53 38 sairastumisesta 0
53 39 sairastumiselle 0
53 40 sairastumiseen 0
54
54 38 sairastumisesta 0
54 39 sairastumiselle 0
54 40 sairastumiseen 0
55 60 syövän 0
55 61 syöpäsairauksien 0
55 62 syöpäsairauden 0
55 72 syöpään 0
55 73 syöpäsairauteen 0
55 74 syöpäsairauksiin 0
56 55 sairastua 0
56 63 syövän 0
56 64 syöpäsairauksien 0
56 65 syöpäsairauden 0
56 75 syöpään 0
56 76 syöpäsairauteen 0
56 77 syöpäsairauksiin 0
56 94 syövästä 0
56 95 syövälle 0
56 96 syöpäsairauksista 0
56 97 syöpäsairauksille 0
56 98 syöpäsairaudesta 0
56 99 syöpäsairaudelle 0
57 66 syövän 0
57 67 syöpäsairauksien 0
57 68 syöpäsairauden 0
57 78 syöpään 0
57 79 syöpäsairauteen 0
57 80 syöpäsairauksiin 0
58 57 sairastua 0
58 69 syövän 0
58 70 syöpäsairauksien 0
58 71 syöpäsairauden 0
58 81 syöpään 0
58 82 syöpäsairauteen 0
58 83 syöpäsairauksiin 0
58 111 syövästä 0
58 112 syövälle 0
58 113 syöpäsairauksista 0
58 114 syöpäsairauksille 0
58 115 syöpäsairaudesta 0
58 116 syöpäsairaudelle 0
59 57 sairastua 0
59 69 syövän 0
59 70 syöpäsairauksien 0
59 71 syöpäsairauden 0
59 81 syöpään 0
59 82 syöpäsairauteen 0
59 83 syöpäsairauksiin 0
59 111 syövästä 0
59 112 syövälle 0
59 113 syöpäsairauksista 0
59 114 syöpäsairauksille 0
59 115 syöpäsairaudesta 0
59 116 syöpäsairaudelle 0
6
60 88 syntyyn 0
60 93 kehittymiseen 0
61 88 syntyyn 0
61 93 kehittymiseen 0
62 88 syntyyn 0
62 93 kehittymiseen 0
63 88 syntyyn 0
63 89 synnystä 0
63 90 synnylle 0
63 91 kehittymisestä 0
63 92 kehittymiselle 0
63 93 kehittymiseen 0
64 88 syntyyn 0
64 89 synnystä 0
64 90 synnylle 0
64 91 kehittymisestä 0
64 92 kehittymiselle 0
64 93 kehittymiseen 0
65 88 syntyyn 0
65 89 synnystä 0
65 90 synnylle 0
65 91 kehittymisestä 0
65 92 kehittymiselle 0
65 93 kehittymiseen 0
66 105 syntyyn 0
66 110 kehittymiseen 0
67 105 syntyyn 0
67 110 kehittymiseen 0
68 105 syntyyn 0
68 110 kehittymiseen 0
69 105 syntyyn 0
69 106 synnystä 0
69 107 synnylle 0
69 108 kehittymisestä 0
69 109 kehittymiselle 0
69 110 kehittymiseen 0
7
70 105 syntyyn 0
70 106 synnystä 0
70 107 synnylle 0
70 108 kehittymisestä 0
70 109 kehittymiselle 0
70 110 kehittymiseen 0
71 105 syntyyn 0
71 106 synnystä 0
71 107 synnylle 0
71 108 kehittymisestä 0
71 109 kehittymiselle 0
71 110 kehittymiseen 0
72 87 sairastumiseen 0
72 326 voidaan 0
72 328 voi 0
73 87 sairastumiseen 0
73 326 voidaan 0
73 328 voi 0
74 87 sairastumiseen 0
74 326 voidaan 0
74 328 voi 0
75 85 sairastumisesta 0
75 86 sairastumiselle 0
75 87 sairastumiseen 0
75 326 voidaan 0
75 328 voi 0
76 85 sairastumisesta 0
76 86 sairastumiselle 0
76 87 sairastumiseen 0
76 326 voidaan 0
76 328 voi 0
77 85 sairastumisesta 0
77 86 sairastumiselle 0
77 87 sairastumiseen 0
77 326 voidaan 0
77 328 voi 0
78 104 sairastumiseen 0
78 325 voi 0
78 327 voidaan 0
79 104 sairastumiseen 0
79 325 voi 0
79 327 voidaan 0
8
80 104 sairastumiseen 0
80 325 voi 0
80 327 voidaan 0
81 102 sairastumisesta 0
81 103 sairastumiselle 0
81 104 sairastumiseen 0
81 325 voi 0
81 327 voidaan 0
82 102 sairastumisesta 0
82 103 sairastumiselle 0
82 104 sairastumiseen 0
82 325 voi 0
82 327 voidaan 0
83 102 sairastumisesta 0
83 103 sairastumiselle 0
83 104 sairastumiseen 0
83 325 voi 0
83 327 voidaan 0
84 326 voidaan 0
84 328 voi 0
85 326 voidaan 0
85 328 voi 0
86 326 voidaan 0
86 328 voi 0
87 326 voidaan 0
87 328 voi 0
88 326 voidaan 0
88 328 voi 0
89 326 voidaan 0
89 328 voi 0
9
90 326 voidaan 0
90 328 voi 0
91 326 voidaan 0
91 328 voi 0
92 326 voidaan 0
92 328 voi 0
93 326 voidaan 0
93 328 voi 0
94 326 voidaan 0
94 328 voi 0
95 326 voidaan 0
95 328 voi 0
96 326 voidaan 0
96 328 voi 0
97 326 voidaan 0
97 328 voi 0
98 326 voidaan 0
98 328 voi 0
99 326 voidaan 0
99 328 voi 0
